ether_out.vcd
$date
	Wed Dec 14 10:36:10 2022
$end
$version
	Icarus Verilog
$end
$timescale
	1ps
$end
$scope module ether_out_tb $end
$var wire 1 ! data_request $end
$var wire 1 " axiov $end
$var wire 2 # axiod [1:0] $end
$var reg 2 $ axiid [1:0] $end
$var reg 1 % axiiv $end
$var reg 1 & clk $end
$var reg 1 ' preamble_signal $end
$var reg 1 ( rst $end
$scope module uut $end
$var wire 176 ) HEADER [175:0] $end
$var wire 2 * axiid [1:0] $end
$var wire 1 % axiiv $end
$var wire 1 & clk $end
$var wire 1 + fcs_out_valid $end
$var wire 1 ' preamble_signal $end
$var wire 1 ( rst $end
$var wire 32 , fcs_out [31:0] $end
$var reg 2 - axiod [1:0] $end
$var reg 1 " axiov $end
$var reg 1 . crc_rst $end
$var reg 1 ! data_request $end
$var reg 1 / downtime $end
$var reg 4 0 fcs_counter [3:0] $end
$var reg 32 1 fcs_hold [31:0] $end
$var reg 2 2 fcs_in [1:0] $end
$var reg 1 3 fcs_in_valid $end
$var reg 5 4 gap_counter [4:0] $end
$var reg 7 5 header_counter [6:0] $end
$var reg 1 6 transmit_data $end
$var reg 1 7 transmit_fcs $end
$var reg 1 8 transmit_gap $end
$var reg 1 9 transmit_header $end
$scope module my_crc $end
$var wire 2 : axiid [1:0] $end
$var wire 1 3 axiiv $end
$var wire 32 ; axiod [31:0] $end
$var wire 1 + axiov $end
$var wire 1 & clk $end
$var wire 1 . rst $end
$var reg 32 < caxiod [31:0] $end
$var reg 32 = saxiod [31:0] $end
$var integer 32 > i [31:0] $end
$upscope $end
$upscope $end
$scope begin $ivl_for_loop0 $end
$var integer 32 ? i [31:0] $end
$scope begin $ivl_for_loop1 $end
$var integer 32 @ j [31:0] $end
$scope begin $ivl_for_loop2 $end
$var integer 32 A k [31:0] $end
$upscope $end
$upscope $end
$upscope $end
$scope begin $ivl_for_loop3 $end
$var integer 32 B i [31:0] $end
$upscope $end
$upscope $end
$enddefinitions $end
#0
$dumpvars
b0 B
b0 A
b0 @
b0 ?
bx >
bx =
bx <
bx ;
bx :
x9
x8
x7
x6
bx 5
bx 4
x3
bx 2
bx 1
bx 0
x/
1.
bx -
bx ,
1+
bx *
b1010101010101010101010101010101010101010101010101010101010101111111111111111111111111111111111111111111111111111111111111111111111111111111111111111111111111111001000000000000 )
0(
x'
0&
x%
bx $
bx #
x"
x!
$end
#10000
b1111xx1xxx1111xx11xxxxxxxxxxxxxx =
b100000 >
b0 ,
b0 ;
b11111111111111111111111111111111 <
1&
#20000
0&
#30000
b11110010101111001101100100100101 =
b100000 >
b0 2
b0 :
03
1/
08
07
06
09
b0 0
b0 5
b0 4
1&
1(
#40000
0&
#50000
1&
0(
#60000
0&
#70000
1&
#80000
0&
#90000
1&
#100000
0&
#110000
0.
0/
19
1&
1'
#120000
0&
#130000
b11111011001111101110001001001011 =
b100000 >
b1 2
b1 :
13
1"
b1 #
b1 -
b1 5
0!
1&
0'
#140000
0&
#150000
b11101000001110101001010010011011 =
b100000 >
b100110000010001110110110100 ,
b100110000010001110110110100 ;
b10 5
b11111011001111101110001001001011 <
1&
#160000
0&
#170000
b10100100001010110100111111011011 =
b100000 >
b10111110001010110101101100100 ,
b10111110001010110101101100100 ;
b11101000001110101001010010011011 <
b11 5
1&
#180000
0&
#190000
b10010000101011010011111101101100 =
b100000 >
b1011011110101001011000000100100 ,
b1011011110101001011000000100100 ;
b100 5
b10100100001010110100111111011011 <
1&
#200000
0&
#210000
b1000010101101001111110110110000 =
b100000 >
b1101111010100101100000010010011 ,
b1101111010100101100000010010011 ;
b10010000101011010011111101101100 <
b101 5
1&
b0 $
b0 *
1%
#220000
0&
#230000
b111100100001101000000011001 =
b100000 >
b10111101010010110000001001001111 ,
b10111101010010110000001001001111 ;
b110 5
b1000010101101001111110110110000 <
1&
b1 A
#240000
0&
#250000
b10111110000010111101100001010 =
b100000 >
b11111000011011110010111111100110 ,
b11111000011011110010111111100110 ;
b111100100001101000000011001 <
b111 5
1&
b10 A
#260000
0&
#270000
b1010110100001111101011101000110 =
b100000 >
b11101000001111101000010011110101 ,
b11101000001111101000010011110101 ;
b1000 5
b10111110000010111101100001010 <
1&
b11 A
#280000
0&
#290000
b1010111010111000111101111000001 =
b100000 >
b10101001011110000010100010111001 ,
b10101001011110000010100010111001 ;
b1010110100001111101011101000110 <
b1001 5
1&
b11 $
b11 *
b1 @
b0 A
#300000
0&
#310000
b1010000001100101100100111011101 =
b100000 >
b10101000101000111000010000111110 ,
b10101000101000111000010000111110 ;
b1010 5
b1010111010111000111101111000001 <
1&
b1 A
#320000
0&
#330000
b1001101100010000000000110101101 =
b100000 >
b10101111110011010011011000100010 ,
b10101111110011010011011000100010 ;
b1010000001100101100100111011101 <
b1011 5
1&
b10 A
#340000
0&
#350000
b111011011000110010000001101101 =
b100000 >
b10110010011101111111111001010010 ,
b10110010011101111111111001010010 ;
b1100 5
b1001101100010000000000110101101 <
1&
b11 A
#360000
0&
#370000
b11100100000011101011101011011010 =
b100000 >
b11000100100111001101111110010010 ,
b11000100100111001101111110010010 ;
b111011011000110010000001101101 <
b1101 5
1&
b10 @
b0 A
#380000
0&
#390000
b10010100111110111111011011011111 =
b100000 >
b11011111100010100010100100101 ,
b11011111100010100010100100101 ;
b1110 5
b11100100000011101011101011011010 <
1&
b1 A
#400000
0&
#410000
b1010011111011111101101101111100 =
b100000 >
b1101011000001000000100100100000 ,
b1101011000001000000100100100000 ;
b10010100111110111111011011011111 <
b1111 5
1&
b10 A
#420000
0&
#430000
b1000010111111000100101100101001 =
b100000 >
b10101100000100000010010010000011 ,
b10101100000100000010010010000011 ;
b10000 5
b1010011111011111101101101111100 <
1&
b11 A
#440000
0&
#450000
b110101100100000101001111101 =
b100000 >
b10111101000000111011010011010110 ,
b10111101000000111011010011010110 ;
b1000010111111000100101100101001 <
b10001 5
1&
b11 @
b0 A
#460000
0&
#470000
b10011010010100001001010011010 =
b100000 >
b11111001010011011111010110000010 ,
b11111001010011011111010110000010 ;
b10010 5
b110101100100000101001111101 <
1&
b1 A
#480000
0&
#490000
b1000100101010100111000100000110 =
b100000 >
b11101100101101011110110101100101 ,
b11101100101101011110110101100101 ;
b10011010010100001001010011010 <
b10011 5
1&
b10 A
#500000
0&
#510000
b11111111010101110001011000001 =
b100000 >
b10111011010101011000111011111001 ,
b10111011010101011000111011111001 ;
b10100 5
b1000100101010100111000100000110 <
1&
b11 A
#520000
0&
#530000
b1110110001010011011000001101010 =
b100000 >
b11100000000101010001110100111110 ,
b11100000000101010001110100111110 ;
b11111111010101110001011000001 <
b10101 5
1&
b100 @
b0 A
#540000
0&
#550000
b11010101111001011110011101110001 =
b100000 >
b10001001110101100100111110010101 ,
b10001001110101100100111110010101 ;
b10110 5
b1110110001010011011000001101010 <
1&
b1 A
#560000
0&
#570000
b1010011010101101000000001110011 =
b100000 >
b101010000110100001100010001110 ,
b101010000110100001100010001110 ;
b11010101111001011110011101110001 <
b10111 5
1&
b10 A
#580000
0&
#590000
b1000000000110010010011100010101 =
b100000 >
b10101100101010010111111110001100 ,
b10101100101010010111111110001100 ;
b11000 5
b1010011010101101000000001110011 <
1&
b11 A
#600000
0&
#610000
b1101001001111011101010001101 =
b100000 >
b10111111111001101101100011101010 ,
b10111111111001101101100011101010 ;
b1000000000110010010011100010101 <
b11001 5
1&
b101 @
b0 A
#620000
0&
#630000
b111101000111001101000101011010 =
b100000 >
b11110010110110000100010101110010 ,
b11110010110110000100010101110010 ;
b11010 5
b1101001001111011101010001101 <
1&
b1 A
#640000
0&
#650000
b11111101111100010111111000000110 =
b100000 >
b11000010111000110010111010100101 ,
b11000010111000110010111010100101 ;
b111101000111001101000101011010 <
b11011 5
1&
b10 A
#660000
0&
#670000
b11110011000001001110010110101111 =
b100000 >
b10000011101000000111111001 ,
b10000011101000000111111001 ;
b11100 5
b11111101111100010111111000000110 <
1&
b11 A
#680000
0&
#690000
b11001000110100101000101100001011 =
b100000 >
b1100111110110001101001010000 ,
b1100111110110001101001010000 ;
b11110011000001001110010110101111 <
b11101 5
1&
b110 @
b0 A
#700000
0&
#710000
b100111100010110011000110011011 =
b100000 >
b110111001011010111010011110100 ,
b110111001011010111010011110100 ;
b11110 5
b11001000110100101000101100001011 <
1&
b1 A
#720000
0&
#730000
b10010111101011101111110100000010 =
b100000 >
b11011000011101001100111001100100 ,
b11011000011101001100111001100100 ;
b100111100010110011000110011011 <
b11111 5
1&
b10 A
#740000
0&
#750000
b1011010011110101110100110111111 =
b100000 >
b1101000010100010000001011111101 ,
b1101000010100010000001011111101 ;
b11 2
b11 :
b11 #
b11 -
b100000 5
b10010111101011101111110100000010 <
1&
b11 A
#760000
0&
#770000
b1100000011010011001110110010010 =
b100000 >
b10100101100001010001011001000000 ,
b10100101100001010001011001000000 ;
b1011010011110101110100110111111 <
b100001 5
1&
b111 @
b0 A
#780000
0&
#790000
b10001000001001000100110100100110 =
b100000 >
b10011111100101100110001001101101 ,
b10011111100101100110001001101101 ;
b100010 5
b1100000011010011001110110010010 <
1&
b1 A
#800000
0&
#810000
b100100010100000010100100101111 =
b100000 >
b1110111110110111011001011011001 ,
b1110111110110111011001011011001 ;
b10001000001001000100110100100110 <
b100011 5
1&
b10 A
#820000
0&
#830000
b10011100000000111000001001100101 =
b100000 >
b11011011101011111101011011010000 ,
b11011011101011111101011011010000 ;
b100100 5
b100100010100000010100100101111 <
1&
b11 A
#840000
0&
#850000
b1110100110011110001010000100011 =
b100000 >
b1100011111111000111110110011010 ,
b1100011111111000111110110011010 ;
b10011100000000111000001001100101 <
b100101 5
1&
b1000 @
b0 A
#860000
0&
#870000
b11011010101111100110101111100010 =
b100000 >
b10001011001100001110101111011100 ,
b10001011001100001110101111011100 ;
b100110 5
b1110100110011110001010000100011 <
1&
b1 A
#880000
0&
#890000
b1101010111110011010111110001000 =
b100000 >
b100101010000011001010000011101 ,
b100101010000011001010000011101 ;
b11011010101111100110101111100010 <
b100111 5
1&
b10 A
#900000
0&
#910000
b10100010011001001000010101001110 =
b100000 >
b10010101000001100101000001110111 ,
b10010101000001100101000001110111 ;
b101000 5
b1101010111110011010111110001000 <
1&
b11 A
#920000
0&
#930000
b10001101010100110000100010001111 =
b100000 >
b1011101100110110111101010110001 ,
b1011101100110110111101010110001 ;
b10100010011001001000010101001110 <
b101001 5
1&
b1001 @
b0 A
#940000
0&
#950000
b110001100011010011111110001011 =
b100000 >
b1110010101011001111011101110000 ,
b1110010101011001111011101110000 ;
b101010 5
b10001101010100110000100010001111 <
1&
b1 A
#960000
0&
#970000
b11001011011101111101100011110101 =
b100000 >
b11001110011100101100000001110100 ,
b11001110011100101100000001110100 ;
b110001100011010011111110001011 <
b101011 5
1&
b10 A
#980000
0&
#990000
b101101110111110110001111010100 =
b100000 >
b110100100010000010011100001010 ,
b110100100010000010011100001010 ;
b101100 5
b11001011011101111101100011110101 <
1&
b11 A
#1000000
0&
#1010000
b10111010001111101010100110001001 =
b100000 >
b11010010001000001001110000101011 ,
b11010010001000001001110000101011 ;
b101101110111110110001111010100 <
b101101 5
1&
b1010 @
b0 A
#1020000
0&
#1030000
b11101100001110111011101110010011 =
b100000 >
b1000101110000010101011001110110 ,
b1000101110000010101011001110110 ;
b101110 5
b10111010001111101010100110001001 <
1&
b1 A
#1040000
0&
#1050000
b10110000111011101110111001001100 =
b100000 >
b10011110001000100010001101100 ,
b10011110001000100010001101100 ;
b11101100001110111011101110010011 <
b101111 5
1&
b10 A
#1060000
0&
#1070000
b11000111011110101010010010000111 =
b100000 >
b1001111000100010001000110110011 ,
b1001111000100010001000110110011 ;
b110000 5
b10110000111011101110111001001100 <
1&
b11 A
#1080000
0&
#1090000
b11101111010101001001000011100 =
b100000 >
b111000100001010101101101111000 ,
b111000100001010101101101111000 ;
b11000111011110101010010010000111 <
b110001 5
1&
b1011 @
b0 A
#1100000
0&
#1110000
b1111010111010010110111010101001 =
b100000 >
b11100010000101010110110111100011 ,
b11100010000101010110110111100011 ;
b110010 5
b11101111010101001001000011100 <
1&
b1 A
#1120000
0&
#1130000
b11100010001001111000000111001010 =
b100000 >
b10000101000101101001000101010110 ,
b10000101000101101001000101010110 ;
b1111010111010010110111010101001 <
b110011 5
1&
b10 A
#1140000
0&
#1150000
b10001000100111100000011100101000 =
b100000 >
b11101110110000111111000110101 ,
b11101110110000111111000110101 ;
b110100 5
b11100010001001111000000111001010 <
1&
b11 A
#1160000
0&
#1170000
b100110101110010000000100010111 =
b100000 >
b1110111011000011111100011010111 ,
b1110111011000011111100011010111 ;
b10001000100111100000011100101000 <
b110101 5
1&
b1100 @
b0 A
#1180000
0&
#1190000
b10010111101001110010001010000101 =
b100000 >
b11011001010001101111111011101000 ,
b11011001010001101111111011101000 ;
b110110 5
b100110101110010000000100010111 <
1&
b1 A
#1200000
0&
#1210000
b1011010010111011001011110100011 =
b100000 >
b1101000010110001101110101111010 ,
b1101000010110001101110101111010 ;
b10010111101001110010001010000101 <
b110111 5
1&
b10 A
#1220000
0&
#1230000
b1100000111101000110010111100010 =
b100000 >
b10100101101000100110100001011100 ,
b10100101101000100110100001011100 ;
b111000 5
b1011010010111011001011110100011 <
1&
b11 A
#1240000
0&
#1250000
b10001010010100111010110011100110 =
b100000 >
b10011111000010111001101000011101 ,
b10011111000010111001101000011101 ;
b1100000111101000110010111100010 <
b111001 5
1&
b1101 @
b0 A
#1260000
0&
#1270000
b101101100011111010111000101111 =
b100000 >
b1110101101011000101001100011001 ,
b1110101101011000101001100011001 ;
b111010 5
b10001010010100111010110011100110 <
1&
b1 A
#1280000
0&
#1290000
b10111011011111011001111001100101 =
b100000 >
b11010010011100000101000111010000 ,
b11010010011100000101000111010000 ;
b101101100011111010111000101111 <
b111011 5
1&
b10 A
#1300000
0&
#1310000
b11101001001101110110010000100011 =
b100000 >
b1000100100000100110000110011010 ,
b1000100100000100110000110011010 ;
b111100 5
b10111011011111011001111001100101 <
1&
b11 A
#1320000
0&
#1330000
b10100100110111011001000010001100 =
b100000 >
b10110110010001001101111011100 ,
b10110110010001001101111011100 ;
b11101001001101110110010000100011 <
b111101 5
1&
b1110 @
b0 A
#1340000
0&
#1350000
b10010111101101110101111110000111 =
b100000 >
b1011011001000100110111101110011 ,
b1011011001000100110111101110011 ;
b111110 5
b10100100110111011001000010001100 <
1&
b1 A
#1360000
0&
#1370000
b1011010000111000110001110101011 =
b100000 >
b1101000010010001010000001111000 ,
b1101000010010001010000001111000 ;
b10010111101101110101111110000111 <
b111111 5
1&
b10 A
#1380000
0&
#1390000
b1100001111100111011010111000010 =
b100000 >
b10100101111000111001110001010100 ,
b10100101111000111001110001010100 ;
b1000000 5
b1011010000111000110001110101011 <
1&
b11 A
#1400000
0&
#1410000
b10001110010011001110110001100110 =
b100000 >
b10011110000011000100101000111101 ,
b10011110000011000100101000111101 ;
b1100001111100111011010111000010 <
b1000001 5
1&
b1111 @
b0 A
#1420000
0&
#1430000
b111101111100101010110000101111 =
b100000 >
b1110001101100110001001110011001 ,
b1110001101100110001001110011001 ;
b1000010 5
b10001110010011001110110001100110 <
1&
b1 A
#1440000
0&
#1450000
b11111010100010011001011001100101 =
b100000 >
b11000010000011010101001111010000 ,
b11000010000011010101001111010000 ;
b111101111100101010110000101111 <
b1000011 5
1&
b10 A
#1460000
0&
#1470000
b11101010001001100101100110010100 =
b100000 >
b101011101100110100110011010 ,
b101011101100110100110011010 ;
b1000100 5
b11111010100010011001011001100101 <
1&
b11 A
#1480000
0&
#1490000
b10101000100110010110011001010000 =
b100000 >
b10101110110011010011001101011 ,
b10101110110011010011001101011 ;
b11101010001001100101100110010100 <
b1000101 5
1&
b10000 @
b0 A
#1500000
0&
#1510000
b10100110101001001000010011110111 =
b100000 >
b1010111011001101001100110101111 ,
b1010111011001101001100110101111 ;
b1000110 5
b10101000100110010110011001010000 <
1&
b1 A
#1520000
0&
#1530000
b10011110010100110000111001101011 =
b100000 >
b1011001010110110111101100001000 ,
b1011001010110110111101100001000 ;
b10100110101001001000010011110111 <
b1000111 5
1&
b10 A
#1540000
0&
#1550000
b1111101100011010010010000011011 =
b100000 >
b1100001101011001111000110010100 ,
b1100001101011001111000110010100 ;
b1001000 5
b10011110010100110000111001101011 <
1&
b11 A
#1560000
0&
#1570000
b11111111101101101010101100000010 =
b100000 >
b10000010011100101101101111100100 ,
b10000010011100101101101111100100 ;
b1111101100011010010010000011011 <
b1001001 5
1&
b10001 @
b0 A
#1580000
0&
#1590000
b11111110110110101010110000001000 =
b100000 >
b10010010101010011111101 ,
b10010010101010011111101 ;
b1001010 5
b11111111101101101010101100000010 <
1&
b1 A
#1600000
0&
#1610000
b11111011011010101011000000100000 =
b100000 >
b1001001010101001111110111 ,
b1001001010101001111110111 ;
b11111110110110101010110000001000 <
b1001011 5
1&
b10 A
#1620000
0&
#1630000
b11101101101010101100000010000000 =
b100000 >
b100100101010100111111011111 ,
b100100101010100111111011111 ;
b1001100 5
b11111011011010101011000000100000 <
1&
b11 A
#1640000
0&
#1650000
b10110110101010110000001000000000 =
b100000 >
b10010010101010011111101111111 ,
b10010010101010011111101111111 ;
b11101101101010101100000010000000 <
b1001101 5
1&
b10010 @
b0 A
#1660000
0&
#1670000
b11011110011011010001010110110111 =
b100000 >
b1001001010101001111110111111111 ,
b1001001010101001111110111111111 ;
b1001110 5
b10110110101010110000001000000000 <
1&
b1 A
#1680000
0&
#1690000
b1111001101101000101011011011100 =
b100000 >
b100001100100101110101001001000 ,
b100001100100101110101001001000 ;
b11011110011011010001010110110111 <
b1001111 5
1&
b10 A
#1700000
0&
#1710000
b11101111010100110110000000011110 =
b100000 >
b10000110010010111010100100100011 ,
b10000110010010111010100100100011 ;
b1010000 5
b1111001101101000101011011011100 <
1&
b11 A
#1720000
0&
#1730000
b10000101011001001111111100001 ,
b10000101011001001111111100001 ;
b10110100110011111011101100010110 =
b100000 >
b11101111010100110110000000011110 <
b10 2
b10 :
b10 #
b10 -
b1010001 5
1&
b10011 @
b0 A
#1740000
0&
#1750000
b11010011001111101110110001011000 =
b100000 >
b1001011001100000100010011101001 ,
b1001011001100000100010011101001 ;
b1 2
b1 :
b1 #
b1 -
b1010010 5
b10110100110011111011101100010110 <
1&
b1 A
#1760000
0&
#1770000
b101100110000010001001110100111 ,
b101100110000010001001110100111 ;
b1000001101110001001011110111001 =
b100000 >
b11010011001111101110110001011000 <
b0 2
b0 :
b0 #
b0 -
b1010011 5
1&
b10 A
#1780000
0&
#1790000
b10001000110100001101010011 =
b100000 >
b10111110010001110110100001000110 ,
b10111110010001110110100001000110 ;
b1010100 5
1!
b1000001101110001001011110111001 <
1&
b11 A
#1800000
0&
#1810000
b1000100011010000110101001100 =
b100000 >
b11111101110111001011110010101100 ,
b11111101110111001011110010101100 ;
b10001000110100001101010011 <
b1010101 5
0!
1&
b10100 @
b0 A
#1820000
0&
#1830000
b100010001101000011010100110000 =
b100000 >
b11110111011100101111001010110011 ,
b11110111011100101111001010110011 ;
b1010110 5
b1000100011010000110101001100 <
1&
b1 A
#1840000
0&
#1850000
b10001000110100001101010011000000 =
b100000 >
b11011101110010111100101011001111 ,
b11011101110010111100101011001111 ;
b100010001101000011010100110000 <
b1010111 5
1&
b10 A
#1860000
0&
#1870000
b101010110000010110100001101110 =
b100000 >
b1110111001011110010101100111111 ,
b1110111001011110010101100111111 ;
b0 5
16
09
b10001000110100001101010011000000 <
1&
b11 A
#1880000
0&
#1890000
b11010101001111101001011110010001 ,
b11010101001111101001011110010001 ;
b10100110010001101000011101100001 =
b100000 >
b101010110000010110100001101110 <
b11 2
b11 :
b11 #
b11 -
1&
b10101 @
b0 A
#1900000
0&
#1910000
b10011101110110110000000000110011 =
b100000 >
b1011001101110010111100010011110 ,
b1011001101110010111100010011110 ;
b10100110010001101000011101100001 <
1&
b1 A
#1920000
0&
#1930000
b1110011101011010001110101111011 =
b100000 >
b1100010001001001111111111001100 ,
b1100010001001001111111111001100 ;
b10011101110110110000000000110011 <
1&
b10 A
#1940000
0&
#1950000
b11000111001101100100111010000010 =
b100000 >
b10001100010100101110001010000100 ,
b10001100010100101110001010000100 ;
b1110011101011010001110101111011 <
1&
b11 A
#1960000
0&
#1970000
b11100110110010011101000001000 =
b100000 >
b111000110010011011000101111101 ,
b111000110010011011000101111101 ;
b11000111001101100100111010000010 <
1&
b10110 @
b0 A
#1980000
0&
#1990000
b1111110001001111100111011111001 =
b100000 >
b11100011001001101100010111110111 ,
b11100011001001101100010111110111 ;
b11100110110010011101000001000 <
1&
b1 A
#2000000
0&
#2010000
b11110001000111010000000010001010 =
b100000 >
b10000001110110000011000100000110 ,
b10000001110110000011000100000110 ;
b1111110001001111100111011111001 <
1&
b10 A
#2020000
0&
#2030000
b11000100011101000000001000101000 =
b100000 >
b1110111000101111111101110101 ,
b1110111000101111111101110101 ;
b11110001000111010000000010001010 <
1&
b11 A
#2040000
0&
#2050000
b10001110100000000100010100000 =
b100000 >
b111011100010111111110111010111 ,
b111011100010111111110111010111 ;
b11000100011101000000001000101000 <
1&
b10111 @
b0 A
#2060000
0&
#2070000
b1001010000000110000010001011001 =
b100000 >
b11101110001011111111011101011111 ,
b11101110001011111111011101011111 ;
b10001110100000000100010100000 <
1&
b1 A
#2080000
0&
#2090000
b100001100011100010101000001010 =
b100000 >
b10110101111111001111101110100110 ,
b10110101111111001111101110100110 ;
b1001010000000110000010001011001 <
1&
b10 A
#2100000
0&
#2110000
b10001011011110111000111011110001 =
b100000 >
b11011110011100011101010111110101 ,
b11011110011100011101010111110101 ;
b100001100011100010101000001010 <
1&
b11 A
#2120000
0&
#2130000
b101001001011110010011001110011 =
b100000 >
b1110100100001000111000100001110 ,
b1110100100001000111000100001110 ;
b10001011011110111000111011110001 <
1&
b11000 @
b0 A
#2140000
0&
#2150000
b10101001111111111011111100010101 =
b100000 >
b11010110110100001101100110001100 ,
b11010110110100001101100110001100 ;
b101001001011110010011001110011 <
1&
b1 A
#2160000
0&
#2170000
b10100011001111111110000111100011 =
b100000 >
b1010110000000000100000011101010 ,
b1010110000000000100000011101010 ;
b10101001111111111011111100010101 <
1&
b10 A
#2180000
0&
#2190000
b10001000001111101001101000111011 =
b100000 >
b1011100110000000001111000011100 ,
b1011100110000000001111000011100 ;
b10100011001111111110000111100011 <
1&
b11 A
#2200000
0&
#2210000
b100100001110110111010101011011 =
b100000 >
b1110111110000010110010111000100 ,
b1110111110000010110010111000100 ;
b10001000001111101001101000111011 <
1&
b11001 @
b0 A
#2220000
0&
#2230000
b10011101101011101111001110110101 =
b100000 >
b11011011110001001000101010100100 ,
b11011011110001001000101010100100 ;
b100100001110110111010101011011 <
1&
b1 A
#2240000
0&
#2250000
b1110010011110101101001101100011 =
b100000 >
b1100010010100010000110001001010 ,
b1100010010100010000110001001010 ;
b10011101101011101111001110110101 <
1&
b10 A
#2260000
0&
#2270000
b11000000011010010111011011100010 =
b100000 >
b10001101100001010010110010011100 ,
b10001101100001010010110010011100 ;
b1110010011110101101001101100011 <
1&
b11 A
#2280000
0&
#2290000
b1101001011101101110001000 =
b100000 >
b111111100101101000100100011101 ,
b111111100101101000100100011101 ;
b11000000011010010111011011100010 <
1&
b11010 @
b0 A
#2300000
0&
#2310000
b1011110101000100100011111001 =
b100000 >
b11111110010110100010010001110111 ,
b11111110010110100010010001110111 ;
b1101001011101101110001000 <
1&
b1 A
#2320000
0&
#2330000
b100010000100100000010100111101 =
b100000 >
b11110100001010111011011100000110 ,
b11110100001010111011011100000110 ;
b1011110101000100100011111001 <
1&
b10 A
#2340000
0&
#2350000
b10000101000010110011001000101101 =
b100000 >
b11011101111011011111101011000010 ,
b11011101111011011111101011000010 ;
b100010000100100000010100111101 <
1&
b11 A
#2360000
0&
#2370000
b10000111011011101010100000011 =
b100000 >
b1111010111101001100110111010010 ,
b1111010111101001100110111010010 ;
b10000101000010110011001000101101 <
1&
b11011 @
b0 A
#2380000
0&
#2390000
b1001110111101000111001011010101 =
b100000 >
b11101111000100100010101011111100 ,
b11101111000100100010101011111100 ;
b10000111011011101010100000011 <
1&
b1 A
#2400000
0&
#2410000
b110010010100111111000000111010 =
b100000 >
b10110001000010111000110100101010 ,
b10110001000010111000110100101010 ;
b1001110111101000111001011010101 <
1&
b10 A
#2420000
0&
#2430000
b11000100000011001110011000110001 =
b100000 >
b11001101101011000000111111000101 ,
b11001101101011000000111111000101 ;
b110010010100111111000000111010 <
1&
b11 A
#2440000
0&
#2450000
b10000001100111001100011000100 =
b100000 >
b111011111100110001100111001110 ,
b111011111100110001100111001110 ;
b11000100000011001110011000110001 <
1&
b11100 @
b0 A
#2460000
0&
#2470000
b1001101100011010100010111001001 =
b100000 >
b11101111110011000110011100111011 ,
b11101111110011000110011100111011 ;
b10000001100111001100011000100 <
1&
b1 A
#2480000
0&
#2490000
b111111101101110010110001001010 =
b100000 >
b10110010011100101011101000110110 ,
b10110010011100101011101000110110 ;
b1001101100011010100010111001001 <
1&
b10 A
#2500000
0&
#2510000
b11110011100111111001011111110001 =
b100000 >
b11000000010010001101001110110101 ,
b11000000010010001101001110110101 ;
b111111101101110010110001001010 <
1&
b11 A
#2520000
0&
#2530000
b11001110011111100101111111000100 =
b100000 >
b1100011000000110100000001110 ,
b1100011000000110100000001110 ;
b11110011100111111001011111110001 <
1&
b11101 @
b0 A
#2540000
0&
#2550000
b111001111110010111111100010000 =
b100000 >
b110001100000011010000000111011 ,
b110001100000011010000000111011 ;
b11001110011111100101111111000100 <
1&
b1 A
#2560000
0&
#2570000
b11101010101001101101101010011001 =
b100000 >
b11000110000001101000000011101111 ,
b11000110000001101000000011101111 ;
b111001111110010111111100010000 <
1&
b10 A
#2580000
0&
#2590000
b10101010100110110110101001100100 =
b100000 >
b10101010110010010010101100110 ,
b10101010110010010010101100110 ;
b11101010101001101101101010011001 <
1&
b11 A
#2600000
0&
#2610000
b10101110101011001011010000100111 =
b100000 >
b1010101011001001001010110011011 ,
b1010101011001001001010110011011 ;
b10101010100110110110101001100100 <
1&
b11110 @
b0 A
#2620000
0&
#2630000
b10111110011100111100110100101011 =
b100000 >
b1010001010100110100101111011000 ,
b1010001010100110100101111011000 ;
b10101110101011001011010000100111 <
1&
b1 A
#2640000
0&
#2650000
b11111101000011100010100100011011 =
b100000 >
b1000001100011000011001011010100 ,
b1000001100011000011001011010100 ;
b10111110011100111100110100101011 <
1&
b10 A
#2660000
0&
#2670000
b11110100001110001010010001101100 =
b100000 >
b10111100011101011011100100 ,
b10111100011101011011100100 ;
b11111101000011100010100100011011 <
1&
b11 A
#2680000
0&
#2690000
b11010000111000101001000110110000 =
b100000 >
b1011110001110101101110010011 ,
b1011110001110101101110010011 ;
b11110100001110001010010001101100 <
1&
b11111 @
b0 A
#2700000
0&
#2710000
b1000011100010100100011011000000 =
b100000 >
b101111000111010110111001001111 ,
b101111000111010110111001001111 ;
b11010000111000101001000110110000 <
1&
b1 A
#2720000
0&
#2730000
b111101010110010000001101110 =
b100000 >
b10111100011101011011100100111111 ,
b10111100011101011011100100111111 ;
b1000011100010100100011011000000 <
1&
b10 A
#2740000
0&
#2750000
b10011111011111010011101100001 =
b100000 >
b11111000010101001101111110010001 ,
b11111000010101001101111110010001 ;
b111101010110010000001101110 <
1&
b11 A
#2760000
0&
#2770000
b1000010111111011011101101011101 =
b100000 >
b11101100000100000101100010011110 ,
b11101100000100000101100010011110 ;
b10011111011111010011101100001 <
1&
b1 ?
b0 @
b0 A
#2780000
0&
#2790000
b10011101001101011000011010 =
b100000 >
b10111101000000100100010010100010 ,
b10111101000000100100010010100010 ;
b1000010111111011011101101011101 <
1&
b1 A
#2800000
0&
#2810000
b100100100000111111010110001 =
b100000 >
b11111101100010110010100111100101 ,
b11111101100010110010100111100101 ;
b10011101001101011000011010 <
1&
b10 A
#2820000
0&
#2830000
b11111000000101101110000011101 =
b100000 >
b11111011011011111000000101001110 ,
b11111011011011111000000101001110 ;
b100100100000111111010110001 <
1&
b11 A
#2840000
0&
#2850000
b11100000111111010010001111100010 ,
b11100000111111010010001111100010 ;
b1111100000010110111000001110100 =
b100000 >
b11111000000101101110000011101 <
b0 2
b0 :
b0 #
b0 -
1&
b0 $
b0 *
b1 @
b0 A
#2860000
0&
#2870000
b11110100111011001101110001100111 =
b100000 >
b10000011111101001000111110001011 ,
b10000011111101001000111110001011 ;
b1111100000010110111000001110100 <
1&
b1 A
#2880000
0&
#2890000
b11011110111100000101011101000101 =
b100000 >
b1011000100110010001110011000 ,
b1011000100110010001110011000 ;
b11110100111011001101110001100111 <
1&
b10 A
#2900000
0&
#2910000
b1110110100000100111101111001101 =
b100000 >
b100001000011111010100010111010 ,
b100001000011111010100010111010 ;
b11011110111100000101011101000101 <
1&
b11 A
#2920000
0&
#2930000
b10001001011111011000010000110010 ,
b10001001011111011000010000110010 ;
b11010011100010111101010001011010 =
b100000 >
b1110110100000100111101111001101 <
b11 2
b11 :
b11 #
b11 -
1&
b11 $
b11 *
b10 @
b0 A
#2940000
0&
#2950000
b1001110001011110101000101101000 =
b100000 >
b101100011101000010101110100101 ,
b101100011101000010101110100101 ;
b11010011100010111101010001011010 <
1&
b1 A
#2960000
0&
#2970000
b110001001111110111111011001110 =
b100000 >
b10110001110100001010111010010111 ,
b10110001110100001010111010010111 ;
b1001110001011110101000101101000 <
1&
b10 A
#2980000
0&
#2990000
b11001001101111101101110111100001 =
b100000 >
b11001110110000001000000100110001 ,
b11001110110000001000000100110001 ;
b110001001111110111111011001110 <
1&
b11 A
#3000000
0&
#3010000
b100110111110110111011110000100 =
b100000 >
b110110010000010010001000011110 ,
b110110010000010010001000011110 ;
b11001001101111101101110111100001 <
1&
b11 @
b0 A
#3020000
0&
