matrix_loader.vcd
$date
	Tue Dec 13 10:56:29 2022
$end
$version
	Icarus Verilog
$end
$timescale
	1ps
$end
$scope module matrix_loader_tb $end
$var wire 1 ! complete $end
$var wire 256 " b_col_out [255:0] $end
$var wire 5 # addr_out [4:0] $end
$var wire 256 $ a_row_out [255:0] $end
$var reg 2 % axiid [1:0] $end
$var reg 1 & axiiv $end
$var reg 1 ' clk $end
$var reg 5 ( requested_a_row [4:0] $end
$var reg 5 ) requested_b_col [4:0] $end
$var reg 1 * rst $end
$scope module uut $end
$var wire 1 + A_enb $end
$var wire 1 , A_regceb $end
$var wire 1 - A_wea $end
$var wire 1 . B_enb $end
$var wire 1 / B_regceb $end
$var wire 1 0 B_wea $end
$var wire 2 1 axiid [1:0] $end
$var wire 1 & axiiv $end
$var wire 1 ' eth_refclk $end
$var wire 1 ' inter_refclk $end
$var wire 5 2 requested_a_row [4:0] $end
$var wire 5 3 requested_b_col [4:0] $end
$var wire 1 * rst $end
$var wire 256 4 B_dout [255:0] $end
$var wire 256 5 A_dout [255:0] $end
$var reg 5 6 A_addra [4:0] $end
$var reg 5 7 A_addrb [4:0] $end
$var reg 256 8 A_dina [255:0] $end
$var reg 5 9 B_addra [4:0] $end
$var reg 5 : B_addrb [4:0] $end
$var reg 256 ; B_dina [255:0] $end
$var reg 256 < a_row_out [255:0] $end
$var reg 5 = addr_out [4:0] $end
$var reg 256 > b_col_out [255:0] $end
$var reg 1 ? bad $end
$var reg 1 @ bram_rst $end
$var reg 1 ! complete $end
$var reg 1 A downtime $end
$var reg 6 B element_buffer [5:0] $end
$var reg 2 C element_counter [1:0] $end
$var reg 1 D loading $end
$var reg 10 E matrix_counter [9:0] $end
$var reg 256 F row_buffer [255:0] $end
$var reg 1 G transmitting $end
$scope module Matrix_A_BRAM $end
$var wire 5 H addra [4:0] $end
$var wire 5 I addrb [4:0] $end
$var wire 1 ' clka $end
$var wire 1 ' clkb $end
$var wire 256 J dina [255:0] $end
$var wire 1 + enb $end
$var wire 1 , regceb $end
$var wire 1 * rstb $end
$var wire 1 - wea $end
$var wire 256 K doutb [255:0] $end
$var reg 256 L ram_data [255:0] $end
$scope function clogb2 $end
$var integer 32 M depth [31:0] $end
$upscope $end
$scope begin init_bram_to_zero $end
$var integer 32 N ram_index [31:0] $end
$upscope $end
$scope begin output_register $end
$var reg 256 O doutb_reg [255:0] $end
$upscope $end
$upscope $end
$scope module Matrix_B_BRAM $end
$var wire 5 P addra [4:0] $end
$var wire 5 Q addrb [4:0] $end
$var wire 1 ' clka $end
$var wire 1 ' clkb $end
$var wire 256 R dina [255:0] $end
$var wire 1 . enb $end
$var wire 1 / regceb $end
$var wire 1 * rstb $end
$var wire 1 0 wea $end
$var wire 256 S doutb [255:0] $end
$var reg 256 T ram_data [255:0] $end
$scope function clogb2 $end
$var integer 32 U depth [31:0] $end
$upscope $end
$scope begin init_bram_to_zero $end
$var integer 32 V ram_index [31:0] $end
$upscope $end
$scope begin output_register $end
$var reg 256 W doutb_reg [255:0] $end
$upscope $end
$upscope $end
$upscope $end
$scope begin $ivl_for_loop0 $end
$var integer 32 X i [31:0] $end
$scope begin $ivl_for_loop1 $end
$var integer 32 Y j [31:0] $end
$scope begin $ivl_for_loop2 $end
$var integer 32 Z k [31:0] $end
$upscope $end
$upscope $end
$upscope $end
$scope begin $ivl_for_loop3 $end
$var integer 32 [ i [31:0] $end
$upscope $end
$upscope $end
$enddefinitions $end
#0
$dumpvars
b0 [
b0 Z
b0 Y
b0 X
b0 W
b100000 V
bx U
b0 T
b0 S
bx R
bx Q
bx P
b0 O
b100000 N
bx M
b0 L
b0 K
bx J
bx I
bx H
xG
bx F
bx E
xD
bx C
bx B
xA
x@
x?
bx >
bx =
bx <
bx ;
bx :
bx 9
bx 8
bx 7
bx 6
b0 5
b0 4
bx 3
bx 2
bx 1
00
0/
0.
0-
0,
0+
0*
bx )
bx (
0'
x&
bx %
bx $
bx #
bx "
x!
$end
#10000
1'
#20000
0'
#30000
b0 E
b0 C
0D
1A
1@
1'
1*
#40000
0'
#50000
x@
1'
0*
#60000
0'
#70000
1'
#80000
0'
#90000
1'
#100000
0'
#110000
b1 E
b0 F
1D
0A
1'
b0 %
b0 1
1&
#120000
0'
#130000
b0xxxx B
b1 C
1'
b1 Z
#140000
0'
#150000
b0xx B
b10 C
1'
b10 Z
#160000
0'
#170000
b0 B
b11 C
1'
b11 Z
#180000
0'
#190000
b110000000000000000000000000000000000000000000000000000000000000000000000000000000000000000000000000000000000000000000000000000000000000000000000000000000000000000000000000000000000000000000000000000000000000000000000000000000000000000000000000000000 F
b10 E
b0 C
1'
b11 %
b11 1
b1 Y
b0 Z
#200000
0'
#210000
b110000 B
b1 C
1'
b1 Z
#220000
0'
#230000
b111100 B
b10 C
1'
b10 Z
#240000
0'
#250000
b111111 B
b11 C
1'
b11 Z
#260000
0'
#270000
b11111111000000000000000000000000000000000000000000000000000000000000000000000000000000000000000000000000000000000000000000000000000000000000000000000000000000000000000000000000000000000000000000000000000000000000000000000000000000000000000000000000000000 F
b11 E
b0 C
1'
b10 Y
b0 Z
#280000
0'
#290000
b1 C
1'
b1 Z
#300000
0'
#310000
b10 C
1'
b10 Z
#320000
0'
#330000
b11 C
1'
b11 Z
#340000
0'
#350000
b11111111100000000000000000000000000000000000000000000000000000000000000000000000000000000000000000000000000000000000000000000000000000000000000000000000000000000000000000000000000000000000000000000000000000000000000000000000000000000000000000000000000000 F
b100 E
b0 C
1'
b11 Y
b0 Z
#360000
0'
#370000
b1 C
1'
b1 Z
#380000
0'
#390000
b10 C
1'
b10 Z
#400000
0'
#410000
b11 C
1'
b11 Z
#420000
0'
#430000
b11111111110000000000000000000000000000000000000000000000000000000000000000000000000000000000000000000000000000000000000000000000000000000000000000000000000000000000000000000000000000000000000000000000000000000000000000000000000000000000000000000000000000 F
b101 E
b0 C
1'
b100 Y
b0 Z
#440000
0'
#450000
b1 C
1'
b1 Z
#460000
0'
#470000
b10 C
1'
b10 Z
#480000
0'
#490000
b11 C
1'
b11 Z
#500000
0'
#510000
b11111111111000000000000000000000000000000000000000000000000000000000000000000000000000000000000000000000000000000000000000000000000000000000000000000000000000000000000000000000000000000000000000000000000000000000000000000000000000000000000000000000000000 F
b110 E
b0 C
1'
b101 Y
b0 Z
#520000
0'
#530000
b1 C
1'
b1 Z
#540000
0'
#550000
b10 C
1'
b10 Z
#560000
0'
#570000
b11 C
1'
b11 Z
#580000
0'
#590000
b11111111111100000000000000000000000000000000000000000000000000000000000000000000000000000000000000000000000000000000000000000000000000000000000000000000000000000000000000000000000000000000000000000000000000000000000000000000000000000000000000000000000000 F
b111 E
b0 C
1'
b110 Y
b0 Z
#600000
0'
#610000
b1 C
1'
b1 Z
#620000
0'
#630000
b10 C
1'
b10 Z
#640000
0'
#650000
b11 C
1'
b11 Z
#660000
0'
#670000
b11111111111110000000000000000000000000000000000000000000000000000000000000000000000000000000000000000000000000000000000000000000000000000000000000000000000000000000000000000000000000000000000000000000000000000000000000000000000000000000000000000000000000 F
b1000 E
b0 C
1'
b111 Y
b0 Z
#680000
0'
#690000
b1 C
1'
b1 Z
#700000
0'
#710000
b10 C
1'
b10 Z
#720000
0'
#730000
b11 C
1'
b11 Z
#740000
0'
#750000
b11111111111111000000000000000000000000000000000000000000000000000000000000000000000000000000000000000000000000000000000000000000000000000000000000000000000000000000000000000000000000000000000000000000000000000000000000000000000000000000000000000000000000 F
b1001 E
b0 C
1'
b1000 Y
b0 Z
#760000
0'
#770000
b1 C
1'
b1 Z
#780000
0'
#790000
b10 C
1'
b10 Z
#800000
0'
#810000
b11 C
1'
b11 Z
#820000
0'
#830000
b11111111111111100000000000000000000000000000000000000000000000000000000000000000000000000000000000000000000000000000000000000000000000000000000000000000000000000000000000000000000000000000000000000000000000000000000000000000000000000000000000000000000000 F
b1010 E
b0 C
1'
b1001 Y
b0 Z
#840000
0'
#850000
b1 C
1'
b1 Z
#860000
0'
#870000
b10 C
1'
b10 Z
#880000
0'
#890000
b11 C
1'
b11 Z
#900000
0'
#910000
b11111111111111110000000000000000000000000000000000000000000000000000000000000000000000000000000000000000000000000000000000000000000000000000000000000000000000000000000000000000000000000000000000000000000000000000000000000000000000000000000000000000000000 F
b1011 E
b0 C
1'
b1010 Y
b0 Z
#920000
0'
#930000
b1 C
1'
b1 Z
#940000
0'
#950000
b10 C
1'
b10 Z
#960000
0'
#970000
b11 C
1'
b11 Z
#980000
0'
#990000
b11111111111111111000000000000000000000000000000000000000000000000000000000000000000000000000000000000000000000000000000000000000000000000000000000000000000000000000000000000000000000000000000000000000000000000000000000000000000000000000000000000000000000 F
b1100 E
b0 C
1'
b1011 Y
b0 Z
#1000000
0'
#1010000
b1 C
1'
b1 Z
#1020000
0'
#1030000
b10 C
1'
b10 Z
#1040000
0'
#1050000
b11 C
1'
b11 Z
#1060000
0'
#1070000
b11111111111111111100000000000000000000000000000000000000000000000000000000000000000000000000000000000000000000000000000000000000000000000000000000000000000000000000000000000000000000000000000000000000000000000000000000000000000000000000000000000000000000 F
b1101 E
b0 C
1'
b1100 Y
b0 Z
#1080000
0'
#1090000
b1 C
1'
b1 Z
#1100000
0'
#1110000
b10 C
1'
b10 Z
#1120000
0'
#1130000
b11 C
1'
b11 Z
#1140000
0'
#1150000
b11111111111111111110000000000000000000000000000000000000000000000000000000000000000000000000000000000000000000000000000000000000000000000000000000000000000000000000000000000000000000000000000000000000000000000000000000000000000000000000000000000000000000 F
b1110 E
b0 C
1'
b1101 Y
b0 Z
#1160000
0'
#1170000
b1 C
1'
b1 Z
#1180000
0'
#1190000
b10 C
1'
b10 Z
#1200000
0'
#1210000
b11 C
1'
b11 Z
#1220000
0'
#1230000
b11111111111111111111000000000000000000000000000000000000000000000000000000000000000000000000000000000000000000000000000000000000000000000000000000000000000000000000000000000000000000000000000000000000000000000000000000000000000000000000000000000000000000 F
b1111 E
b0 C
1'
b1110 Y
b0 Z
#1240000
0'
#1250000
b1 C
1'
b1 Z
#1260000
0'
#1270000
b10 C
1'
b10 Z
#1280000
0'
#1290000
b11 C
1'
b11 Z
#1300000
0'
#1310000
b11111111111111111111100000000000000000000000000000000000000000000000000000000000000000000000000000000000000000000000000000000000000000000000000000000000000000000000000000000000000000000000000000000000000000000000000000000000000000000000000000000000000000 F
b10000 E
b0 C
1'
b1111 Y
b0 Z
#1320000
0'
#1330000
b1 C
1'
b1 Z
#1340000
0'
#1350000
b10 C
1'
b10 Z
#1360000
0'
#1370000
b11 C
1'
b11 Z
#1380000
0'
#1390000
b11111111111111111111110000000000000000000000000000000000000000000000000000000000000000000000000000000000000000000000000000000000000000000000000000000000000000000000000000000000000000000000000000000000000000000000000000000000000000000000000000000000000000 F
b10001 E
b0 C
1'
b10000 Y
b0 Z
#1400000
0'
#1410000
b1 C
1'
b1 Z
#1420000
0'
#1430000
b10 C
1'
b10 Z
#1440000
0'
#1450000
b11 C
1'
b11 Z
#1460000
0'
#1470000
b11111111111111111111111000000000000000000000000000000000000000000000000000000000000000000000000000000000000000000000000000000000000000000000000000000000000000000000000000000000000000000000000000000000000000000000000000000000000000000000000000000000000000 F
b10010 E
b0 C
1'
b10001 Y
b0 Z
#1480000
0'
#1490000
b1 C
1'
b1 Z
#1500000
0'
#1510000
b10 C
1'
b10 Z
#1520000
0'
#1530000
b11 C
1'
b11 Z
#1540000
0'
#1550000
b11111111111111111111111100000000000000000000000000000000000000000000000000000000000000000000000000000000000000000000000000000000000000000000000000000000000000000000000000000000000000000000000000000000000000000000000000000000000000000000000000000000000000 F
b10011 E
b0 C
1'
b10010 Y
b0 Z
#1560000
0'
#1570000
b1 C
1'
b1 Z
#1580000
0'
#1590000
b10 C
1'
b10 Z
#1600000
0'
#1610000
b11 C
1'
b11 Z
#1620000
0'
#1630000
b11111111111111111111111110000000000000000000000000000000000000000000000000000000000000000000000000000000000000000000000000000000000000000000000000000000000000000000000000000000000000000000000000000000000000000000000000000000000000000000000000000000000000 F
b10100 E
b0 C
1'
b10011 Y
b0 Z
#1640000
0'
#1650000
b1 C
1'
b1 Z
#1660000
0'
#1670000
b10 C
1'
b10 Z
#1680000
0'
#1690000
b11 C
1'
b11 Z
#1700000
0'
#1710000
b11111111111111111111111111000000000000000000000000000000000000000000000000000000000000000000000000000000000000000000000000000000000000000000000000000000000000000000000000000000000000000000000000000000000000000000000000000000000000000000000000000000000000 F
b10101 E
b0 C
1'
b10100 Y
b0 Z
#1720000
0'
#1730000
b1 C
1'
b1 Z
#1740000
0'
#1750000
b10 C
1'
b10 Z
#1760000
0'
#1770000
b11 C
1'
b11 Z
#1780000
0'
#1790000
b11111111111111111111111111100000000000000000000000000000000000000000000000000000000000000000000000000000000000000000000000000000000000000000000000000000000000000000000000000000000000000000000000000000000000000000000000000000000000000000000000000000000000 F
b10110 E
b0 C
1'
b10101 Y
b0 Z
#1800000
0'
#1810000
b1 C
1'
b1 Z
#1820000
0'
#1830000
b10 C
1'
b10 Z
#1840000
0'
#1850000
b11 C
1'
b11 Z
#1860000
0'
#1870000
b11111111111111111111111111110000000000000000000000000000000000000000000000000000000000000000000000000000000000000000000000000000000000000000000000000000000000000000000000000000000000000000000000000000000000000000000000000000000000000000000000000000000000 F
b10111 E
b0 C
1'
b10110 Y
b0 Z
#1880000
0'
#1890000
b1 C
1'
b1 Z
#1900000
0'
#1910000
b10 C
1'
b10 Z
#1920000
0'
#1930000
b11 C
1'
b11 Z
#1940000
0'
#1950000
b11111111111111111111111111111000000000000000000000000000000000000000000000000000000000000000000000000000000000000000000000000000000000000000000000000000000000000000000000000000000000000000000000000000000000000000000000000000000000000000000000000000000000 F
b11000 E
b0 C
1'
b10111 Y
b0 Z
#1960000
0'
#1970000
b1 C
1'
b1 Z
#1980000
0'
#1990000
b10 C
1'
b10 Z
#2000000
0'
#2010000
b11 C
1'
b11 Z
#2020000
0'
#2030000
b11111111111111111111111111111100000000000000000000000000000000000000000000000000000000000000000000000000000000000000000000000000000000000000000000000000000000000000000000000000000000000000000000000000000000000000000000000000000000000000000000000000000000 F
b11001 E
b0 C
1'
b11000 Y
b0 Z
#2040000
0'
#2050000
b1 C
1'
b1 Z
#2060000
0'
#2070000
b10 C
1'
b10 Z
#2080000
0'
#2090000
b11 C
1'
b11 Z
#2100000
0'
#2110000
b11111111111111111111111111111110000000000000000000000000000000000000000000000000000000000000000000000000000000000000000000000000000000000000000000000000000000000000000000000000000000000000000000000000000000000000000000000000000000000000000000000000000000 F
b11010 E
b0 C
1'
b11001 Y
b0 Z
#2120000
0'
#2130000
b1 C
1'
b1 Z
#2140000
0'
#2150000
b10 C
1'
b10 Z
#2160000
0'
#2170000
b11 C
1'
b11 Z
#2180000
0'
#2190000
b11111111111111111111111111111111000000000000000000000000000000000000000000000000000000000000000000000000000000000000000000000000000000000000000000000000000000000000000000000000000000000000000000000000000000000000000000000000000000000000000000000000000000 F
b11011 E
b0 C
1'
b11010 Y
b0 Z
#2200000
0'
#2210000
b1 C
1'
b1 Z
#2220000
0'
#2230000
b10 C
1'
b10 Z
#2240000
0'
#2250000
b11 C
1'
b11 Z
#2260000
0'
#2270000
b11111111111111111111111111111111100000000000000000000000000000000000000000000000000000000000000000000000000000000000000000000000000000000000000000000000000000000000000000000000000000000000000000000000000000000000000000000000000000000000000000000000000000 F
b11100 E
b0 C
1'
b11011 Y
b0 Z
#2280000
0'
#2290000
b1 C
1'
b1 Z
#2300000
0'
#2310000
b10 C
1'
b10 Z
#2320000
0'
#2330000
b11 C
1'
b11 Z
#2340000
0'
#2350000
b11111111111111111111111111111111110000000000000000000000000000000000000000000000000000000000000000000000000000000000000000000000000000000000000000000000000000000000000000000000000000000000000000000000000000000000000000000000000000000000000000000000000000 F
b11101 E
b0 C
1'
b11100 Y
b0 Z
#2360000
0'
#2370000
b1 C
1'
b1 Z
#2380000
0'
#2390000
b10 C
1'
b10 Z
#2400000
0'
#2410000
b11 C
1'
b11 Z
#2420000
0'
#2430000
b11111111111111111111111111111111111000000000000000000000000000000000000000000000000000000000000000000000000000000000000000000000000000000000000000000000000000000000000000000000000000000000000000000000000000000000000000000000000000000000000000000000000000 F
b11110 E
b0 C
1'
b11101 Y
b0 Z
#2440000
0'
#2450000
b1 C
1'
b1 Z
#2460000
0'
#2470000
b10 C
1'
b10 Z
#2480000
0'
#2490000
b11 C
1'
b11 Z
#2500000
0'
#2510000
b11111111111111111111111111111111111100000000000000000000000000000000000000000000000000000000000000000000000000000000000000000000000000000000000000000000000000000000000000000000000000000000000000000000000000000000000000000000000000000000000000000000000000 F
b11111 E
b0 C
1'
b11110 Y
b0 Z
#2520000
0'
#2530000
b1 C
1'
b1 Z
#2540000
0'
#2550000
b10 C
1'
b10 Z
#2560000
0'
#2570000
b11 C
1'
b11 Z
#2580000
0'
#2590000
b0 #
b0 =
b11111111111111111111111111111111111100000000000000000000000000000000000000000000000000000000000000000000000000000000000000000000000000000000000000000000000000000000000000000000000000000000000000000000000000000000000000000000000000000000000000000011111111 $
b11111111111111111111111111111111111100000000000000000000000000000000000000000000000000000000000000000000000000000000000000000000000000000000000000000000000000000000000000000000000000000000000000000000000000000000000000000000000000000000000000000011111111 <
b100000 E
b0 C
1'
b11111 Y
b0 Z
#2600000
0'
#2610000
b1 C
1'
b1 Z
#2620000
0'
#2630000
b10 C
1'
b10 Z
#2640000
0'
#2650000
b11 C
1'
b11 Z
#2660000
0'
#2670000
b1111111111111111111111111111111111111100000000000000000000000000000000000000000000000000000000000000000000000000000000000000000000000000000000000000000000000000000000000000000000000000000000000000000000000000000000000000000000000000000000000000000000000000 F
b100001 E
b0 C
1'
b1 X
b0 Y
b0 Z
#2680000
0'
#2690000
b1 C
1'
b1 Z
#2700000
0'
#2710000
b10 C
1'
b10 Z
#2720000
0'
#2730000
b11 C
1'
b11 Z
#2740000
0'
#2750000
b1111111001111111111111111111111111111100000000000000000000000000000000000000000000000000000000000000000000000000000000000000000000000000000000000000000000000000000000000000000000000000000000000000000000000000000000000000000000000000000000000000000000000000 F
b100010 E
b0 C
1'
b0 %
b0 1
b1 Y
b0 Z
#2760000
0'
#2770000
b1111 B
b1 C
1'
b1 Z
#2780000
0'
#2790000
b11 B
b10 C
1'
b10 Z
#2800000
0'
#2810000
b0 B
b11 C
1'
b11 Z
#2820000
0'
#2830000
b1100000011111111111111111111111111111100000000000000000000000000000000000000000000000000000000000000000000000000000000000000000000000000000000000000000000000000000000000000000000000000000000000000000000000000000000000000000000000000000000000000000000000000 F
b100011 E
b0 C
1'
b11 %
b11 1
b10 Y
b0 Z
#2840000
0'
#2850000
b110000 B
b1 C
1'
b1 Z
#2860000
0'
#2870000
b111100 B
b10 C
1'
b10 Z
#2880000
0'
#2890000
b111111 B
b11 C
1'
b11 Z
#2900000
0'
#2910000
b1101111111111111111111111111111111111100000000000000000000000000000000000000000000000000000000000000000000000000000000000000000000000000000000000000000000000000000000000000000000000000000000000000000000000000000000000000000000000000000000000000000000000000 F
b100100 E
b0 C
1'
b11 Y
b0 Z
#2920000
0'
#2930000
b1 C
1'
b1 Z
#2940000
0'
#2950000
b10 C
1'
b10 Z
#2960000
0'
#2970000
b11 C
1'
b11 Z
#2980000
0'
#2990000
b100101 E
b0 C
1'
b100 Y
b0 Z
#3000000
0'
#3010000
b1 C
1'
b1 Z
#3020000
0'
#3030000
b10 C
1'
b10 Z
#3040000
0'
#3050000
b11 C
1'
b11 Z
#3060000
0'
#3070000
b100110 E
b0 C
1'
b101 Y
b0 Z
#3080000
0'
#3090000
b1 C
1'
b1 Z
#3100000
0'
#3110000
b10 C
1'
b10 Z
#3120000
0'
#3130000
b11 C
1'
b11 Z
#3140000
0'
#3150000
b100111 E
b0 C
1'
b110 Y
b0 Z
#3160000
0'
#3170000
b1 C
1'
b1 Z
#3180000
0'
#3190000
b10 C
1'
b10 Z
#3200000
0'
#3210000
b11 C
1'
b11 Z
#3220000
0'
#3230000
b101000 E
b0 C
1'
b111 Y
b0 Z
#3240000
0'
#3250000
b1 C
1'
b1 Z
#3260000
0'
#3270000
b10 C
1'
b10 Z
#3280000
0'
#3290000
b11 C
1'
b11 Z
#3300000
0'
#3310000
b101001 E
b0 C
1'
b1000 Y
b0 Z
#3320000
0'
#3330000
b1 C
1'
b1 Z
#3340000
0'
#3350000
b10 C
1'
b10 Z
#3360000
0'
#3370000
b11 C
1'
b11 Z
#3380000
0'
#3390000
b101010 E
b0 C
1'
b1001 Y
b0 Z
#3400000
0'
#3410000
b1 C
1'
b1 Z
#3420000
0'
#3430000
b10 C
1'
b10 Z
#3440000
0'
#3450000
b11 C
1'
b11 Z
#3460000
0'
#3470000
b101011 E
b0 C
1'
b1010 Y
b0 Z
#3480000
0'
#3490000
b1 C
1'
b1 Z
#3500000
0'
#3510000
b10 C
1'
b10 Z
#3520000
0'
#3530000
b11 C
1'
b11 Z
#3540000
0'
#3550000
b101100 E
b0 C
1'
b1011 Y
b0 Z
#3560000
0'
#3570000
b1 C
1'
b1 Z
#3580000
0'
#3590000
b10 C
1'
b10 Z
#3600000
0'
#3610000
b11 C
1'
b11 Z
#3620000
0'
#3630000
b101101 E
b0 C
1'
b1100 Y
b0 Z
#3640000
0'
#3650000
b1 C
1'
b1 Z
#3660000
0'
#3670000
b10 C
1'
b10 Z
#3680000
0'
#3690000
b11 C
1'
b11 Z
#3700000
0'
#3710000
b101110 E
b0 C
1'
b1101 Y
b0 Z
#3720000
0'
#3730000
b1 C
1'
b1 Z
#3740000
0'
#3750000
b10 C
1'
b10 Z
#3760000
0'
#3770000
b11 C
1'
b11 Z
#3780000
0'
#3790000
b101111 E
b0 C
1'
b1110 Y
b0 Z
#3800000
0'
#3810000
b1 C
1'
b1 Z
#3820000
0'
#3830000
b10 C
1'
b10 Z
#3840000
0'
#3850000
b11 C
1'
b11 Z
#3860000
0'
#3870000
b110000 E
b0 C
1'
b1111 Y
b0 Z
#3880000
0'
#3890000
b1 C
1'
b1 Z
#3900000
0'
#3910000
b10 C
1'
b10 Z
#3920000
0'
#3930000
b11 C
1'
b11 Z
#3940000
0'
#3950000
b110001 E
b0 C
1'
b10000 Y
b0 Z
#3960000
0'
#3970000
b1 C
1'
b1 Z
#3980000
0'
#3990000
b10 C
1'
b10 Z
#4000000
0'
#4010000
b11 C
1'
b11 Z
#4020000
0'
#4030000
b110010 E
b0 C
1'
b10001 Y
b0 Z
#4040000
0'
#4050000
b1 C
1'
b1 Z
#4060000
0'
#4070000
b10 C
1'
b10 Z
#4080000
0'
#4090000
b11 C
1'
b11 Z
#4100000
0'
#4110000
b110011 E
b0 C
1'
b10010 Y
b0 Z
#4120000
0'
#4130000
b1 C
1'
b1 Z
#4140000
0'
#4150000
b10 C
1'
b10 Z
#4160000
0'
#4170000
b11 C
1'
b11 Z
#4180000
0'
#4190000
b110100 E
b0 C
1'
b10011 Y
b0 Z
#4200000
0'
#4210000
b1 C
1'
b1 Z
#4220000
0'
#4230000
b10 C
1'
b10 Z
#4240000
0'
#4250000
b11 C
1'
b11 Z
#4260000
0'
#4270000
b110101 E
b0 C
1'
b10100 Y
b0 Z
#4280000
0'
#4290000
b1 C
1'
b1 Z
#4300000
0'
#4310000
b10 C
1'
b10 Z
#4320000
0'
#4330000
b11 C
1'
b11 Z
#4340000
0'
#4350000
b110110 E
b0 C
1'
b10101 Y
b0 Z
#4360000
0'
#4370000
b1 C
1'
b1 Z
#4380000
0'
#4390000
b10 C
1'
b10 Z
#4400000
0'
#4410000
b11 C
1'
b11 Z
#4420000
0'
#4430000
b110111 E
b0 C
1'
b10110 Y
b0 Z
#4440000
0'
#4450000
b1 C
1'
b1 Z
#4460000
0'
#4470000
b10 C
1'
b10 Z
#4480000
0'
#4490000
b11 C
1'
b11 Z
#4500000
0'
#4510000
b111000 E
b0 C
1'
b10111 Y
b0 Z
#4520000
0'
#4530000
b1 C
1'
b1 Z
#4540000
0'
#4550000
b10 C
1'
b10 Z
#4560000
0'
#4570000
b11 C
1'
b11 Z
#4580000
0'
#4590000
b111001 E
b0 C
1'
b11000 Y
b0 Z
#4600000
0'
#4610000
b1 C
1'
b1 Z
#4620000
0'
#4630000
b10 C
1'
b10 Z
#4640000
0'
#4650000
b11 C
1'
b11 Z
#4660000
0'
#4670000
b111010 E
b0 C
1'
b11001 Y
b0 Z
#4680000
0'
#4690000
b1 C
1'
b1 Z
#4700000
0'
#4710000
b10 C
1'
b10 Z
#4720000
0'
#4730000
b11 C
1'
b11 Z
#4740000
0'
#4750000
b111011 E
b0 C
1'
b11010 Y
b0 Z
#4760000
0'
#4770000
b1 C
1'
b1 Z
#4780000
0'
#4790000
b10 C
1'
b10 Z
#4800000
0'
#4810000
b11 C
1'
b11 Z
#4820000
0'
#4830000
b111100 E
b0 C
1'
b11011 Y
b0 Z
#4840000
0'
#4850000
b1 C
1'
b1 Z
#4860000
0'
#4870000
b10 C
1'
b10 Z
#4880000
0'
#4890000
b11 C
1'
b11 Z
#4900000
0'
#4910000
b111101 E
b0 C
1'
b11100 Y
b0 Z
#4920000
0'
#4930000
b1 C
1'
b1 Z
#4940000
0'
#4950000
b10 C
1'
b10 Z
#4960000
0'
#4970000
b11 C
1'
b11 Z
#4980000
0'
#4990000
b111110 E
b0 C
1'
b11101 Y
b0 Z
#5000000
0'
#5010000
b1 C
1'
b1 Z
#5020000
0'
#5030000
b10 C
1'
b10 Z
#5040000
0'
#5050000
b11 C
1'
b11 Z
#5060000
0'
#5070000
b111111 E
b0 C
1'
b11110 Y
b0 Z
#5080000
0'
#5090000
b1 C
1'
b1 Z
#5100000
0'
#5110000
b10 C
1'
b10 Z
#5120000
0'
#5130000
b11 C
1'
b11 Z
#5140000
0'
#5150000
b1 #
b1 =
b1101111111111111111111111111111111111100000000000000000000000000000000000000000000000000000000000000000000000000000000000000000000000000000000000000000000000000000000000000000000000000000000000000000000000000000000000000000000000000000000000000000011111111 $
b1101111111111111111111111111111111111100000000000000000000000000000000000000000000000000000000000000000000000000000000000000000000000000000000000000000000000000000000000000000000000000000000000000000000000000000000000000000000000000000000000000000011111111 <
b1000000 E
b0 C
1'
b11111 Y
b0 Z
#5160000
0'
#5170000
b1 C
1'
b1 Z
#5180000
0'
#5190000
b10 C
1'
b10 Z
#5200000
0'
#5210000
b11 C
1'
b11 Z
#5220000
0'
#5230000
b1111111111111111111111111111111111111100000000000000000000000000000000000000000000000000000000000000000000000000000000000000000000000000000000000000000000000000000000000000000000000000000000000000000000000000000000000000000000000000000000000000000000000000 F
b1000001 E
b0 C
1'
b10 X
b0 Y
b0 Z
#5240000
0'
#5250000
b1 C
1'
b1 Z
#5260000
0'
#5270000
b10 C
1'
b10 Z
#5280000
0'
#5290000
b11 C
1'
b11 Z
#5300000
0'
#5310000
b1000010 E
b0 C
1'
b1 Y
b0 Z
#5320000
0'
#5330000
b1 C
1'
b1 Z
#5340000
0'
#5350000
b10 C
1'
b10 Z
#5360000
0'
#5370000
b11 C
1'
b11 Z
#5380000
0'
#5390000
b1111111100111111111111111111111111111100000000000000000000000000000000000000000000000000000000000000000000000000000000000000000000000000000000000000000000000000000000000000000000000000000000000000000000000000000000000000000000000000000000000000000000000000 F
b1000011 E
b0 C
1'
b0 %
b0 1
b10 Y
b0 Z
#5400000
0'
#5410000
b1111 B
b1 C
1'
b1 Z
#5420000
0'
#5430000
b11 B
b10 C
1'
b10 Z
#5440000
0'
#5450000
b0 B
b11 C
1'
b11 Z
#5460000
0'
#5470000
b1110000001111111111111111111111111111100000000000000000000000000000000000000000000000000000000000000000000000000000000000000000000000000000000000000000000000000000000000000000000000000000000000000000000000000000000000000000000000000000000000000000000000000 F
b1000100 E
b0 C
1'
b11 %
b11 1
b11 Y
b0 Z
#5480000
0'
#5490000
b110000 B
b1 C
1'
b1 Z
#5500000
0'
#5510000
b111100 B
b10 C
1'
b10 Z
#5520000
0'
#5530000
b111111 B
b11 C
1'
b11 Z
#5540000
0'
#5550000
b1110111111111111111111111111111111111100000000000000000000000000000000000000000000000000000000000000000000000000000000000000000000000000000000000000000000000000000000000000000000000000000000000000000000000000000000000000000000000000000000000000000000000000 F
b1000101 E
b0 C
1'
b100 Y
b0 Z
#5560000
0'
#5570000
b1 C
1'
b1 Z
#5580000
0'
#5590000
b10 C
1'
b10 Z
#5600000
0'
#5610000
b11 C
1'
b11 Z
#5620000
0'
#5630000
b1000110 E
b0 C
1'
b101 Y
b0 Z
#5640000
0'
#5650000
b1 C
1'
b1 Z
#5660000
0'
#5670000
b10 C
1'
b10 Z
#5680000
0'
#5690000
b11 C
1'
b11 Z
#5700000
0'
#5710000
b1000111 E
b0 C
1'
b110 Y
b0 Z
#5720000
0'
#5730000
b1 C
1'
b1 Z
#5740000
0'
#5750000
b10 C
1'
b10 Z
#5760000
0'
#5770000
b11 C
1'
b11 Z
#5780000
0'
#5790000
b1001000 E
b0 C
1'
b111 Y
b0 Z
#5800000
0'
#5810000
b1 C
1'
b1 Z
#5820000
0'
#5830000
b10 C
1'
b10 Z
#5840000
0'
#5850000
b11 C
1'
b11 Z
#5860000
0'
#5870000
b1001001 E
b0 C
1'
b1000 Y
b0 Z
#5880000
0'
#5890000
b1 C
1'
b1 Z
#5900000
0'
#5910000
b10 C
1'
b10 Z
#5920000
0'
#5930000
b11 C
1'
b11 Z
#5940000
0'
#5950000
b1001010 E
b0 C
1'
b1001 Y
b0 Z
#5960000
0'
#5970000
b1 C
1'
b1 Z
#5980000
0'
#5990000
b10 C
1'
b10 Z
#6000000
0'
#6010000
b11 C
1'
b11 Z
#6020000
0'
#6030000
b1001011 E
b0 C
1'
b1010 Y
b0 Z
#6040000
0'
#6050000
b1 C
1'
b1 Z
#6060000
0'
#6070000
b10 C
1'
b10 Z
#6080000
0'
