matrix_loader.vcd
$date
	Tue Dec 13 12:27:02 2022
$end
$version
	Icarus Verilog
$end
$timescale
	1ps
$end
$scope module matrix_loader_tb $end
$var wire 1 ! complete $end
$var wire 256 " b_col_out [255:0] $end
$var wire 5 # addr_out [4:0] $end
$var wire 256 $ a_row_out [255:0] $end
$var reg 2 % axiid [1:0] $end
$var reg 1 & axiiv $end
$var reg 1 ' clk $end
$var reg 5 ( requested_a_row [4:0] $end
$var reg 5 ) requested_b_col [4:0] $end
$var reg 1 * rst $end
$scope module uut $end
$var wire 2 + axiid [1:0] $end
$var wire 1 & axiiv $end
$var wire 1 ' eth_refclk $end
$var wire 1 ' inter_refclk $end
$var wire 5 , requested_a_row [4:0] $end
$var wire 5 - requested_b_col [4:0] $end
$var wire 1 * rst $end
$var wire 256 . B_dout [255:0] $end
$var wire 256 / A_dout [255:0] $end
$var reg 10 0 A_addr_buffer [9:0] $end
$var reg 5 1 A_addra [4:0] $end
$var reg 5 2 A_addrb [4:0] $end
$var reg 256 3 A_dina [255:0] $end
$var reg 1 4 A_enb $end
$var reg 1 5 A_regceb $end
$var reg 1 6 A_wea $end
$var reg 5 7 B_addra [4:0] $end
$var reg 5 8 B_addrb [4:0] $end
$var reg 256 9 B_dina [255:0] $end
$var reg 1 : B_enb $end
$var reg 1 ; B_regceb $end
$var reg 1 < B_wea $end
$var reg 256 = a_row_out [255:0] $end
$var reg 5 > addr_out [4:0] $end
$var reg 256 ? b_col_out [255:0] $end
$var reg 1 @ bad $end
$var reg 1 A bram_rst $end
$var reg 1 ! complete $end
$var reg 1 B downtime $end
$var reg 6 C element_buffer [5:0] $end
$var reg 2 D element_counter [1:0] $end
$var reg 1 E loading $end
$var reg 10 F matrix_counter [9:0] $end
$var reg 256 G row_buffer [255:0] $end
$var reg 1 H transmitting $end
$scope module Matrix_A_BRAM $end
$var wire 5 I addra [4:0] $end
$var wire 5 J addrb [4:0] $end
$var wire 1 ' clka $end
$var wire 1 ' clkb $end
$var wire 256 K dina [255:0] $end
$var wire 1 4 enb $end
$var wire 1 5 regceb $end
$var wire 1 * rstb $end
$var wire 1 6 wea $end
$var wire 256 L doutb [255:0] $end
$var reg 256 M ram_data [255:0] $end
$scope function clogb2 $end
$var integer 32 N depth [31:0] $end
$upscope $end
$scope begin init_bram_to_zero $end
$var integer 32 O ram_index [31:0] $end
$upscope $end
$scope begin output_register $end
$var reg 256 P doutb_reg [255:0] $end
$upscope $end
$upscope $end
$scope module Matrix_B_BRAM $end
$var wire 5 Q addra [4:0] $end
$var wire 5 R addrb [4:0] $end
$var wire 1 ' clka $end
$var wire 1 ' clkb $end
$var wire 256 S dina [255:0] $end
$var wire 1 : enb $end
$var wire 1 ; regceb $end
$var wire 1 * rstb $end
$var wire 1 < wea $end
$var wire 256 T doutb [255:0] $end
$var reg 256 U ram_data [255:0] $end
$scope function clogb2 $end
$var integer 32 V depth [31:0] $end
$upscope $end
$scope begin init_bram_to_zero $end
$var integer 32 W ram_index [31:0] $end
$upscope $end
$scope begin output_register $end
$var reg 256 X doutb_reg [255:0] $end
$upscope $end
$upscope $end
$upscope $end
$scope begin $ivl_for_loop0 $end
$var integer 32 Y i [31:0] $end
$scope begin $ivl_for_loop1 $end
$var integer 32 Z j [31:0] $end
$scope begin $ivl_for_loop2 $end
$var integer 32 [ k [31:0] $end
$upscope $end
$upscope $end
$upscope $end
$scope begin $ivl_for_loop3 $end
$var integer 32 \ i [31:0] $end
$upscope $end
$upscope $end
$enddefinitions $end
#0
$dumpvars
b0 \
b0 [
b0 Z
b0 Y
b0 X
b100000 W
bx V
b0 U
b0 T
bx S
bx R
bx Q
b0 P
b100000 O
bx N
b0 M
b0 L
bx K
bx J
bx I
xH
bx G
bx F
xE
bx D
bx C
xB
xA
x@
bx ?
bx >
bx =
x<
x;
x:
bx 9
bx 8
bx 7
x6
x5
x4
bx 3
bx 2
bx 1
bx 0
b0 /
b0 .
bx -
bx ,
bx +
0*
bx )
bx (
0'
x&
bx %
bx $
bx #
bx "
x!
$end
#10000
1'
#20000
0'
#30000
15
14
b0 2
b0 J
b0 F
b0 D
0E
1B
1A
1'
1*
#40000
0'
#50000
bx M
0<
06
bx 2
bx J
xA
1'
0*
#60000
0'
#70000
bx /
bx L
bx P
1'
#80000
0'
#90000
1'
#100000
0'
#110000
b1 F
b0 G
1E
0B
1'
b0 %
b0 +
1&
#120000
0'
#130000
b0xxxx C
b1 D
1'
b1 [
#140000
0'
#150000
b0xx C
b10 D
1'
b10 [
#160000
0'
#170000
b0 C
b11 D
1'
b11 [
#180000
0'
#190000
b110000000000000000000000000000000000000000000000000000000000000000000000000000000000000000000000000000000000000000000000000000000000000000000000000000000000000000000000000000000000000000000000000000000000000000000000000000000000000000000000000000000 G
b10 F
b0 D
1'
b11 %
b11 +
b1 Z
b0 [
#200000
0'
#210000
b110000 C
b1 D
1'
b1 [
#220000
0'
#230000
b111100 C
b10 D
1'
b10 [
#240000
0'
#250000
b111111 C
b11 D
1'
b11 [
#260000
0'
#270000
b11111111000000000000000000000000000000000000000000000000000000000000000000000000000000000000000000000000000000000000000000000000000000000000000000000000000000000000000000000000000000000000000000000000000000000000000000000000000000000000000000000000000000 G
b11 F
b0 D
1'
b10 Z
b0 [
#280000
0'
#290000
b1 D
1'
b1 [
#300000
0'
#310000
b10 D
1'
b10 [
#320000
0'
#330000
b11 D
1'
b11 [
#340000
0'
#350000
b11111111100000000000000000000000000000000000000000000000000000000000000000000000000000000000000000000000000000000000000000000000000000000000000000000000000000000000000000000000000000000000000000000000000000000000000000000000000000000000000000000000000000 G
b100 F
b0 D
1'
b11 Z
b0 [
#360000
0'
#370000
b1 D
1'
b1 [
#380000
0'
#390000
b10 D
1'
b10 [
#400000
0'
#410000
b11 D
1'
b11 [
#420000
0'
#430000
b11111111110000000000000000000000000000000000000000000000000000000000000000000000000000000000000000000000000000000000000000000000000000000000000000000000000000000000000000000000000000000000000000000000000000000000000000000000000000000000000000000000000000 G
b101 F
b0 D
1'
b100 Z
b0 [
#440000
0'
#450000
b1 D
1'
b1 [
#460000
0'
#470000
b10 D
1'
b10 [
#480000
0'
#490000
b11 D
1'
b11 [
#500000
0'
#510000
b11111111111000000000000000000000000000000000000000000000000000000000000000000000000000000000000000000000000000000000000000000000000000000000000000000000000000000000000000000000000000000000000000000000000000000000000000000000000000000000000000000000000000 G
b110 F
b0 D
1'
b101 Z
b0 [
#520000
0'
#530000
b1 D
1'
b1 [
#540000
0'
#550000
b10 D
1'
b10 [
#560000
0'
#570000
b11 D
1'
b11 [
#580000
0'
#590000
b11111111111100000000000000000000000000000000000000000000000000000000000000000000000000000000000000000000000000000000000000000000000000000000000000000000000000000000000000000000000000000000000000000000000000000000000000000000000000000000000000000000000000 G
b111 F
b0 D
1'
b110 Z
b0 [
#600000
0'
#610000
b1 D
1'
b1 [
#620000
0'
#630000
b10 D
1'
b10 [
#640000
0'
#650000
b11 D
1'
b11 [
#660000
0'
#670000
b11111111111110000000000000000000000000000000000000000000000000000000000000000000000000000000000000000000000000000000000000000000000000000000000000000000000000000000000000000000000000000000000000000000000000000000000000000000000000000000000000000000000000 G
b1000 F
b0 D
1'
b111 Z
b0 [
#680000
0'
#690000
b1 D
1'
b1 [
#700000
0'
#710000
b10 D
1'
b10 [
#720000
0'
#730000
b11 D
1'
b11 [
#740000
0'
#750000
b11111111111111000000000000000000000000000000000000000000000000000000000000000000000000000000000000000000000000000000000000000000000000000000000000000000000000000000000000000000000000000000000000000000000000000000000000000000000000000000000000000000000000 G
b1001 F
b0 D
1'
b1000 Z
b0 [
#760000
0'
#770000
b1 D
1'
b1 [
#780000
0'
#790000
b10 D
1'
b10 [
#800000
0'
#810000
b11 D
1'
b11 [
#820000
0'
#830000
b11111111111111100000000000000000000000000000000000000000000000000000000000000000000000000000000000000000000000000000000000000000000000000000000000000000000000000000000000000000000000000000000000000000000000000000000000000000000000000000000000000000000000 G
b1010 F
b0 D
1'
b1001 Z
b0 [
#840000
0'
#850000
b1 D
1'
b1 [
#860000
0'
#870000
b10 D
1'
b10 [
#880000
0'
#890000
b11 D
1'
b11 [
#900000
0'
#910000
b11111111111111110000000000000000000000000000000000000000000000000000000000000000000000000000000000000000000000000000000000000000000000000000000000000000000000000000000000000000000000000000000000000000000000000000000000000000000000000000000000000000000000 G
b1011 F
b0 D
1'
b1010 Z
b0 [
#920000
0'
#930000
b1 D
1'
b1 [
#940000
0'
#950000
b10 D
1'
b10 [
#960000
0'
#970000
b11 D
1'
b11 [
#980000
0'
#990000
b11111111111111111000000000000000000000000000000000000000000000000000000000000000000000000000000000000000000000000000000000000000000000000000000000000000000000000000000000000000000000000000000000000000000000000000000000000000000000000000000000000000000000 G
b1100 F
b0 D
1'
b1011 Z
b0 [
#1000000
0'
#1010000
b1 D
1'
b1 [
#1020000
0'
#1030000
b10 D
1'
b10 [
#1040000
0'
#1050000
b11 D
1'
b11 [
#1060000
0'
#1070000
b11111111111111111100000000000000000000000000000000000000000000000000000000000000000000000000000000000000000000000000000000000000000000000000000000000000000000000000000000000000000000000000000000000000000000000000000000000000000000000000000000000000000000 G
b1101 F
b0 D
1'
b1100 Z
b0 [
#1080000
0'
#1090000
b1 D
1'
b1 [
#1100000
0'
#1110000
b10 D
1'
b10 [
#1120000
0'
#1130000
b11 D
1'
b11 [
#1140000
0'
#1150000
b11111111111111111110000000000000000000000000000000000000000000000000000000000000000000000000000000000000000000000000000000000000000000000000000000000000000000000000000000000000000000000000000000000000000000000000000000000000000000000000000000000000000000 G
b1110 F
b0 D
1'
b1101 Z
b0 [
#1160000
0'
#1170000
b1 D
1'
b1 [
#1180000
0'
#1190000
b10 D
1'
b10 [
#1200000
0'
#1210000
b11 D
1'
b11 [
#1220000
0'
#1230000
b11111111111111111111000000000000000000000000000000000000000000000000000000000000000000000000000000000000000000000000000000000000000000000000000000000000000000000000000000000000000000000000000000000000000000000000000000000000000000000000000000000000000000 G
b1111 F
b0 D
1'
b1110 Z
b0 [
#1240000
0'
#1250000
b1 D
1'
b1 [
#1260000
0'
#1270000
b10 D
1'
b10 [
#1280000
0'
#1290000
b11 D
1'
b11 [
#1300000
0'
#1310000
b11111111111111111111100000000000000000000000000000000000000000000000000000000000000000000000000000000000000000000000000000000000000000000000000000000000000000000000000000000000000000000000000000000000000000000000000000000000000000000000000000000000000000 G
b10000 F
b0 D
1'
b1111 Z
b0 [
#1320000
0'
#1330000
b1 D
1'
b1 [
#1340000
0'
#1350000
b10 D
1'
b10 [
#1360000
0'
#1370000
b11 D
1'
b11 [
#1380000
0'
#1390000
b11111111111111111111110000000000000000000000000000000000000000000000000000000000000000000000000000000000000000000000000000000000000000000000000000000000000000000000000000000000000000000000000000000000000000000000000000000000000000000000000000000000000000 G
b10001 F
b0 D
1'
b10000 Z
b0 [
#1400000
0'
#1410000
b1 D
1'
b1 [
#1420000
0'
#1430000
b10 D
1'
b10 [
#1440000
0'
#1450000
b11 D
1'
b11 [
#1460000
0'
#1470000
b11111111111111111111111000000000000000000000000000000000000000000000000000000000000000000000000000000000000000000000000000000000000000000000000000000000000000000000000000000000000000000000000000000000000000000000000000000000000000000000000000000000000000 G
b10010 F
b0 D
1'
b10001 Z
b0 [
#1480000
0'
#1490000
b1 D
1'
b1 [
#1500000
0'
#1510000
b10 D
1'
b10 [
#1520000
0'
#1530000
b11 D
1'
b11 [
#1540000
0'
#1550000
b11111111111111111111111100000000000000000000000000000000000000000000000000000000000000000000000000000000000000000000000000000000000000000000000000000000000000000000000000000000000000000000000000000000000000000000000000000000000000000000000000000000000000 G
b10011 F
b0 D
1'
b10010 Z
b0 [
#1560000
0'
#1570000
b1 D
1'
b1 [
#1580000
0'
#1590000
b10 D
1'
b10 [
#1600000
0'
#1610000
b11 D
1'
b11 [
#1620000
0'
#1630000
b11111111111111111111111110000000000000000000000000000000000000000000000000000000000000000000000000000000000000000000000000000000000000000000000000000000000000000000000000000000000000000000000000000000000000000000000000000000000000000000000000000000000000 G
b10100 F
b0 D
1'
b10011 Z
b0 [
#1640000
0'
#1650000
b1 D
1'
b1 [
#1660000
0'
#1670000
b10 D
1'
b10 [
#1680000
0'
#1690000
b11 D
1'
b11 [
#1700000
0'
#1710000
b11111111111111111111111111000000000000000000000000000000000000000000000000000000000000000000000000000000000000000000000000000000000000000000000000000000000000000000000000000000000000000000000000000000000000000000000000000000000000000000000000000000000000 G
b10101 F
b0 D
1'
b10100 Z
b0 [
#1720000
0'
#1730000
b1 D
1'
b1 [
#1740000
0'
#1750000
b10 D
1'
b10 [
#1760000
0'
#1770000
b11 D
1'
b11 [
#1780000
0'
#1790000
b11111111111111111111111111100000000000000000000000000000000000000000000000000000000000000000000000000000000000000000000000000000000000000000000000000000000000000000000000000000000000000000000000000000000000000000000000000000000000000000000000000000000000 G
b10110 F
b0 D
1'
b10101 Z
b0 [
#1800000
0'
#1810000
b1 D
1'
b1 [
#1820000
0'
#1830000
b10 D
1'
b10 [
#1840000
0'
#1850000
b11 D
1'
b11 [
#1860000
0'
#1870000
b11111111111111111111111111110000000000000000000000000000000000000000000000000000000000000000000000000000000000000000000000000000000000000000000000000000000000000000000000000000000000000000000000000000000000000000000000000000000000000000000000000000000000 G
b10111 F
b0 D
1'
b10110 Z
b0 [
#1880000
0'
#1890000
b1 D
1'
b1 [
#1900000
0'
#1910000
b10 D
1'
b10 [
#1920000
0'
#1930000
b11 D
1'
b11 [
#1940000
0'
#1950000
b11111111111111111111111111111000000000000000000000000000000000000000000000000000000000000000000000000000000000000000000000000000000000000000000000000000000000000000000000000000000000000000000000000000000000000000000000000000000000000000000000000000000000 G
b11000 F
b0 D
1'
b10111 Z
b0 [
#1960000
0'
#1970000
b1 D
1'
b1 [
#1980000
0'
#1990000
b10 D
1'
b10 [
#2000000
0'
#2010000
b11 D
1'
b11 [
#2020000
0'
#2030000
b11111111111111111111111111111100000000000000000000000000000000000000000000000000000000000000000000000000000000000000000000000000000000000000000000000000000000000000000000000000000000000000000000000000000000000000000000000000000000000000000000000000000000 G
b11001 F
b0 D
1'
b11000 Z
b0 [
#2040000
0'
#2050000
b1 D
1'
b1 [
#2060000
0'
#2070000
b10 D
1'
b10 [
#2080000
0'
#2090000
b11 D
1'
b11 [
#2100000
0'
#2110000
b11111111111111111111111111111110000000000000000000000000000000000000000000000000000000000000000000000000000000000000000000000000000000000000000000000000000000000000000000000000000000000000000000000000000000000000000000000000000000000000000000000000000000 G
b11010 F
b0 D
1'
b11001 Z
b0 [
#2120000
0'
#2130000
b1 D
1'
b1 [
#2140000
0'
#2150000
b10 D
1'
b10 [
#2160000
0'
#2170000
b11 D
1'
b11 [
#2180000
0'
#2190000
b11111111111111111111111111111111000000000000000000000000000000000000000000000000000000000000000000000000000000000000000000000000000000000000000000000000000000000000000000000000000000000000000000000000000000000000000000000000000000000000000000000000000000 G
b11011 F
b0 D
1'
b11010 Z
b0 [
#2200000
0'
#2210000
b1 D
1'
b1 [
#2220000
0'
#2230000
b10 D
1'
b10 [
#2240000
0'
#2250000
b11 D
1'
b11 [
#2260000
0'
#2270000
b11111111111111111111111111111111100000000000000000000000000000000000000000000000000000000000000000000000000000000000000000000000000000000000000000000000000000000000000000000000000000000000000000000000000000000000000000000000000000000000000000000000000000 G
b11100 F
b0 D
1'
b11011 Z
b0 [
#2280000
0'
#2290000
b1 D
1'
b1 [
#2300000
0'
#2310000
b10 D
1'
b10 [
#2320000
0'
#2330000
b11 D
1'
b11 [
#2340000
0'
#2350000
b11111111111111111111111111111111110000000000000000000000000000000000000000000000000000000000000000000000000000000000000000000000000000000000000000000000000000000000000000000000000000000000000000000000000000000000000000000000000000000000000000000000000000 G
b11101 F
b0 D
1'
b11100 Z
b0 [
#2360000
0'
#2370000
b1 D
1'
b1 [
#2380000
0'
#2390000
b10 D
1'
b10 [
#2400000
0'
#2410000
b11 D
1'
b11 [
#2420000
0'
#2430000
b11111111111111111111111111111111111000000000000000000000000000000000000000000000000000000000000000000000000000000000000000000000000000000000000000000000000000000000000000000000000000000000000000000000000000000000000000000000000000000000000000000000000000 G
b11110 F
b0 D
1'
b11101 Z
b0 [
#2440000
0'
#2450000
b1 D
1'
b1 [
#2460000
0'
#2470000
b10 D
1'
b10 [
#2480000
0'
#2490000
b11 D
1'
b11 [
#2500000
0'
#2510000
b11111111111111111111111111111111111100000000000000000000000000000000000000000000000000000000000000000000000000000000000000000000000000000000000000000000000000000000000000000000000000000000000000000000000000000000000000000000000000000000000000000000000000 G
b11111 F
b0 D
1'
b11110 Z
b0 [
#2520000
0'
#2530000
b1 D
1'
b1 [
#2540000
0'
#2550000
b10 D
1'
b10 [
#2560000
0'
#2570000
b11 D
1'
b11 [
#2580000
0'
#2590000
16
b0 1
b0 I
b11111111111111111111111111111111111100000000000000000000000000000000000000000000000000000000000000000000000000000000000000000000000000000000000000000000000000000000000000000000000000000000000000000000000000000000000000000000000000000000000000000011111111 3
b11111111111111111111111111111111111100000000000000000000000000000000000000000000000000000000000000000000000000000000000000000000000000000000000000000000000000000000000000000000000000000000000000000000000000000000000000000000000000000000000000000011111111 K
b100000 F
b0 D
1'
b11111 Z
b0 [
#2600000
0'
#2610000
06
b1 D
1'
b1 [
#2620000
0'
#2630000
b10 D
1'
b10 [
#2640000
0'
#2650000
b11 D
1'
b11 [
#2660000
0'
#2670000
b1111111111111111111111111111111111111100000000000000000000000000000000000000000000000000000000000000000000000000000000000000000000000000000000000000000000000000000000000000000000000000000000000000000000000000000000000000000000000000000000000000000000000000 G
b100001 F
b0 D
1'
b1 Y
b0 Z
b0 [
#2680000
0'
#2690000
b1 D
1'
b1 [
#2700000
0'
#2710000
b10 D
1'
b10 [
#2720000
0'
#2730000
b11 D
1'
b11 [
#2740000
0'
#2750000
b1111111001111111111111111111111111111100000000000000000000000000000000000000000000000000000000000000000000000000000000000000000000000000000000000000000000000000000000000000000000000000000000000000000000000000000000000000000000000000000000000000000000000000 G
b100010 F
b0 D
1'
b0 %
b0 +
b1 Z
b0 [
#2760000
0'
#2770000
b1111 C
b1 D
1'
b1 [
#2780000
0'
#2790000
b11 C
b10 D
1'
b10 [
#2800000
0'
#2810000
b0 C
b11 D
1'
b11 [
#2820000
0'
#2830000
b1100000011111111111111111111111111111100000000000000000000000000000000000000000000000000000000000000000000000000000000000000000000000000000000000000000000000000000000000000000000000000000000000000000000000000000000000000000000000000000000000000000000000000 G
b100011 F
b0 D
1'
b11 %
b11 +
b10 Z
b0 [
#2840000
0'
#2850000
b110000 C
b1 D
1'
b1 [
#2860000
0'
#2870000
b111100 C
b10 D
1'
b10 [
#2880000
0'
#2890000
b111111 C
b11 D
1'
b11 [
#2900000
0'
#2910000
b1101111111111111111111111111111111111100000000000000000000000000000000000000000000000000000000000000000000000000000000000000000000000000000000000000000000000000000000000000000000000000000000000000000000000000000000000000000000000000000000000000000000000000 G
b100100 F
b0 D
1'
b11 Z
b0 [
#2920000
0'
#2930000
b1 D
1'
b1 [
#2940000
0'
#2950000
b10 D
1'
b10 [
#2960000
0'
#2970000
b11 D
1'
b11 [
#2980000
0'
#2990000
b100101 F
b0 D
1'
b100 Z
b0 [
#3000000
0'
#3010000
b1 D
1'
b1 [
#3020000
0'
#3030000
b10 D
1'
b10 [
#3040000
0'
#3050000
b11 D
1'
b11 [
#3060000
0'
#3070000
b100110 F
b0 D
1'
b101 Z
b0 [
#3080000
0'
#3090000
b1 D
1'
b1 [
#3100000
0'
#3110000
b10 D
1'
b10 [
#3120000
0'
#3130000
b11 D
1'
b11 [
#3140000
0'
#3150000
b100111 F
b0 D
1'
b110 Z
b0 [
#3160000
0'
#3170000
b1 D
1'
b1 [
#3180000
0'
#3190000
b10 D
1'
b10 [
#3200000
0'
#3210000
b11 D
1'
b11 [
#3220000
0'
#3230000
b101000 F
b0 D
1'
b111 Z
b0 [
#3240000
0'
#3250000
b1 D
1'
b1 [
#3260000
0'
#3270000
b10 D
1'
b10 [
#3280000
0'
#3290000
b11 D
1'
b11 [
#3300000
0'
#3310000
b101001 F
b0 D
1'
b1000 Z
b0 [
#3320000
0'
#3330000
b1 D
1'
b1 [
#3340000
0'
#3350000
b10 D
1'
b10 [
#3360000
0'
#3370000
b11 D
1'
b11 [
#3380000
0'
#3390000
b101010 F
b0 D
1'
b1001 Z
b0 [
#3400000
0'
#3410000
b1 D
1'
b1 [
#3420000
0'
#3430000
b10 D
1'
b10 [
#3440000
0'
#3450000
b11 D
1'
b11 [
#3460000
0'
#3470000
b101011 F
b0 D
1'
b1010 Z
b0 [
#3480000
0'
#3490000
b1 D
1'
b1 [
#3500000
0'
#3510000
b10 D
1'
b10 [
#3520000
0'
#3530000
b11 D
1'
b11 [
#3540000
0'
#3550000
b101100 F
b0 D
1'
b1011 Z
b0 [
#3560000
0'
#3570000
b1 D
1'
b1 [
#3580000
0'
#3590000
b10 D
1'
b10 [
#3600000
0'
#3610000
b11 D
1'
b11 [
#3620000
0'
#3630000
b101101 F
b0 D
1'
b1100 Z
b0 [
#3640000
0'
#3650000
b1 D
1'
b1 [
#3660000
0'
#3670000
b10 D
1'
b10 [
#3680000
0'
#3690000
b11 D
1'
b11 [
#3700000
0'
#3710000
b101110 F
b0 D
1'
b1101 Z
b0 [
#3720000
0'
#3730000
b1 D
1'
b1 [
#3740000
0'
#3750000
b10 D
1'
b10 [
#3760000
0'
#3770000
b11 D
1'
b11 [
#3780000
0'
#3790000
b101111 F
b0 D
1'
b1110 Z
b0 [
#3800000
0'
#3810000
b1 D
1'
b1 [
#3820000
0'
#3830000
b10 D
1'
b10 [
#3840000
0'
#3850000
b11 D
1'
b11 [
#3860000
0'
#3870000
b110000 F
b0 D
1'
b1111 Z
b0 [
#3880000
0'
#3890000
b1 D
1'
b1 [
#3900000
0'
#3910000
b10 D
1'
b10 [
#3920000
0'
#3930000
b11 D
1'
b11 [
#3940000
0'
#3950000
b110001 F
b0 D
1'
b10000 Z
b0 [
#3960000
0'
#3970000
b1 D
1'
b1 [
#3980000
0'
#3990000
b10 D
1'
b10 [
#4000000
0'
#4010000
b11 D
1'
b11 [
#4020000
0'
#4030000
b110010 F
b0 D
1'
b10001 Z
b0 [
#4040000
0'
#4050000
b1 D
1'
b1 [
#4060000
0'
#4070000
b10 D
1'
b10 [
#4080000
0'
#4090000
b11 D
1'
b11 [
#4100000
0'
#4110000
b110011 F
b0 D
1'
b10010 Z
b0 [
#4120000
0'
#4130000
b1 D
1'
b1 [
#4140000
0'
#4150000
b10 D
1'
b10 [
#4160000
0'
#4170000
b11 D
1'
b11 [
#4180000
0'
#4190000
b110100 F
b0 D
1'
b10011 Z
b0 [
#4200000
0'
#4210000
b1 D
1'
b1 [
#4220000
0'
#4230000
b10 D
1'
b10 [
#4240000
0'
#4250000
b11 D
1'
b11 [
#4260000
0'
#4270000
b110101 F
b0 D
1'
b10100 Z
b0 [
#4280000
0'
#4290000
b1 D
1'
b1 [
#4300000
0'
#4310000
b10 D
1'
b10 [
#4320000
0'
#4330000
b11 D
1'
b11 [
#4340000
0'
#4350000
b110110 F
b0 D
1'
b10101 Z
b0 [
#4360000
0'
#4370000
b1 D
1'
b1 [
#4380000
0'
#4390000
b10 D
1'
b10 [
#4400000
0'
#4410000
b11 D
1'
b11 [
#4420000
0'
#4430000
b110111 F
b0 D
1'
b10110 Z
b0 [
#4440000
0'
#4450000
b1 D
1'
b1 [
#4460000
0'
#4470000
b10 D
1'
b10 [
#4480000
0'
#4490000
b11 D
1'
b11 [
#4500000
0'
#4510000
b111000 F
b0 D
1'
b10111 Z
b0 [
#4520000
0'
#4530000
b1 D
1'
b1 [
#4540000
0'
#4550000
b10 D
1'
b10 [
#4560000
0'
#4570000
b11 D
1'
b11 [
#4580000
0'
#4590000
b111001 F
b0 D
1'
b11000 Z
b0 [
#4600000
0'
#4610000
b1 D
1'
b1 [
#4620000
0'
#4630000
b10 D
1'
b10 [
#4640000
0'
#4650000
b11 D
1'
b11 [
#4660000
0'
#4670000
b111010 F
b0 D
1'
b11001 Z
b0 [
#4680000
0'
#4690000
b1 D
1'
b1 [
#4700000
0'
#4710000
b10 D
1'
b10 [
#4720000
0'
#4730000
b11 D
1'
b11 [
#4740000
0'
#4750000
b111011 F
b0 D
1'
b11010 Z
b0 [
#4760000
0'
#4770000
b1 D
1'
b1 [
#4780000
0'
#4790000
b10 D
1'
b10 [
#4800000
0'
#4810000
b11 D
1'
b11 [
#4820000
0'
#4830000
b111100 F
b0 D
1'
b11011 Z
b0 [
#4840000
0'
#4850000
b1 D
1'
b1 [
#4860000
0'
#4870000
b10 D
1'
b10 [
#4880000
0'
#4890000
b11 D
1'
b11 [
#4900000
0'
#4910000
b111101 F
b0 D
1'
b11100 Z
b0 [
#4920000
0'
#4930000
b1 D
1'
b1 [
#4940000
0'
#4950000
b10 D
1'
b10 [
#4960000
0'
#4970000
b11 D
1'
b11 [
#4980000
0'
#4990000
b111110 F
b0 D
1'
b11101 Z
b0 [
#5000000
0'
#5010000
b1 D
1'
b1 [
#5020000
0'
#5030000
b10 D
1'
b10 [
#5040000
0'
#5050000
b11 D
1'
b11 [
#5060000
0'
#5070000
b111111 F
b0 D
1'
b11110 Z
b0 [
#5080000
0'
#5090000
b1 D
1'
b1 [
#5100000
0'
#5110000
b10 D
1'
b10 [
#5120000
0'
#5130000
b11 D
1'
b11 [
#5140000
0'
#5150000
16
b1 1
b1 I
b1101111111111111111111111111111111111100000000000000000000000000000000000000000000000000000000000000000000000000000000000000000000000000000000000000000000000000000000000000000000000000000000000000000000000000000000000000000000000000000000000000000011111111 3
b1101111111111111111111111111111111111100000000000000000000000000000000000000000000000000000000000000000000000000000000000000000000000000000000000000000000000000000000000000000000000000000000000000000000000000000000000000000000000000000000000000000011111111 K
b1000000 F
b0 D
1'
b11111 Z
b0 [
#5160000
0'
#5170000
06
b1 D
1'
b1 [
#5180000
0'
#5190000
b10 D
1'
b10 [
#5200000
0'
#5210000
b11 D
1'
b11 [
#5220000
0'
#5230000
b1111111111111111111111111111111111111100000000000000000000000000000000000000000000000000000000000000000000000000000000000000000000000000000000000000000000000000000000000000000000000000000000000000000000000000000000000000000000000000000000000000000000000000 G
b1000001 F
b0 D
1'
b10 Y
b0 Z
b0 [
#5240000
0'
#5250000
b1 D
1'
b1 [
#5260000
0'
#5270000
b10 D
1'
b10 [
#5280000
0'
#5290000
b11 D
1'
b11 [
#5300000
0'
#5310000
b1000010 F
b0 D
1'
b1 Z
b0 [
#5320000
0'
#5330000
b1 D
1'
b1 [
#5340000
0'
#5350000
b10 D
1'
b10 [
#5360000
0'
#5370000
b11 D
1'
b11 [
#5380000
0'
#5390000
b1111111100111111111111111111111111111100000000000000000000000000000000000000000000000000000000000000000000000000000000000000000000000000000000000000000000000000000000000000000000000000000000000000000000000000000000000000000000000000000000000000000000000000 G
b1000011 F
b0 D
1'
b0 %
b0 +
b10 Z
b0 [
#5400000
0'
#5410000
b1111 C
b1 D
1'
b1 [
#5420000
0'
#5430000
b11 C
b10 D
1'
b10 [
#5440000
0'
#5450000
b0 C
b11 D
1'
b11 [
#5460000
0'
#5470000
b1110000001111111111111111111111111111100000000000000000000000000000000000000000000000000000000000000000000000000000000000000000000000000000000000000000000000000000000000000000000000000000000000000000000000000000000000000000000000000000000000000000000000000 G
b1000100 F
b0 D
1'
b11 %
b11 +
b11 Z
b0 [
#5480000
0'
#5490000
b110000 C
b1 D
1'
b1 [
#5500000
0'
#5510000
b111100 C
b10 D
1'
b10 [
#5520000
0'
#5530000
b111111 C
b11 D
1'
b11 [
#5540000
0'
#5550000
b1110111111111111111111111111111111111100000000000000000000000000000000000000000000000000000000000000000000000000000000000000000000000000000000000000000000000000000000000000000000000000000000000000000000000000000000000000000000000000000000000000000000000000 G
b1000101 F
b0 D
1'
b100 Z
b0 [
#5560000
0'
#5570000
b1 D
1'
b1 [
#5580000
0'
#5590000
b10 D
1'
b10 [
#5600000
0'
#5610000
b11 D
1'
b11 [
#5620000
0'
#5630000
b1000110 F
b0 D
1'
b101 Z
b0 [
#5640000
0'
#5650000
b1 D
1'
b1 [
#5660000
0'
#5670000
b10 D
1'
b10 [
#5680000
0'
#5690000
b11 D
1'
b11 [
#5700000
0'
#5710000
b1000111 F
b0 D
1'
b110 Z
b0 [
#5720000
0'
#5730000
b1 D
1'
b1 [
#5740000
0'
#5750000
b10 D
1'
b10 [
#5760000
0'
#5770000
b11 D
1'
b11 [
#5780000
0'
#5790000
b1001000 F
b0 D
1'
b111 Z
b0 [
#5800000
0'
#5810000
b1 D
1'
b1 [
#5820000
0'
#5830000
b10 D
1'
b10 [
#5840000
0'
#5850000
b11 D
1'
b11 [
#5860000
0'
#5870000
b1001001 F
b0 D
1'
b1000 Z
b0 [
#5880000
0'
#5890000
b1 D
1'
b1 [
#5900000
0'
#5910000
b10 D
1'
b10 [
#5920000
0'
#5930000
b11 D
1'
b11 [
#5940000
0'
#5950000
b1001010 F
b0 D
1'
b1001 Z
b0 [
#5960000
0'
#5970000
b1 D
1'
b1 [
#5980000
0'
#5990000
b10 D
1'
b10 [
#6000000
0'
#6010000
b11 D
1'
b11 [
#6020000
0'
#6030000
b1001011 F
b0 D
1'
b1010 Z
b0 [
#6040000
0'
#6050000
b1 D
1'
b1 [
#6060000
0'
#6070000
b10 D
1'
b10 [
#6080000
0'
#6090000
b11 D
1'
b11 [
#6100000
0'
#6110000
b1001100 F
b0 D
1'
b1011 Z
b0 [
#6120000
0'
#6130000
b1 D
1'
b1 [
#6140000
0'
#6150000
b10 D
1'
b10 [
#6160000
0'
#6170000
b11 D
1'
b11 [
#6180000
0'
#6190000
b1001101 F
b0 D
1'
b1100 Z
b0 [
#6200000
0'
#6210000
b1 D
1'
b1 [
#6220000
0'
#6230000
b10 D
1'
b10 [
