matrix_loader.vcd
$date
	Tue Dec 13 12:00:29 2022
$end
$version
	Icarus Verilog
$end
$timescale
	1ps
$end
$scope module matrix_loader_tb $end
$var wire 1 ! complete $end
$var wire 256 " b_col_out [255:0] $end
$var wire 5 # addr_out [4:0] $end
$var wire 256 $ a_row_out [255:0] $end
$var reg 2 % axiid [1:0] $end
$var reg 1 & axiiv $end
$var reg 1 ' clk $end
$var reg 5 ( requested_a_row [4:0] $end
$var reg 5 ) requested_b_col [4:0] $end
$var reg 1 * rst $end
$scope module uut $end
$var wire 2 + axiid [1:0] $end
$var wire 1 & axiiv $end
$var wire 1 ' eth_refclk $end
$var wire 1 ' inter_refclk $end
$var wire 5 , requested_a_row [4:0] $end
$var wire 5 - requested_b_col [4:0] $end
$var wire 1 * rst $end
$var wire 256 . B_dout [255:0] $end
$var wire 256 / A_dout [255:0] $end
$var reg 10 0 A_addr_buffer [9:0] $end
$var reg 5 1 A_addra [4:0] $end
$var reg 5 2 A_addrb [4:0] $end
$var reg 256 3 A_dina [255:0] $end
$var reg 1 4 A_enb $end
$var reg 1 5 A_regceb $end
$var reg 1 6 A_wea $end
$var reg 5 7 B_addra [4:0] $end
$var reg 5 8 B_addrb [4:0] $end
$var reg 256 9 B_dina [255:0] $end
$var reg 1 : B_enb $end
$var reg 1 ; B_regceb $end
$var reg 1 < B_wea $end
$var reg 256 = a_row_out [255:0] $end
$var reg 5 > addr_out [4:0] $end
$var reg 256 ? b_col_out [255:0] $end
$var reg 1 @ bad $end
$var reg 1 A bram_rst $end
$var reg 1 ! complete $end
$var reg 1 B downtime $end
$var reg 6 C element_buffer [5:0] $end
$var reg 2 D element_counter [1:0] $end
$var reg 1 E loading $end
$var reg 10 F matrix_counter [9:0] $end
$var reg 256 G row_buffer [255:0] $end
$var reg 1 H transmitting $end
$scope module Matrix_A_BRAM $end
$var wire 5 I addra [4:0] $end
$var wire 5 J addrb [4:0] $end
$var wire 1 ' clka $end
$var wire 1 ' clkb $end
$var wire 256 K dina [255:0] $end
$var wire 1 4 enb $end
$var wire 1 5 regceb $end
$var wire 1 * rstb $end
$var wire 1 6 wea $end
$var wire 256 L doutb [255:0] $end
$var reg 256 M ram_data [255:0] $end
$scope function clogb2 $end
$var integer 32 N depth [31:0] $end
$upscope $end
$scope begin init_bram_to_zero $end
$var integer 32 O ram_index [31:0] $end
$upscope $end
$scope begin output_register $end
$var reg 256 P doutb_reg [255:0] $end
$upscope $end
$upscope $end
$scope module Matrix_B_BRAM $end
$var wire 5 Q addra [4:0] $end
$var wire 5 R addrb [4:0] $end
$var wire 1 ' clka $end
$var wire 1 ' clkb $end
$var wire 256 S dina [255:0] $end
$var wire 1 : enb $end
$var wire 1 ; regceb $end
$var wire 1 * rstb $end
$var wire 1 < wea $end
$var wire 256 T doutb [255:0] $end
$var reg 256 U ram_data [255:0] $end
$scope function clogb2 $end
$var integer 32 V depth [31:0] $end
$upscope $end
$scope begin init_bram_to_zero $end
$var integer 32 W ram_index [31:0] $end
$upscope $end
$scope begin output_register $end
$var reg 256 X doutb_reg [255:0] $end
$upscope $end
$upscope $end
$upscope $end
$scope begin $ivl_for_loop0 $end
$var integer 32 Y i [31:0] $end
$scope begin $ivl_for_loop1 $end
$var integer 32 Z j [31:0] $end
$scope begin $ivl_for_loop2 $end
$var integer 32 [ k [31:0] $end
$upscope $end
$upscope $end
$upscope $end
$scope begin $ivl_for_loop3 $end
$var integer 32 \ i [31:0] $end
$upscope $end
$upscope $end
$enddefinitions $end
#0
$dumpvars
b0 \
b0 [
b0 Z
b0 Y
b0 X
b100000 W
bx V
b0 U
b0 T
bx S
bx R
bx Q
b0 P
b100000 O
bx N
b0 M
b0 L
bx K
bx J
bx I
xH
bx G
bx F
xE
bx D
bx C
xB
xA
x@
bx ?
bx >
bx =
x<
x;
x:
bx 9
bx 8
bx 7
x6
x5
x4
bx 3
bx 2
bx 1
bx 0
b0 /
b0 .
bx -
bx ,
bx +
0*
bx )
bx (
0'
x&
bx %
bx $
bx #
bx "
x!
$end
#10000
1'
#20000
0'
#30000
15
14
b0 2
b0 J
b0 F
b0 D
0E
1B
1A
1'
1*
#40000
0'
#50000
0<
06
xA
1'
0*
#60000
0'
#70000
1'
#80000
0'
#90000
1'
#100000
0'
#110000
b0xxxx C
b1 D
b1 F
b0 G
1E
0B
1'
b0 %
b0 +
1&
#120000
0'
#130000
1'
b1 [
#140000
0'
#150000
1'
b10 [
#160000
0'
#170000
1'
b11 [
#180000
0'
#190000
1'
b11 %
b11 +
b1 Z
b0 [
#200000
0'
#210000
1'
b1 [
#220000
0'
#230000
1'
b10 [
#240000
0'
#250000
1'
b11 [
#260000
0'
#270000
1'
b10 Z
b0 [
#280000
0'
#290000
1'
b1 [
#300000
0'
#310000
1'
b10 [
#320000
0'
#330000
1'
b11 [
#340000
0'
#350000
1'
b11 Z
b0 [
#360000
0'
#370000
1'
b1 [
#380000
0'
#390000
1'
b10 [
#400000
0'
#410000
1'
b11 [
#420000
0'
#430000
1'
b100 Z
b0 [
#440000
0'
#450000
1'
b1 [
#460000
0'
#470000
1'
b10 [
#480000
0'
#490000
1'
b11 [
#500000
0'
#510000
1'
b101 Z
b0 [
#520000
0'
#530000
1'
b1 [
#540000
0'
#550000
1'
b10 [
#560000
0'
#570000
1'
b11 [
#580000
0'
#590000
1'
b110 Z
b0 [
#600000
0'
#610000
1'
b1 [
#620000
0'
#630000
1'
b10 [
#640000
0'
#650000
1'
b11 [
#660000
0'
#670000
1'
b111 Z
b0 [
#680000
0'
#690000
1'
b1 [
#700000
0'
#710000
1'
b10 [
#720000
0'
#730000
1'
b11 [
#740000
0'
#750000
1'
b1000 Z
b0 [
#760000
0'
#770000
1'
b1 [
#780000
0'
#790000
1'
b10 [
#800000
0'
#810000
1'
b11 [
#820000
0'
#830000
1'
b1001 Z
b0 [
#840000
0'
#850000
1'
b1 [
#860000
0'
#870000
1'
b10 [
#880000
0'
#890000
1'
b11 [
#900000
0'
#910000
1'
b1010 Z
b0 [
#920000
0'
#930000
1'
b1 [
#940000
0'
#950000
1'
b10 [
#960000
0'
#970000
1'
b11 [
#980000
0'
#990000
1'
b1011 Z
b0 [
#1000000
0'
#1010000
1'
b1 [
#1020000
0'
#1030000
1'
b10 [
#1040000
0'
#1050000
1'
b11 [
#1060000
0'
#1070000
1'
b1100 Z
b0 [
#1080000
0'
#1090000
1'
b1 [
#1100000
0'
#1110000
1'
b10 [
#1120000
0'
#1130000
1'
b11 [
#1140000
0'
#1150000
1'
b1101 Z
b0 [
#1160000
0'
#1170000
1'
b1 [
#1180000
0'
#1190000
1'
b10 [
#1200000
0'
#1210000
1'
b11 [
#1220000
0'
#1230000
1'
b1110 Z
b0 [
#1240000
0'
#1250000
1'
b1 [
#1260000
0'
#1270000
1'
b10 [
#1280000
0'
#1290000
1'
b11 [
#1300000
0'
#1310000
1'
b1111 Z
b0 [
#1320000
0'
#1330000
1'
b1 [
#1340000
0'
#1350000
1'
b10 [
#1360000
0'
#1370000
1'
b11 [
#1380000
0'
#1390000
1'
b10000 Z
b0 [
#1400000
0'
#1410000
1'
b1 [
#1420000
0'
#1430000
1'
b10 [
#1440000
0'
#1450000
1'
b11 [
#1460000
0'
#1470000
1'
b10001 Z
b0 [
#1480000
0'
#1490000
1'
b1 [
#1500000
0'
#1510000
1'
b10 [
#1520000
0'
#1530000
1'
b11 [
#1540000
0'
#1550000
1'
b10010 Z
b0 [
#1560000
0'
#1570000
1'
b1 [
#1580000
0'
#1590000
1'
b10 [
#1600000
0'
#1610000
1'
b11 [
#1620000
0'
#1630000
1'
b10011 Z
b0 [
#1640000
0'
#1650000
1'
b1 [
#1660000
0'
#1670000
1'
b10 [
#1680000
0'
#1690000
1'
b11 [
#1700000
0'
#1710000
1'
b10100 Z
b0 [
#1720000
0'
#1730000
1'
b1 [
#1740000
0'
#1750000
1'
b10 [
#1760000
0'
#1770000
1'
b11 [
#1780000
0'
#1790000
1'
b10101 Z
b0 [
#1800000
0'
#1810000
1'
b1 [
#1820000
0'
#1830000
1'
b10 [
#1840000
0'
#1850000
1'
b11 [
#1860000
0'
#1870000
1'
b10110 Z
b0 [
#1880000
0'
#1890000
1'
b1 [
#1900000
0'
#1910000
1'
b10 [
#1920000
0'
#1930000
1'
b11 [
#1940000
0'
#1950000
1'
b10111 Z
b0 [
#1960000
0'
#1970000
1'
b1 [
#1980000
0'
#1990000
1'
b10 [
#2000000
0'
#2010000
1'
b11 [
#2020000
0'
#2030000
1'
b11000 Z
b0 [
#2040000
0'
#2050000
1'
b1 [
#2060000
0'
#2070000
1'
b10 [
#2080000
0'
#2090000
1'
b11 [
#2100000
0'
#2110000
1'
b11001 Z
b0 [
#2120000
0'
#2130000
1'
b1 [
#2140000
0'
#2150000
1'
b10 [
#2160000
0'
#2170000
1'
b11 [
#2180000
0'
#2190000
1'
b11010 Z
b0 [
#2200000
0'
#2210000
1'
b1 [
#2220000
0'
#2230000
1'
b10 [
#2240000
0'
#2250000
1'
b11 [
#2260000
0'
#2270000
1'
b11011 Z
b0 [
#2280000
0'
#2290000
1'
b1 [
#2300000
0'
#2310000
1'
b10 [
#2320000
0'
#2330000
1'
b11 [
#2340000
0'
#2350000
1'
b11100 Z
b0 [
#2360000
0'
#2370000
1'
b1 [
#2380000
0'
#2390000
1'
b10 [
#2400000
0'
#2410000
1'
b11 [
#2420000
0'
#2430000
1'
b11101 Z
b0 [
#2440000
0'
#2450000
1'
b1 [
#2460000
0'
#2470000
1'
b10 [
#2480000
0'
#2490000
1'
b11 [
#2500000
0'
#2510000
1'
b11110 Z
b0 [
#2520000
0'
#2530000
1'
b1 [
#2540000
0'
#2550000
1'
b10 [
#2560000
0'
#2570000
1'
b11 [
#2580000
0'
#2590000
1'
b11111 Z
b0 [
#2600000
0'
#2610000
1'
b1 [
#2620000
0'
#2630000
1'
b10 [
#2640000
0'
#2650000
1'
b11 [
#2660000
0'
#2670000
1'
b1 Y
b0 Z
b0 [
#2680000
0'
#2690000
1'
b1 [
#2700000
0'
#2710000
1'
b10 [
#2720000
0'
#2730000
1'
b11 [
#2740000
0'
#2750000
1'
b0 %
b0 +
b1 Z
b0 [
#2760000
0'
#2770000
1'
b1 [
#2780000
0'
#2790000
1'
b10 [
#2800000
0'
#2810000
1'
b11 [
#2820000
0'
#2830000
1'
b11 %
b11 +
b10 Z
b0 [
#2840000
0'
#2850000
1'
b1 [
#2860000
0'
#2870000
1'
b10 [
#2880000
0'
#2890000
1'
b11 [
#2900000
0'
#2910000
1'
b11 Z
b0 [
#2920000
0'
#2930000
1'
b1 [
#2940000
0'
#2950000
1'
b10 [
#2960000
0'
#2970000
1'
b11 [
#2980000
0'
#2990000
1'
b100 Z
b0 [
#3000000
0'
#3010000
1'
b1 [
#3020000
0'
#3030000
1'
b10 [
#3040000
0'
#3050000
1'
b11 [
#3060000
0'
#3070000
1'
b101 Z
b0 [
#3080000
0'
#3090000
1'
b1 [
#3100000
0'
#3110000
1'
b10 [
#3120000
0'
#3130000
1'
b11 [
#3140000
0'
#3150000
1'
b110 Z
b0 [
#3160000
0'
#3170000
1'
b1 [
#3180000
0'
#3190000
1'
b10 [
#3200000
0'
#3210000
1'
b11 [
#3220000
0'
#3230000
1'
b111 Z
b0 [
#3240000
0'
#3250000
1'
b1 [
#3260000
0'
#3270000
1'
b10 [
#3280000
0'
#3290000
1'
b11 [
#3300000
0'
#3310000
1'
b1000 Z
b0 [
#3320000
0'
#3330000
1'
b1 [
#3340000
0'
#3350000
1'
b10 [
#3360000
0'
#3370000
1'
b11 [
#3380000
0'
#3390000
1'
b1001 Z
b0 [
#3400000
0'
#3410000
1'
b1 [
#3420000
0'
#3430000
1'
b10 [
#3440000
0'
#3450000
1'
b11 [
#3460000
0'
#3470000
1'
b1010 Z
b0 [
#3480000
0'
#3490000
1'
b1 [
#3500000
0'
#3510000
1'
b10 [
#3520000
0'
#3530000
1'
b11 [
#3540000
0'
#3550000
1'
b1011 Z
b0 [
#3560000
0'
#3570000
1'
b1 [
#3580000
0'
#3590000
1'
b10 [
#3600000
0'
#3610000
1'
b11 [
#3620000
0'
#3630000
1'
b1100 Z
b0 [
#3640000
0'
#3650000
1'
b1 [
#3660000
0'
#3670000
1'
b10 [
#3680000
0'
#3690000
1'
b11 [
#3700000
0'
#3710000
1'
b1101 Z
b0 [
#3720000
0'
#3730000
1'
b1 [
#3740000
0'
#3750000
1'
b10 [
#3760000
0'
#3770000
1'
b11 [
#3780000
0'
#3790000
1'
b1110 Z
b0 [
#3800000
0'
#3810000
1'
b1 [
#3820000
0'
#3830000
1'
b10 [
#3840000
0'
#3850000
1'
b11 [
#3860000
0'
#3870000
1'
b1111 Z
b0 [
#3880000
0'
#3890000
1'
b1 [
#3900000
0'
#3910000
1'
b10 [
#3920000
0'
#3930000
1'
b11 [
#3940000
0'
#3950000
1'
b10000 Z
b0 [
#3960000
0'
#3970000
1'
b1 [
#3980000
0'
#3990000
1'
b10 [
#4000000
0'
#4010000
1'
b11 [
#4020000
0'
#4030000
1'
b10001 Z
b0 [
#4040000
0'
#4050000
1'
b1 [
#4060000
0'
#4070000
1'
b10 [
#4080000
0'
#4090000
1'
b11 [
#4100000
0'
#4110000
1'
b10010 Z
b0 [
#4120000
0'
#4130000
1'
b1 [
#4140000
0'
#4150000
1'
b10 [
#4160000
0'
#4170000
1'
b11 [
#4180000
0'
#4190000
1'
b10011 Z
b0 [
#4200000
0'
#4210000
1'
b1 [
#4220000
0'
#4230000
1'
b10 [
#4240000
0'
#4250000
1'
b11 [
#4260000
0'
#4270000
1'
b10100 Z
b0 [
#4280000
0'
#4290000
1'
b1 [
#4300000
0'
#4310000
1'
b10 [
#4320000
0'
#4330000
1'
b11 [
#4340000
0'
#4350000
1'
b10101 Z
b0 [
#4360000
0'
#4370000
1'
b1 [
#4380000
0'
#4390000
1'
b10 [
#4400000
0'
#4410000
1'
b11 [
#4420000
0'
#4430000
1'
b10110 Z
b0 [
#4440000
0'
#4450000
1'
b1 [
#4460000
0'
#4470000
1'
b10 [
#4480000
0'
#4490000
1'
b11 [
#4500000
0'
#4510000
1'
b10111 Z
b0 [
#4520000
0'
#4530000
1'
b1 [
#4540000
0'
#4550000
1'
b10 [
#4560000
0'
#4570000
1'
b11 [
#4580000
0'
#4590000
1'
b11000 Z
b0 [
#4600000
0'
#4610000
1'
b1 [
#4620000
0'
#4630000
1'
b10 [
#4640000
0'
#4650000
1'
b11 [
#4660000
0'
#4670000
1'
b11001 Z
b0 [
#4680000
0'
#4690000
1'
b1 [
#4700000
0'
#4710000
1'
b10 [
#4720000
0'
#4730000
1'
b11 [
#4740000
0'
#4750000
1'
b11010 Z
b0 [
#4760000
0'
#4770000
1'
b1 [
#4780000
0'
#4790000
1'
b10 [
#4800000
0'
#4810000
1'
b11 [
#4820000
0'
#4830000
1'
b11011 Z
b0 [
#4840000
0'
#4850000
1'
b1 [
#4860000
0'
#4870000
1'
b10 [
#4880000
0'
#4890000
1'
b11 [
#4900000
0'
#4910000
1'
b11100 Z
b0 [
#4920000
0'
#4930000
1'
b1 [
#4940000
0'
#4950000
1'
b10 [
#4960000
0'
#4970000
1'
b11 [
#4980000
0'
#4990000
1'
b11101 Z
b0 [
#5000000
0'
#5010000
1'
b1 [
#5020000
0'
#5030000
1'
b10 [
#5040000
0'
#5050000
1'
b11 [
#5060000
0'
#5070000
1'
b11110 Z
b0 [
#5080000
0'
#5090000
1'
b1 [
#5100000
0'
#5110000
1'
b10 [
#5120000
0'
#5130000
1'
b11 [
#5140000
0'
#5150000
1'
b11111 Z
b0 [
#5160000
0'
#5170000
1'
b1 [
#5180000
0'
#5190000
1'
b10 [
#5200000
0'
#5210000
1'
b11 [
#5220000
0'
#5230000
1'
b10 Y
b0 Z
b0 [
#5240000
0'
#5250000
1'
b1 [
#5260000
0'
#5270000
1'
b10 [
#5280000
0'
#5290000
1'
b11 [
#5300000
0'
#5310000
1'
b1 Z
b0 [
#5320000
0'
#5330000
1'
b1 [
#5340000
0'
#5350000
1'
b10 [
#5360000
0'
#5370000
1'
b11 [
#5380000
0'
#5390000
1'
b0 %
b0 +
b10 Z
b0 [
#5400000
0'
#5410000
1'
b1 [
#5420000
0'
#5430000
1'
b10 [
#5440000
0'
#5450000
1'
b11 [
#5460000
0'
#5470000
1'
b11 %
b11 +
b11 Z
b0 [
#5480000
0'
#5490000
1'
b1 [
#5500000
0'
#5510000
1'
b10 [
#5520000
0'
#5530000
1'
b11 [
#5540000
0'
#5550000
1'
b100 Z
b0 [
#5560000
0'
#5570000
1'
b1 [
#5580000
0'
#5590000
1'
b10 [
#5600000
0'
#5610000
1'
b11 [
#5620000
0'
#5630000
1'
b101 Z
b0 [
#5640000
0'
#5650000
1'
b1 [
#5660000
0'
#5670000
1'
b10 [
#5680000
0'
#5690000
1'
b11 [
#5700000
0'
#5710000
1'
b110 Z
b0 [
#5720000
0'
#5730000
1'
b1 [
#5740000
0'
#5750000
1'
b10 [
#5760000
0'
#5770000
1'
b11 [
#5780000
0'
#5790000
1'
b111 Z
b0 [
#5800000
0'
#5810000
1'
b1 [
#5820000
0'
#5830000
1'
b10 [
#5840000
0'
#5850000
1'
b11 [
#5860000
0'
#5870000
1'
b1000 Z
b0 [
#5880000
0'
#5890000
1'
b1 [
#5900000
0'
#5910000
1'
b10 [
#5920000
0'
#5930000
1'
b11 [
#5940000
0'
#5950000
1'
b1001 Z
b0 [
#5960000
0'
#5970000
1'
b1 [
#5980000
0'
#5990000
1'
b10 [
#6000000
0'
#6010000
1'
b11 [
#6020000
0'
#6030000
1'
b1010 Z
b0 [
#6040000
0'
#6050000
1'
b1 [
#6060000
0'
#6070000
1'
b10 [
#6080000
0'
#6090000
1'
b11 [
#6100000
0'
#6110000
1'
b1011 Z
b0 [
#6120000
0'
#6130000
1'
b1 [
#6140000
0'
#6150000
1'
b10 [
#6160000
0'
#6170000
1'
b11 [
#6180000
0'
#6190000
1'
b1100 Z
b0 [
#6200000
0'
#6210000
1'
b1 [
#6220000
0'
#6230000
1'
b10 [
#6240000
0'
#6250000
1'
b11 [
#6260000
0'
#6270000
1'
b1101 Z
b0 [
#6280000
0'
#6290000
1'
b1 [
#6300000
0'
#6310000
1'
b10 [
#6320000
0'
#6330000
1'
b11 [
#6340000
0'
#6350000
1'
b1110 Z
b0 [
#6360000
0'
#6370000
1'
b1 [
#6380000
0'
#6390000
1'
b10 [
#6400000
0'
#6410000
1'
b11 [
#6420000
0'
#6430000
1'
b1111 Z
b0 [
#6440000
0'
#6450000
1'
b1 [
#6460000
0'
#6470000
1'
b10 [
#6480000
0'
#6490000
1'
b11 [
#6500000
0'
#6510000
1'
b10000 Z
b0 [
#6520000
0'
#6530000
1'
b1 [
#6540000
0'
#6550000
1'
b10 [
#6560000
0'
#6570000
1'
b11 [
#6580000
0'
#6590000
1'
b10001 Z
b0 [
#6600000
0'
#6610000
1'
b1 [
#6620000
0'
#6630000
1'
b10 [
#6640000
0'
#6650000
1'
b11 [
#6660000
0'
#6670000
1'
b10010 Z
b0 [
#6680000
0'
#6690000
1'
b1 [
#6700000
0'
#6710000
1'
b10 [
#6720000
0'
#6730000
1'
b11 [
#6740000
0'
#6750000
1'
b10011 Z
b0 [
#6760000
0'
#6770000
1'
b1 [
#6780000
0'
#6790000
1'
b10 [
#6800000
0'
#6810000
1'
b11 [
#6820000
0'
#6830000
1'
b10100 Z
b0 [
#6840000
0'
#6850000
1'
b1 [
#6860000
0'
#6870000
1'
b10 [
#6880000
0'
#6890000
1'
b11 [
#6900000
0'
#6910000
1'
b10101 Z
b0 [
#6920000
0'
#6930000
1'
b1 [
#6940000
0'
#6950000
1'
b10 [
#6960000
0'
#6970000
1'
b11 [
#6980000
0'
#6990000
1'
b10110 Z
b0 [
#7000000
0'
#7010000
1'
b1 [
#7020000
0'
#7030000
1'
b10 [
#7040000
0'
#7050000
1'
b11 [
#7060000
0'
#7070000
1'
b10111 Z
b0 [
#7080000
0'
#7090000
1'
b1 [
#7100000
0'
#7110000
1'
b10 [
#7120000
0'
#7130000
1'
b11 [
#7140000
0'
#7150000
1'
b11000 Z
b0 [
#7160000
0'
#7170000
1'
b1 [
#7180000
0'
#7190000
1'
b10 [
#7200000
0'
#7210000
1'
b11 [
#7220000
0'
#7230000
1'
b11001 Z
b0 [
#7240000
0'
#7250000
1'
b1 [
#7260000
0'
#7270000
1'
b10 [
#7280000
0'
#7290000
1'
b11 [
#7300000
0'
#7310000
1'
b11010 Z
b0 [
#7320000
0'
#7330000
1'
b1 [
#7340000
0'
#7350000
1'
b10 [
#7360000
0'
#7370000
1'
b11 [
#7380000
0'
#7390000
1'
b11011 Z
b0 [
#7400000
0'
#7410000
1'
b1 [
#7420000
0'
#7430000
1'
b10 [
#7440000
0'
#7450000
1'
b11 [
#7460000
0'
#7470000
1'
b11100 Z
b0 [
#7480000
0'
#7490000
1'
b1 [
#7500000
0'
#7510000
1'
b10 [
#7520000
0'
#7530000
1'
b11 [
#7540000
0'
#7550000
1'
b11101 Z
b0 [
#7560000
0'
#7570000
1'
b1 [
#7580000
0'
#7590000
1'
b10 [
#7600000
0'
#7610000
1'
b11 [
#7620000
0'
#7630000
1'
b11110 Z
b0 [
#7640000
0'
#7650000
1'
b1 [
#7660000
0'
#7670000
1'
b10 [
#7680000
0'
#7690000
1'
b11 [
#7700000
0'
#7710000
1'
b11111 Z
b0 [
#7720000
0'
#7730000
1'
b1 [
#7740000
0'
#7750000
1'
b10 [
#7760000
0'
#7770000
1'
b11 [
#7780000
0'
#7790000
1'
b11 Y
b0 Z
b0 [
#7800000
0'
#7810000
1'
b1 [
#7820000
0'
#7830000
1'
b10 [
#7840000
0'
#7850000
1'
b11 [
#7860000
0'
#7870000
1'
b1 Z
b0 [
#7880000
0'
#7890000
1'
b1 [
#7900000
0'
#7910000
1'
b10 [
#7920000
0'
#7930000
1'
b11 [
#7940000
0'
#7950000
1'
b10 Z
b0 [
#7960000
0'
#7970000
1'
b1 [
#7980000
0'
#7990000
1'
b10 [
#8000000
0'
#8010000
1'
b11 [
#8020000
0'
#8030000
1'
b0 %
b0 +
b11 Z
b0 [
#8040000
0'
#8050000
1'
b1 [
#8060000
0'
#8070000
1'
b10 [
#8080000
0'
#8090000
1'
b11 [
#8100000
0'
#8110000
1'
b11 %
b11 +
b100 Z
b0 [
#8120000
0'
#8130000
1'
b1 [
#8140000
0'
#8150000
1'
b10 [
#8160000
0'
#8170000
1'
b11 [
#8180000
0'
#8190000
1'
b101 Z
b0 [
#8200000
0'
#8210000
1'
b1 [
#8220000
0'
#8230000
1'
b10 [
#8240000
0'
#8250000
1'
b11 [
#8260000
0'
#8270000
1'
b110 Z
b0 [
#8280000
0'
#8290000
1'
b1 [
#8300000
0'
#8310000
1'
b10 [
#8320000
0'
#8330000
1'
b11 [
#8340000
0'
#8350000
1'
b111 Z
b0 [
#8360000
0'
#8370000
1'
b1 [
#8380000
0'
#8390000
1'
b10 [
#8400000
0'
#8410000
1'
b11 [
#8420000
0'
#8430000
1'
b1000 Z
b0 [
#8440000
0'
#8450000
1'
b1 [
#8460000
0'
#8470000
1'
b10 [
#8480000
0'
#8490000
1'
b11 [
#8500000
0'
#8510000
1'
b1001 Z
b0 [
#8520000
0'
#8530000
1'
b1 [
#8540000
0'
#8550000
1'
b10 [
#8560000
0'
#8570000
1'
b11 [
#8580000
0'
#8590000
1'
b1010 Z
b0 [
#8600000
0'
#8610000
1'
b1 [
#8620000
0'
#8630000
1'
b10 [
#8640000
0'
#8650000
1'
b11 [
#8660000
0'
#8670000
1'
b1011 Z
b0 [
#8680000
0'
#8690000
1'
b1 [
#8700000
0'
#8710000
1'
b10 [
#8720000
0'
#8730000
1'
b11 [
#8740000
0'
#8750000
1'
b1100 Z
b0 [
#8760000
0'
#8770000
1'
b1 [
#8780000
0'
#8790000
1'
b10 [
#8800000
0'
#8810000
1'
b11 [
#8820000
0'
#8830000
1'
b1101 Z
b0 [
#8840000
0'
#8850000
1'
b1 [
#8860000
0'
#8870000
1'
b10 [
#8880000
0'
#8890000
1'
b11 [
#8900000
0'
#8910000
1'
b1110 Z
b0 [
#8920000
0'
#8930000
1'
b1 [
#8940000
0'
#8950000
1'
b10 [
#8960000
0'
#8970000
1'
b11 [
#8980000
0'
#8990000
1'
b1111 Z
b0 [
#9000000
0'
#9010000
1'
b1 [
#9020000
0'
#9030000
1'
b10 [
#9040000
0'
#9050000
1'
b11 [
#9060000
0'
#9070000
1'
b10000 Z
b0 [
#9080000
0'
#9090000
1'
b1 [
#9100000
0'
#9110000
1'
b10 [
#9120000
0'
#9130000
1'
b11 [
#9140000
0'
#9150000
1'
b10001 Z
b0 [
#9160000
0'
#9170000
1'
b1 [
#9180000
0'
#9190000
1'
b10 [
#9200000
0'
#9210000
1'
b11 [
#9220000
0'
#9230000
1'
b10010 Z
b0 [
#9240000
0'
#9250000
1'
b1 [
#9260000
0'
#9270000
1'
b10 [
#9280000
0'
#9290000
1'
b11 [
#9300000
0'
#9310000
1'
b10011 Z
b0 [
#9320000
0'
#9330000
1'
b1 [
#9340000
0'
#9350000
1'
b10 [
#9360000
0'
#9370000
1'
b11 [
#9380000
0'
#9390000
1'
b10100 Z
b0 [
#9400000
0'
#9410000
1'
b1 [
#9420000
0'
#9430000
1'
b10 [
#9440000
0'
#9450000
1'
b11 [
#9460000
0'
#9470000
1'
b10101 Z
b0 [
#9480000
0'
#9490000
1'
b1 [
#9500000
0'
#9510000
1'
b10 [
#9520000
0'
#9530000
1'
b11 [
#9540000
0'
#9550000
1'
b10110 Z
b0 [
#9560000
0'
#9570000
1'
b1 [
#9580000
0'
#9590000
1'
b10 [
#9600000
0'
#9610000
1'
b11 [
#9620000
0'
#9630000
1'
b10111 Z
b0 [
#9640000
0'
#9650000
1'
b1 [
#9660000
0'
#9670000
1'
b10 [
#9680000
0'
#9690000
1'
b11 [
#9700000
0'
#9710000
1'
b11000 Z
b0 [
#9720000
0'
#9730000
1'
b1 [
#9740000
0'
#9750000
1'
b10 [
#9760000
0'
#9770000
1'
b11 [
#9780000
0'
#9790000
1'
b11001 Z
b0 [
#9800000
0'
#9810000
1'
b1 [
#9820000
0'
#9830000
1'
b10 [
#9840000
0'
#9850000
1'
b11 [
#9860000
0'
#9870000
1'
b11010 Z
b0 [
#9880000
0'
#9890000
1'
b1 [
#9900000
0'
#9910000
1'
b10 [
#9920000
0'
#9930000
1'
b11 [
#9940000
0'
#9950000
1'
b11011 Z
b0 [
#9960000
0'
#9970000
1'
b1 [
#9980000
0'
#9990000
1'
b10 [
#10000000
0'
#10010000
1'
b11 [
#10020000
0'
#10030000
1'
b11100 Z
b0 [
#10040000
0'
#10050000
1'
b1 [
#10060000
0'
#10070000
1'
b10 [
#10080000
0'
#10090000
1'
b11 [
#10100000
0'
#10110000
1'
b11101 Z
b0 [
#10120000
0'
#10130000
1'
b1 [
#10140000
0'
#10150000
1'
b10 [
#10160000
0'
#10170000
1'
b11 [
#10180000
0'
#10190000
1'
b11110 Z
b0 [
#10200000
0'
#10210000
1'
b1 [
#10220000
0'
#10230000
1'
b10 [
#10240000
0'
#10250000
1'
b11 [
#10260000
0'
#10270000
1'
b11111 Z
b0 [
#10280000
0'
#10290000
1'
b1 [
#10300000
0'
#10310000
1'
b10 [
#10320000
0'
#10330000
1'
b11 [
#10340000
0'
#10350000
1'
b100 Y
b0 Z
b0 [
#10360000
0'
#10370000
1'
b1 [
#10380000
0'
#10390000
1'
b10 [
#10400000
0'
#10410000
1'
b11 [
#10420000
0'
#10430000
1'
b1 Z
b0 [
#10440000
0'
#10450000
1'
b1 [
#10460000
0'
#10470000
1'
b10 [
#10480000
0'
#10490000
1'
b11 [
#10500000
0'
#10510000
1'
b10 Z
b0 [
#10520000
0'
#10530000
1'
b1 [
#10540000
0'
#10550000
1'
b10 [
#10560000
0'
#10570000
1'
b11 [
#10580000
0'
#10590000
1'
b11 Z
b0 [
#10600000
0'
#10610000
1'
b1 [
#10620000
0'
#10630000
1'
b10 [
#10640000
0'
#10650000
1'
b11 [
#10660000
0'
#10670000
1'
b0 %
b0 +
b100 Z
b0 [
#10680000
0'
#10690000
1'
b1 [
#10700000
0'
#10710000
1'
b10 [
#10720000
0'
#10730000
1'
b11 [
#10740000
0'
#10750000
1'
b11 %
b11 +
b101 Z
b0 [
#10760000
0'
#10770000
1'
b1 [
#10780000
0'
#10790000
1'
b10 [
#10800000
0'
#10810000
1'
b11 [
#10820000
0'
#10830000
1'
b110 Z
b0 [
#10840000
0'
#10850000
1'
b1 [
#10860000
0'
#10870000
1'
b10 [
#10880000
0'
#10890000
1'
b11 [
#10900000
0'
#10910000
1'
b111 Z
b0 [
#10920000
0'
#10930000
1'
b1 [
#10940000
0'
#10950000
1'
b10 [
#10960000
0'
#10970000
1'
b11 [
#10980000
0'
#10990000
1'
b1000 Z
b0 [
#11000000
0'
#11010000
1'
b1 [
#11020000
0'
#11030000
1'
b10 [
#11040000
0'
#11050000
1'
b11 [
#11060000
0'
#11070000
1'
b1001 Z
b0 [
#11080000
0'
#11090000
1'
b1 [
#11100000
0'
#11110000
1'
b10 [
#11120000
0'
#11130000
1'
b11 [
#11140000
0'
#11150000
1'
b1010 Z
b0 [
#11160000
0'
#11170000
1'
b1 [
#11180000
0'
#11190000
1'
b10 [
#11200000
0'
#11210000
1'
b11 [
#11220000
0'
#11230000
1'
b1011 Z
b0 [
#11240000
0'
#11250000
1'
b1 [
#11260000
0'
#11270000
1'
b10 [
#11280000
0'
#11290000
1'
b11 [
#11300000
0'
#11310000
1'
b1100 Z
b0 [
#11320000
0'
#11330000
1'
b1 [
#11340000
0'
#11350000
1'
b10 [
#11360000
0'
#11370000
1'
b11 [
