matrix_load_comp.vcd
$date
	Wed Dec 14 02:50:25 2022
$end
$version
	Icarus Verilog
$end
$timescale
	1ps
$end
$scope module matrix_load_comp_tb $end
$var wire 1 ! valid_rows $end
$var wire 1 " valid_request $end
$var wire 1 # valid_data_out $end
$var wire 5 $ requested_b_col [4:0] $end
$var wire 5 % requested_a_row [4:0] $end
$var wire 8 & output_element [7:0] $end
$var wire 1 ' done $end
$var wire 2 ( dibit [1:0] $end
$var wire 1 ) complete $end
$var wire 256 * b_col_out [255:0] $end
$var wire 5 + b_addr_out [4:0] $end
$var wire 1 , alg_val $end
$var wire 5 - alg_row [4:0] $end
$var wire 5 . alg_col [4:0] $end
$var wire 256 / a_row_out [255:0] $end
$var wire 5 0 a_addr_out [4:0] $end
$var reg 2 1 axiid [1:0] $end
$var reg 1 2 axiiv $end
$var reg 1 3 clk $end
$var reg 1 4 data_request $end
$var reg 1 5 rst $end
$scope module test_comp $end
$var wire 1 4 data_request $end
$var wire 1 3 eth_refclk $end
$var wire 1 3 inter_refclk $end
$var wire 1 5 rst $end
$var wire 1 , valid_data_in $end
$var wire 5 6 row_addr [4:0] $end
$var wire 8 7 matrix_element [7:0] $end
$var wire 8 8 doutb [7:0] $end
$var wire 5 9 col_addr [4:0] $end
$var reg 10 : addra [9:0] $end
$var reg 10 ; addrb [9:0] $end
$var reg 1 < bram_rst $end
$var reg 1024 = bram_tracker [1023:0] $end
$var reg 2 > dibit [1:0] $end
$var reg 8 ? dina [7:0] $end
$var reg 1 @ downtime $end
$var reg 2 A element_counter [1:0] $end
$var reg 1 B enb $end
$var reg 1 C loading $end
$var reg 1 D old $end
$var reg 1 E regceb $end
$var reg 1 F transmit $end
$var reg 1 # valid_data_out $end
$var reg 1 G waiting $end
$var reg 1 H wea $end
$scope module matrix_output $end
$var wire 10 I addra [9:0] $end
$var wire 10 J addrb [9:0] $end
$var wire 1 3 clka $end
$var wire 1 3 clkb $end
$var wire 8 K dina [7:0] $end
$var wire 1 B enb $end
$var wire 1 E regceb $end
$var wire 1 < rstb $end
$var wire 1 H wea $end
$var wire 8 L doutb [7:0] $end
$var reg 8 M ram_data [7:0] $end
$scope function clogb2 $end
$var integer 32 N depth [31:0] $end
$upscope $end
$scope begin init_bram_to_zero $end
$var integer 32 O ram_index [31:0] $end
$upscope $end
$scope begin output_register $end
$var reg 8 P doutb_reg [7:0] $end
$upscope $end
$upscope $end
$upscope $end
$scope module test_dummy $end
$var wire 1 3 clk_in $end
$var wire 1 5 rst_in $end
$var wire 1 ! val_rows $end
$var wire 5 Q row_in [4:0] $end
$var wire 256 R matB_col [255:0] $end
$var wire 256 S matA_row [255:0] $end
$var wire 1 ) complete $end
$var wire 5 T col_in [4:0] $end
$var reg 5 U col_out [4:0] $end
$var reg 5 V col_req [4:0] $end
$var reg 1 W complete_old $end
$var reg 2 X control_state [1:0] $end
$var reg 1 ' done $end
$var reg 8 Y matrix_val [7:0] $end
$var reg 1 " new_request $end
$var reg 5 Z row_out [4:0] $end
$var reg 5 [ row_req [4:0] $end
$var reg 1 , valid_out $end
$upscope $end
$scope module uut $end
$var wire 2 \ axiid [1:0] $end
$var wire 1 2 axiiv $end
$var wire 1 3 eth_refclk $end
$var wire 1 3 inter_refclk $end
$var wire 5 ] requested_a_row [4:0] $end
$var wire 5 ^ requested_b_col [4:0] $end
$var wire 1 5 rst $end
$var wire 1 " valid_request $end
$var wire 256 _ B_dout [255:0] $end
$var wire 256 ` A_dout [255:0] $end
$var reg 1 a A $end
$var reg 10 b A_addr_buffer [9:0] $end
$var reg 5 c A_addra [4:0] $end
$var reg 5 d A_addrb [4:0] $end
$var reg 256 e A_dina [255:0] $end
$var reg 1 f A_enb $end
$var reg 1 g A_regceb $end
$var reg 1 h A_wea $end
$var reg 1 i B $end
$var reg 10 j B_addr_buffer [9:0] $end
$var reg 5 k B_addra [4:0] $end
$var reg 5 l B_addrb [4:0] $end
$var reg 256 m B_dina [255:0] $end
$var reg 1 n B_enb $end
$var reg 1 o B_regceb $end
$var reg 1 p B_wea $end
$var reg 5 q a_addr_out [4:0] $end
$var reg 256 r a_row_out [255:0] $end
$var reg 5 s b_addr_out [4:0] $end
$var reg 256 t b_col_out [255:0] $end
$var reg 1 u bad $end
$var reg 1 v bram_rst $end
$var reg 1 ) complete $end
$var reg 1 w downtime $end
$var reg 6 x element_buffer [5:0] $end
$var reg 2 y element_counter [1:0] $end
$var reg 1 z loading $end
$var reg 10 { matrix_counter [9:0] $end
$var reg 256 | row_buffer [255:0] $end
$var reg 1 } transmitting $end
$var reg 2 ~ valid_data_buffer [1:0] $end
$var reg 1 ! valid_out $end
$scope module Matrix_A_BRAM $end
$var wire 5 !" addra [4:0] $end
$var wire 5 "" addrb [4:0] $end
$var wire 1 3 clka $end
$var wire 1 3 clkb $end
$var wire 256 #" dina [255:0] $end
$var wire 1 f enb $end
$var wire 1 g regceb $end
$var wire 1 5 rstb $end
$var wire 1 h wea $end
$var wire 256 $" doutb [255:0] $end
$var reg 256 %" ram_data [255:0] $end
$scope function clogb2 $end
$var integer 32 &" depth [31:0] $end
$upscope $end
$scope begin init_bram_to_zero $end
$var integer 32 '" ram_index [31:0] $end
$upscope $end
$scope begin output_register $end
$var reg 256 (" doutb_reg [255:0] $end
$upscope $end
$upscope $end
$scope module Matrix_B_BRAM $end
$var wire 5 )" addra [4:0] $end
$var wire 5 *" addrb [4:0] $end
$var wire 1 3 clka $end
$var wire 1 3 clkb $end
$var wire 256 +" dina [255:0] $end
$var wire 1 n enb $end
$var wire 1 o regceb $end
$var wire 1 5 rstb $end
$var wire 1 p wea $end
$var wire 256 ," doutb [255:0] $end
$var reg 256 -" ram_data [255:0] $end
$scope function clogb2 $end
$var integer 32 ." depth [31:0] $end
$upscope $end
$scope begin init_bram_to_zero $end
$var integer 32 /" ram_index [31:0] $end
$upscope $end
$scope begin output_register $end
$var reg 256 0" doutb_reg [255:0] $end
$upscope $end
$upscope $end
$upscope $end
$scope begin $ivl_for_loop0 $end
$var integer 32 1" i [31:0] $end
$scope begin $ivl_for_loop1 $end
$var integer 32 2" j [31:0] $end
$scope begin $ivl_for_loop2 $end
$var integer 32 3" k [31:0] $end
$upscope $end
$upscope $end
$upscope $end
$scope begin $ivl_for_loop3 $end
$var integer 32 4" a [31:0] $end
$scope begin $ivl_for_loop4 $end
$var integer 32 5" b [31:0] $end
$scope begin $ivl_for_loop5 $end
$var integer 32 6" c [31:0] $end
$upscope $end
$upscope $end
$upscope $end
$scope begin $ivl_for_loop6 $end
$var integer 32 7" t [31:0] $end
$upscope $end
$upscope $end
$enddefinitions $end
#0
$dumpvars
b0 7"
b0 6"
b0 5"
b0 4"
b0 3"
b0 2"
b0 1"
b0 0"
b100000 /"
bx ."
b0 -"
b0 ,"
bx +"
bx *"
bx )"
b0 ("
b100000 '"
bx &"
b0 %"
b0 $"
bx #"
bx ""
bx !"
bx ~
x}
bx |
bx {
xz
bx y
bx x
xw
xv
xu
bx t
bx s
bx r
bx q
xp
xo
xn
bx m
bx l
bx k
bx j
xi
xh
xg
xf
bx e
bx d
bx c
bx b
xa
b0 `
b0 _
bx ^
bx ]
bx \
bx [
bx Z
bx Y
bx X
xW
bx V
bx U
bx T
bx S
bx R
bx Q
b0 P
b10000000000 O
bx N
b0 M
b0 L
bx K
bx J
bx I
xH
xG
xF
xE
xD
xC
xB
bx A
x@
bx ?
bx >
bx =
x<
bx ;
bx :
bx 9
b0 8
bx 7
bx 6
05
x4
03
x2
bx 1
bx 0
bx /
bx .
bx -
x,
bx +
bx *
x)
bx (
x'
bx &
bx %
bx $
x#
x"
x!
$end
#10000
0<
0!
0o
0n
bx l
bx *"
0g
0f
bx d
bx ""
0#
0D
b0 ;
b0 J
0E
0B
13
#20000
03
#30000
b0 (
b0 >
b0 A
b0 =
0H
0C
1@
b0 X
0,
b0 &
b0 7
b0 Y
0'
b0 $
b0 V
b0 ^
b0 %
b0 [
b0 ]
b0 .
b0 9
b0 U
b0 -
b0 6
b0 Z
b0 l
b0 *"
b0 d
b0 ""
0)
0i
0a
b0 {
b0 y
0z
1w
1<
1v
13
15
#40000
03
#50000
0p
0h
0W
0<
xv
13
05
#60000
03
#70000
13
#80000
03
#90000
13
#100000
03
#110000
1a
b1 {
b0 |
1z
0w
13
b0 1
b0 \
12
#120000
03
#130000
b0xxxx x
b1 y
13
b1 3"
#140000
03
#150000
b0xx x
b10 y
13
b10 3"
#160000
03
#170000
b0 x
b11 y
13
b11 3"
#180000
03
#190000
b110000000000000000000000000000000000000000000000000000000000000000000000000000000000000000000000000000000000000000000000000000000000000000000000000000000000000000000000000000000000000000000000000000000000000000000000000000000000000000000000000000000 |
b10 {
b0 y
13
b11 1
b11 \
b1 2"
b0 3"
#200000
03
#210000
b110000 x
b1 y
13
b1 3"
#220000
03
#230000
b111100 x
b10 y
13
b10 3"
#240000
03
#250000
b111111 x
b11 y
13
b11 3"
#260000
03
#270000
b11111111000000000000000000000000000000000000000000000000000000000000000000000000000000000000000000000000000000000000000000000000000000000000000000000000000000000000000000000000000000000000000000000000000000000000000000000000000000000000000000000000000000 |
b11 {
b0 y
13
b10 2"
b0 3"
#280000
03
#290000
b1 y
13
b1 3"
#300000
03
#310000
b10 y
13
b10 3"
#320000
03
#330000
b11 y
13
b11 3"
#340000
03
#350000
b11111111100000000000000000000000000000000000000000000000000000000000000000000000000000000000000000000000000000000000000000000000000000000000000000000000000000000000000000000000000000000000000000000000000000000000000000000000000000000000000000000000000000 |
b100 {
b0 y
13
b11 2"
b0 3"
#360000
03
#370000
b1 y
13
b1 3"
#380000
03
#390000
b10 y
13
b10 3"
#400000
03
#410000
b11 y
13
b11 3"
#420000
03
#430000
b11111111110000000000000000000000000000000000000000000000000000000000000000000000000000000000000000000000000000000000000000000000000000000000000000000000000000000000000000000000000000000000000000000000000000000000000000000000000000000000000000000000000000 |
b101 {
b0 y
13
b100 2"
b0 3"
#440000
03
#450000
b1 y
13
b1 3"
#460000
03
#470000
b10 y
13
b10 3"
#480000
03
#490000
b11 y
13
b11 3"
#500000
03
#510000
b11111111111000000000000000000000000000000000000000000000000000000000000000000000000000000000000000000000000000000000000000000000000000000000000000000000000000000000000000000000000000000000000000000000000000000000000000000000000000000000000000000000000000 |
b110 {
b0 y
13
b101 2"
b0 3"
#520000
03
#530000
b1 y
13
b1 3"
#540000
03
#550000
b10 y
13
b10 3"
#560000
03
#570000
b11 y
13
b11 3"
#580000
03
#590000
b11111111111100000000000000000000000000000000000000000000000000000000000000000000000000000000000000000000000000000000000000000000000000000000000000000000000000000000000000000000000000000000000000000000000000000000000000000000000000000000000000000000000000 |
b111 {
b0 y
13
b110 2"
b0 3"
#600000
03
#610000
b1 y
13
b1 3"
#620000
03
#630000
b10 y
13
b10 3"
#640000
03
#650000
b11 y
13
b11 3"
#660000
03
#670000
b11111111111110000000000000000000000000000000000000000000000000000000000000000000000000000000000000000000000000000000000000000000000000000000000000000000000000000000000000000000000000000000000000000000000000000000000000000000000000000000000000000000000000 |
b1000 {
b0 y
13
b111 2"
b0 3"
#680000
03
#690000
b1 y
13
b1 3"
#700000
03
#710000
b10 y
13
b10 3"
#720000
03
#730000
b11 y
13
b11 3"
#740000
03
#750000
b11111111111111000000000000000000000000000000000000000000000000000000000000000000000000000000000000000000000000000000000000000000000000000000000000000000000000000000000000000000000000000000000000000000000000000000000000000000000000000000000000000000000000 |
b1001 {
b0 y
13
b1000 2"
b0 3"
#760000
03
#770000
b1 y
13
b1 3"
#780000
03
#790000
b10 y
13
b10 3"
#800000
03
#810000
b11 y
13
b11 3"
#820000
03
#830000
b11111111111111100000000000000000000000000000000000000000000000000000000000000000000000000000000000000000000000000000000000000000000000000000000000000000000000000000000000000000000000000000000000000000000000000000000000000000000000000000000000000000000000 |
b1010 {
b0 y
13
b1001 2"
b0 3"
#840000
03
#850000
b1 y
13
b1 3"
#860000
03
#870000
b10 y
13
b10 3"
#880000
03
#890000
b11 y
13
b11 3"
#900000
03
#910000
b11111111111111110000000000000000000000000000000000000000000000000000000000000000000000000000000000000000000000000000000000000000000000000000000000000000000000000000000000000000000000000000000000000000000000000000000000000000000000000000000000000000000000 |
b1011 {
b0 y
13
b1010 2"
b0 3"
#920000
03
#930000
b1 y
13
b1 3"
#940000
03
#950000
b10 y
13
b10 3"
#960000
03
#970000
b11 y
13
b11 3"
#980000
03
#990000
b11111111111111111000000000000000000000000000000000000000000000000000000000000000000000000000000000000000000000000000000000000000000000000000000000000000000000000000000000000000000000000000000000000000000000000000000000000000000000000000000000000000000000 |
b1100 {
b0 y
13
b1011 2"
b0 3"
#1000000
03
#1010000
b1 y
13
b1 3"
#1020000
03
#1030000
b10 y
13
b10 3"
#1040000
03
#1050000
b11 y
13
b11 3"
#1060000
03
#1070000
b11111111111111111100000000000000000000000000000000000000000000000000000000000000000000000000000000000000000000000000000000000000000000000000000000000000000000000000000000000000000000000000000000000000000000000000000000000000000000000000000000000000000000 |
b1101 {
b0 y
13
b1100 2"
b0 3"
#1080000
03
#1090000
b1 y
13
b1 3"
#1100000
03
#1110000
b10 y
13
b10 3"
#1120000
03
#1130000
b11 y
13
b11 3"
#1140000
03
#1150000
b11111111111111111110000000000000000000000000000000000000000000000000000000000000000000000000000000000000000000000000000000000000000000000000000000000000000000000000000000000000000000000000000000000000000000000000000000000000000000000000000000000000000000 |
b1110 {
b0 y
13
b1101 2"
b0 3"
#1160000
03
#1170000
b1 y
13
b1 3"
#1180000
03
#1190000
b10 y
13
b10 3"
#1200000
03
#1210000
b11 y
13
b11 3"
#1220000
03
#1230000
b11111111111111111111000000000000000000000000000000000000000000000000000000000000000000000000000000000000000000000000000000000000000000000000000000000000000000000000000000000000000000000000000000000000000000000000000000000000000000000000000000000000000000 |
b1111 {
b0 y
13
b1110 2"
b0 3"
#1240000
03
#1250000
b1 y
13
b1 3"
#1260000
03
#1270000
b10 y
13
b10 3"
#1280000
03
#1290000
b11 y
13
b11 3"
#1300000
03
#1310000
b11111111111111111111100000000000000000000000000000000000000000000000000000000000000000000000000000000000000000000000000000000000000000000000000000000000000000000000000000000000000000000000000000000000000000000000000000000000000000000000000000000000000000 |
b10000 {
b0 y
13
b1111 2"
b0 3"
#1320000
03
#1330000
b1 y
13
b1 3"
#1340000
03
#1350000
b10 y
13
b10 3"
#1360000
03
#1370000
b11 y
13
b11 3"
#1380000
03
#1390000
b11111111111111111111110000000000000000000000000000000000000000000000000000000000000000000000000000000000000000000000000000000000000000000000000000000000000000000000000000000000000000000000000000000000000000000000000000000000000000000000000000000000000000 |
b10001 {
b0 y
13
b10000 2"
b0 3"
#1400000
03
#1410000
b1 y
13
b1 3"
#1420000
03
#1430000
b10 y
13
b10 3"
#1440000
03
#1450000
b11 y
13
b11 3"
#1460000
03
#1470000
b11111111111111111111111000000000000000000000000000000000000000000000000000000000000000000000000000000000000000000000000000000000000000000000000000000000000000000000000000000000000000000000000000000000000000000000000000000000000000000000000000000000000000 |
b10010 {
b0 y
13
b10001 2"
b0 3"
#1480000
03
#1490000
b1 y
13
b1 3"
#1500000
03
#1510000
b10 y
13
b10 3"
#1520000
03
#1530000
b11 y
13
b11 3"
#1540000
03
#1550000
b11111111111111111111111100000000000000000000000000000000000000000000000000000000000000000000000000000000000000000000000000000000000000000000000000000000000000000000000000000000000000000000000000000000000000000000000000000000000000000000000000000000000000 |
b10011 {
b0 y
13
b10010 2"
b0 3"
#1560000
03
#1570000
b1 y
13
b1 3"
#1580000
03
#1590000
b10 y
13
b10 3"
#1600000
03
#1610000
b11 y
13
b11 3"
#1620000
03
#1630000
b11111111111111111111111110000000000000000000000000000000000000000000000000000000000000000000000000000000000000000000000000000000000000000000000000000000000000000000000000000000000000000000000000000000000000000000000000000000000000000000000000000000000000 |
b10100 {
b0 y
13
b10011 2"
b0 3"
#1640000
03
#1650000
b1 y
13
b1 3"
#1660000
03
#1670000
b10 y
13
b10 3"
#1680000
03
#1690000
b11 y
13
b11 3"
#1700000
03
#1710000
b11111111111111111111111111000000000000000000000000000000000000000000000000000000000000000000000000000000000000000000000000000000000000000000000000000000000000000000000000000000000000000000000000000000000000000000000000000000000000000000000000000000000000 |
b10101 {
b0 y
13
b10100 2"
b0 3"
#1720000
03
#1730000
b1 y
13
b1 3"
#1740000
03
#1750000
b10 y
13
b10 3"
#1760000
03
#1770000
b11 y
13
b11 3"
#1780000
03
#1790000
b11111111111111111111111111100000000000000000000000000000000000000000000000000000000000000000000000000000000000000000000000000000000000000000000000000000000000000000000000000000000000000000000000000000000000000000000000000000000000000000000000000000000000 |
b10110 {
b0 y
13
b10101 2"
b0 3"
#1800000
03
#1810000
b1 y
13
b1 3"
#1820000
03
#1830000
b10 y
13
b10 3"
#1840000
03
#1850000
b11 y
13
b11 3"
#1860000
03
#1870000
b11111111111111111111111111110000000000000000000000000000000000000000000000000000000000000000000000000000000000000000000000000000000000000000000000000000000000000000000000000000000000000000000000000000000000000000000000000000000000000000000000000000000000 |
b10111 {
b0 y
13
b10110 2"
b0 3"
#1880000
03
#1890000
b1 y
13
b1 3"
#1900000
03
#1910000
b10 y
13
b10 3"
#1920000
03
#1930000
b11 y
13
b11 3"
#1940000
03
#1950000
b11111111111111111111111111111000000000000000000000000000000000000000000000000000000000000000000000000000000000000000000000000000000000000000000000000000000000000000000000000000000000000000000000000000000000000000000000000000000000000000000000000000000000 |
b11000 {
b0 y
13
b10111 2"
b0 3"
#1960000
03
#1970000
b1 y
13
b1 3"
#1980000
03
#1990000
b10 y
13
b10 3"
#2000000
03
#2010000
b11 y
13
b11 3"
#2020000
03
#2030000
b11111111111111111111111111111100000000000000000000000000000000000000000000000000000000000000000000000000000000000000000000000000000000000000000000000000000000000000000000000000000000000000000000000000000000000000000000000000000000000000000000000000000000 |
b11001 {
b0 y
13
b11000 2"
b0 3"
#2040000
03
#2050000
b1 y
13
b1 3"
#2060000
03
#2070000
b10 y
13
b10 3"
#2080000
03
#2090000
b11 y
13
b11 3"
#2100000
03
#2110000
b11111111111111111111111111111110000000000000000000000000000000000000000000000000000000000000000000000000000000000000000000000000000000000000000000000000000000000000000000000000000000000000000000000000000000000000000000000000000000000000000000000000000000 |
b11010 {
b0 y
13
b11001 2"
b0 3"
#2120000
03
#2130000
b1 y
13
b1 3"
#2140000
03
#2150000
b10 y
13
b10 3"
#2160000
03
#2170000
b11 y
13
b11 3"
#2180000
03
#2190000
b11111111111111111111111111111111000000000000000000000000000000000000000000000000000000000000000000000000000000000000000000000000000000000000000000000000000000000000000000000000000000000000000000000000000000000000000000000000000000000000000000000000000000 |
b11011 {
b0 y
13
b11010 2"
b0 3"
#2200000
03
#2210000
b1 y
13
b1 3"
#2220000
03
#2230000
b10 y
13
b10 3"
#2240000
03
#2250000
b11 y
13
b11 3"
#2260000
03
#2270000
b11111111111111111111111111111111100000000000000000000000000000000000000000000000000000000000000000000000000000000000000000000000000000000000000000000000000000000000000000000000000000000000000000000000000000000000000000000000000000000000000000000000000000 |
b11100 {
b0 y
13
b11011 2"
b0 3"
#2280000
03
#2290000
b1 y
13
b1 3"
#2300000
03
#2310000
b10 y
13
b10 3"
#2320000
03
#2330000
b11 y
13
b11 3"
#2340000
03
#2350000
b11111111111111111111111111111111110000000000000000000000000000000000000000000000000000000000000000000000000000000000000000000000000000000000000000000000000000000000000000000000000000000000000000000000000000000000000000000000000000000000000000000000000000 |
b11101 {
b0 y
13
b11100 2"
b0 3"
#2360000
03
#2370000
b1 y
13
b1 3"
#2380000
03
#2390000
b10 y
13
b10 3"
#2400000
03
#2410000
b11 y
13
b11 3"
#2420000
03
#2430000
b11111111111111111111111111111111111000000000000000000000000000000000000000000000000000000000000000000000000000000000000000000000000000000000000000000000000000000000000000000000000000000000000000000000000000000000000000000000000000000000000000000000000000 |
b11110 {
b0 y
13
b11101 2"
b0 3"
#2440000
03
#2450000
b1 y
13
b1 3"
#2460000
03
#2470000
b10 y
13
b10 3"
#2480000
03
#2490000
b11 y
13
b11 3"
#2500000
03
#2510000
b11111111111111111111111111111111111100000000000000000000000000000000000000000000000000000000000000000000000000000000000000000000000000000000000000000000000000000000000000000000000000000000000000000000000000000000000000000000000000000000000000000000000000 |
b11111 {
b0 y
13
b11110 2"
b0 3"
#2520000
03
#2530000
b1 y
13
b1 3"
#2540000
03
#2550000
b10 y
13
b10 3"
#2560000
03
#2570000
b11 y
13
b11 3"
#2580000
03
#2590000
1h
b0 c
b0 !"
b11111111111111111111111111111111111100000000000000000000000000000000000000000000000000000000000000000000000000000000000000000000000000000000000000000000000000000000000000000000000000000000000000000000000000000000000000000000000000000000000000000011111111 e
b11111111111111111111111111111111111100000000000000000000000000000000000000000000000000000000000000000000000000000000000000000000000000000000000000000000000000000000000000000000000000000000000000000000000000000000000000000000000000000000000000000011111111 #"
b100000 {
b0 y
13
b11111 2"
b0 3"
#2600000
03
#2610000
0h
b1 y
13
b1 3"
#2620000
03
#2630000
b10 y
13
b10 3"
#2640000
03
#2650000
b11 y
13
b11 3"
#2660000
03
#2670000
b1111111111111111111111111111111111111100000000000000000000000000000000000000000000000000000000000000000000000000000000000000000000000000000000000000000000000000000000000000000000000000000000000000000000000000000000000000000000000000000000000000000000000000 |
b100001 {
b0 y
13
b1 1"
b0 2"
b0 3"
#2680000
03
#2690000
b1 y
13
b1 3"
#2700000
03
#2710000
b10 y
13
b10 3"
#2720000
03
#2730000
b11 y
13
b11 3"
#2740000
03
#2750000
b1111111001111111111111111111111111111100000000000000000000000000000000000000000000000000000000000000000000000000000000000000000000000000000000000000000000000000000000000000000000000000000000000000000000000000000000000000000000000000000000000000000000000000 |
b100010 {
b0 y
13
b0 1
b0 \
b1 2"
b0 3"
#2760000
03
#2770000
b1111 x
b1 y
13
b1 3"
#2780000
03
#2790000
b11 x
b10 y
13
b10 3"
#2800000
03
#2810000
b0 x
b11 y
13
b11 3"
#2820000
03
#2830000
b1100000011111111111111111111111111111100000000000000000000000000000000000000000000000000000000000000000000000000000000000000000000000000000000000000000000000000000000000000000000000000000000000000000000000000000000000000000000000000000000000000000000000000 |
b100011 {
b0 y
13
b11 1
b11 \
b10 2"
b0 3"
#2840000
03
#2850000
b110000 x
b1 y
13
b1 3"
#2860000
03
#2870000
b111100 x
b10 y
13
b10 3"
#2880000
03
#2890000
b111111 x
b11 y
13
b11 3"
#2900000
03
#2910000
b1101111111111111111111111111111111111100000000000000000000000000000000000000000000000000000000000000000000000000000000000000000000000000000000000000000000000000000000000000000000000000000000000000000000000000000000000000000000000000000000000000000000000000 |
b100100 {
b0 y
13
b11 2"
b0 3"
#2920000
03
#2930000
b1 y
13
b1 3"
#2940000
03
#2950000
b10 y
13
b10 3"
#2960000
03
#2970000
b11 y
13
b11 3"
#2980000
03
#2990000
b100101 {
b0 y
13
b100 2"
b0 3"
#3000000
03
#3010000
b1 y
13
b1 3"
#3020000
03
#3030000
b10 y
13
b10 3"
#3040000
03
#3050000
b11 y
13
b11 3"
#3060000
03
#3070000
b100110 {
b0 y
13
b101 2"
b0 3"
#3080000
03
#3090000
b1 y
13
b1 3"
#3100000
03
#3110000
b10 y
13
b10 3"
#3120000
03
#3130000
b11 y
13
b11 3"
#3140000
03
#3150000
b100111 {
b0 y
13
b110 2"
b0 3"
#3160000
03
#3170000
b1 y
13
b1 3"
#3180000
03
#3190000
b10 y
13
b10 3"
#3200000
03
#3210000
b11 y
13
b11 3"
#3220000
03
#3230000
b101000 {
b0 y
13
b111 2"
b0 3"
#3240000
03
#3250000
b1 y
13
b1 3"
#3260000
03
#3270000
b10 y
13
b10 3"
#3280000
03
#3290000
b11 y
13
b11 3"
#3300000
03
#3310000
b101001 {
b0 y
13
b1000 2"
b0 3"
#3320000
03
#3330000
b1 y
13
b1 3"
#3340000
03
#3350000
b10 y
13
b10 3"
#3360000
03
#3370000
b11 y
13
b11 3"
#3380000
03
#3390000
b101010 {
b0 y
13
b1001 2"
b0 3"
#3400000
03
#3410000
b1 y
13
b1 3"
#3420000
03
#3430000
b10 y
13
b10 3"
#3440000
03
#3450000
b11 y
13
b11 3"
#3460000
03
#3470000
b101011 {
b0 y
13
b1010 2"
b0 3"
#3480000
03
#3490000
b1 y
13
b1 3"
#3500000
03
#3510000
b10 y
13
b10 3"
#3520000
03
#3530000
b11 y
13
b11 3"
#3540000
03
#3550000
b101100 {
b0 y
13
b1011 2"
b0 3"
#3560000
03
#3570000
b1 y
13
b1 3"
#3580000
03
#3590000
b10 y
13
b10 3"
#3600000
03
#3610000
b11 y
13
b11 3"
#3620000
03
#3630000
b101101 {
b0 y
13
b1100 2"
b0 3"
#3640000
03
#3650000
b1 y
13
b1 3"
#3660000
03
#3670000
b10 y
13
b10 3"
#3680000
03
#3690000
b11 y
13
b11 3"
#3700000
03
#3710000
b101110 {
b0 y
13
b1101 2"
b0 3"
#3720000
03
#3730000
b1 y
13
b1 3"
#3740000
03
#3750000
b10 y
13
b10 3"
#3760000
03
#3770000
b11 y
13
b11 3"
#3780000
03
#3790000
b101111 {
b0 y
13
b1110 2"
b0 3"
#3800000
03
#3810000
b1 y
13
b1 3"
#3820000
03
#3830000
b10 y
13
b10 3"
#3840000
03
#3850000
b11 y
13
b11 3"
#3860000
03
#3870000
b110000 {
b0 y
13
b1111 2"
b0 3"
#3880000
03
#3890000
b1 y
13
b1 3"
#3900000
03
#3910000
b10 y
13
b10 3"
#3920000
03
#3930000
b11 y
13
b11 3"
#3940000
03
#3950000
b110001 {
b0 y
13
b10000 2"
b0 3"
#3960000
03
#3970000
b1 y
13
b1 3"
#3980000
03
#3990000
b10 y
13
b10 3"
#4000000
03
#4010000
b11 y
13
b11 3"
#4020000
03
#4030000
b110010 {
b0 y
13
b10001 2"
b0 3"
#4040000
03
#4050000
b1 y
13
b1 3"
#4060000
03
#4070000
b10 y
13
b10 3"
#4080000
03
#4090000
b11 y
13
b11 3"
#4100000
03
#4110000
b110011 {
b0 y
13
b10010 2"
b0 3"
#4120000
03
#4130000
b1 y
13
b1 3"
#4140000
03
#4150000
b10 y
13
b10 3"
#4160000
03
#4170000
b11 y
13
b11 3"
#4180000
03
#4190000
b110100 {
b0 y
13
b10011 2"
b0 3"
#4200000
03
#4210000
b1 y
13
b1 3"
#4220000
03
#4230000
b10 y
13
b10 3"
#4240000
03
#4250000
b11 y
13
b11 3"
#4260000
03
#4270000
b110101 {
b0 y
13
b10100 2"
b0 3"
#4280000
03
#4290000
b1 y
13
b1 3"
#4300000
03
#4310000
b10 y
13
b10 3"
#4320000
03
#4330000
b11 y
13
b11 3"
#4340000
03
#4350000
b110110 {
b0 y
13
b10101 2"
b0 3"
#4360000
03
#4370000
b1 y
13
b1 3"
#4380000
03
#4390000
b10 y
13
b10 3"
#4400000
03
#4410000
b11 y
13
b11 3"
#4420000
03
#4430000
b110111 {
b0 y
13
b10110 2"
b0 3"
#4440000
03
#4450000
b1 y
13
b1 3"
#4460000
03
#4470000
b10 y
13
b10 3"
#4480000
03
#4490000
b11 y
13
b11 3"
#4500000
03
#4510000
b111000 {
b0 y
13
b10111 2"
b0 3"
#4520000
03
#4530000
b1 y
13
b1 3"
#4540000
03
#4550000
b10 y
13
b10 3"
#4560000
03
#4570000
b11 y
13
b11 3"
#4580000
03
#4590000
b111001 {
b0 y
13
b11000 2"
b0 3"
#4600000
03
#4610000
b1 y
13
b1 3"
#4620000
03
#4630000
b10 y
13
b10 3"
#4640000
03
#4650000
b11 y
13
b11 3"
#4660000
03
#4670000
b111010 {
b0 y
13
b11001 2"
b0 3"
#4680000
03
#4690000
b1 y
13
b1 3"
#4700000
03
#4710000
b10 y
13
b10 3"
#4720000
03
#4730000
b11 y
13
b11 3"
#4740000
03
#4750000
b111011 {
b0 y
13
b11010 2"
b0 3"
#4760000
03
#4770000
b1 y
13
b1 3"
#4780000
03
#4790000
b10 y
13
b10 3"
#4800000
03
#4810000
b11 y
13
b11 3"
#4820000
03
#4830000
b111100 {
b0 y
13
b11011 2"
b0 3"
#4840000
03
#4850000
b1 y
13
b1 3"
#4860000
03
#4870000
b10 y
13
b10 3"
#4880000
03
#4890000
b11 y
13
b11 3"
#4900000
03
#4910000
b111101 {
b0 y
13
b11100 2"
b0 3"
#4920000
03
#4930000
b1 y
13
b1 3"
#4940000
03
#4950000
b10 y
13
b10 3"
#4960000
03
#4970000
b11 y
13
b11 3"
#4980000
03
#4990000
b111110 {
b0 y
13
b11101 2"
b0 3"
#5000000
03
#5010000
b1 y
13
b1 3"
#5020000
03
#5030000
b10 y
13
b10 3"
#5040000
03
#5050000
b11 y
13
b11 3"
#5060000
03
#5070000
b111111 {
b0 y
13
b11110 2"
b0 3"
#5080000
03
#5090000
b1 y
13
b1 3"
#5100000
03
#5110000
b10 y
13
b10 3"
#5120000
03
#5130000
b11 y
13
b11 3"
#5140000
03
#5150000
1h
b1 c
b1 !"
b1101111111111111111111111111111111111100000000000000000000000000000000000000000000000000000000000000000000000000000000000000000000000000000000000000000000000000000000000000000000000000000000000000000000000000000000000000000000000000000000000000000011111111 e
b1101111111111111111111111111111111111100000000000000000000000000000000000000000000000000000000000000000000000000000000000000000000000000000000000000000000000000000000000000000000000000000000000000000000000000000000000000000000000000000000000000000011111111 #"
b1000000 {
b0 y
13
b11111 2"
b0 3"
#5160000
03
#5170000
0h
b1 y
13
b1 3"
#5180000
03
#5190000
b10 y
13
b10 3"
#5200000
03
#5210000
b11 y
13
b11 3"
#5220000
03
#5230000
b1111111111111111111111111111111111111100000000000000000000000000000000000000000000000000000000000000000000000000000000000000000000000000000000000000000000000000000000000000000000000000000000000000000000000000000000000000000000000000000000000000000000000000 |
b1000001 {
b0 y
13
b10 1"
b0 2"
b0 3"
#5240000
03
#5250000
b1 y
13
b1 3"
#5260000
03
#5270000
b10 y
13
b10 3"
