matrix_comp_out.vcd
$date
	Wed Dec 14 11:04:47 2022
$end
$version
	Icarus Verilog
$end
$timescale
	1ps
$end
$scope module matrix_comp_out_tb $end
$var wire 1 ! valid_data_out $end
$var wire 1 " data_request $end
$var wire 1 # compile_done $end
$var wire 8 $ byte_out [7:0] $end
$var wire 1 % axiov_eth $end
$var wire 1 & axiov_bit $end
$var wire 2 ' axiod_eth [1:0] $end
$var wire 2 ( axiod_bit [1:0] $end
$var reg 1 ) clk $end
$var reg 5 * col_addr [4:0] $end
$var reg 8 + matrix_element [7:0] $end
$var reg 5 , row_addr [4:0] $end
$var reg 1 - rst $end
$var reg 1 . valid_data_in $end
$scope module test_bitorder $end
$var wire 1 ) clk $end
$var wire 1 - rst $end
$var wire 1 ! axiiv $end
$var wire 8 / axiid [7:0] $end
$var reg 2 0 axiod [1:0] $end
$var reg 1 & axiov $end
$var reg 2 1 counter_in [1:0] $end
$var reg 1 2 downtime $end
$var reg 1 3 flipping $end
$upscope $end
$scope module test_ether $end
$var wire 176 4 HEADER [175:0] $end
$var wire 2 5 axiid [1:0] $end
$var wire 1 & axiiv $end
$var wire 1 ) clk $end
$var wire 1 6 fcs_out_valid $end
$var wire 1 - rst $end
$var wire 1 # preamble_signal $end
$var wire 32 7 fcs_out [31:0] $end
$var reg 2 8 axiod [1:0] $end
$var reg 1 % axiov $end
$var reg 1 9 crc_rst $end
$var reg 1 " data_request $end
$var reg 1 : downtime $end
$var reg 4 ; fcs_counter [3:0] $end
$var reg 32 < fcs_hold [31:0] $end
$var reg 2 = fcs_in [1:0] $end
$var reg 1 > fcs_in_valid $end
$var reg 5 ? gap_counter [4:0] $end
$var reg 7 @ header_counter [6:0] $end
$var reg 1 A transmit_data $end
$var reg 1 B transmit_fcs $end
$var reg 1 C transmit_gap $end
$var reg 1 D transmit_header $end
$scope module my_crc $end
$var wire 2 E axiid [1:0] $end
$var wire 1 > axiiv $end
$var wire 32 F axiod [31:0] $end
$var wire 1 6 axiov $end
$var wire 1 ) clk $end
$var wire 1 9 rst $end
$var reg 32 G caxiod [31:0] $end
$var reg 32 H saxiod [31:0] $end
$var integer 32 I i [31:0] $end
$upscope $end
$upscope $end
$scope module uut $end
$var wire 5 J col_addr [4:0] $end
$var wire 1 " data_request $end
$var wire 1 ) eth_refclk $end
$var wire 1 ) inter_refclk $end
$var wire 8 K matrix_element [7:0] $end
$var wire 5 L row_addr [4:0] $end
$var wire 1 - rst $end
$var wire 1 . valid_data_in $end
$var wire 8 M doutb [7:0] $end
$var reg 10 N addra [9:0] $end
$var reg 10 O addrb [9:0] $end
$var reg 1 P bram_rst $end
$var reg 1024 Q bram_tracker [1023:0] $end
$var reg 8 R byte_out [7:0] $end
$var reg 1 # compile_done $end
$var reg 3 S delay [2:0] $end
$var reg 8 T dina [7:0] $end
$var reg 1 U downtime $end
$var reg 2 V element_counter [1:0] $end
$var reg 1 W enb $end
$var reg 1 X loading $end
$var reg 1 Y old $end
$var reg 2 Z output_counter [1:0] $end
$var reg 1 [ regceb $end
$var reg 1 \ transmit $end
$var reg 1 ! valid_data_out $end
$var reg 1 ] waiting $end
$var reg 1 ^ wea $end
$scope module matrix_output $end
$var wire 10 _ addra [9:0] $end
$var wire 10 ` addrb [9:0] $end
$var wire 1 ) clka $end
$var wire 1 ) clkb $end
$var wire 8 a dina [7:0] $end
$var wire 1 W enb $end
$var wire 1 [ regceb $end
$var wire 1 P rstb $end
$var wire 1 ^ wea $end
$var wire 8 b doutb [7:0] $end
$var reg 8 c ram_data [7:0] $end
$scope function clogb2 $end
$var integer 32 d depth [31:0] $end
$upscope $end
$scope begin init_bram_to_zero $end
$var integer 32 e ram_index [31:0] $end
$upscope $end
$scope begin output_register $end
$var reg 8 f doutb_reg [7:0] $end
$upscope $end
$upscope $end
$upscope $end
$scope begin $ivl_for_loop0 $end
$var integer 32 g i [31:0] $end
$scope begin $ivl_for_loop1 $end
$var integer 32 h j [31:0] $end
$upscope $end
$upscope $end
$scope begin $ivl_for_loop2 $end
$var integer 32 i i [31:0] $end
$upscope $end
$upscope $end
$enddefinitions $end
#0
$dumpvars
b0 i
b0 h
b0 g
b0 f
b10000000000 e
bx d
b0 c
b0 b
bx a
bx `
bx _
x^
x]
x\
x[
bx Z
xY
xX
xW
bx V
xU
bx T
bx S
b0 R
bx Q
xP
bx O
bx N
b0 M
bx L
bx K
bx J
bx I
bx H
bx G
bx F
bx E
xD
xC
xB
xA
bx @
bx ?
x>
bx =
bx <
bx ;
x:
19
bx 8
bx 7
16
bx 5
b1010101010101010101010101010101010101010101010101010101010101111111111111111111111111111111111111111111111111111111111111111111111111111111111111111111111111111001000000000000 4
x3
x2
bx 1
bx 0
b0 /
x.
0-
bx ,
bx +
bx *
0)
bx (
bx '
x&
x%
b0 $
x#
x"
x!
$end
#10000
0P
b1111xx1xxx1111xx11xxxxxxxxxxxxxx H
b100000 I
b0 7
b0 F
b0 Z
0Y
b0 O
b0 `
0[
0W
0!
b11111111111111111111111111111111 G
1)
#20000
0)
#30000
b11110010101111001101100100100101 H
b100000 I
b0 =
b0 E
0>
1:
0C
0B
0A
0D
b0 ;
b0 @
b0 ?
03
12
b0 V
0#
b0 Q
0^
0X
1U
1P
1)
1-
#40000
0)
#50000
0!
0&
b0 1
0P
1)
0-
#60000
0)
#70000
0!
1)
#80000
0)
#90000
0!
1)
#100000
0)
#110000
0!
b1 Q
1^
1X
0U
1)
b0 *
b0 J
b0 ,
b0 L
b10101010 +
b10101010 K
1.
#120000
0)
#130000
b11 Q
b1 N
b1 _
b11111111 T
b11111111 a
0!
1)
b1 *
b1 J
b11111111 +
b11111111 K
b1 h
#140000
0)
#150000
0!
b111 Q
b10 N
b10 _
b10101010 T
b10101010 a
1)
b10 *
b10 J
b10101010 +
b10101010 K
b10 h
#160000
0)
#170000
b1111 Q
b11 N
b11 _
b11111111 T
b11111111 a
0!
1)
b11 *
b11 J
b11111111 +
b11111111 K
b11 h
#180000
0)
#190000
0!
b11111 Q
b100 N
b100 _
b10101010 T
b10101010 a
1)
b100 *
b100 J
b10101010 +
b10101010 K
b100 h
#200000
0)
#210000
b111111 Q
b101 N
b101 _
b11111111 T
b11111111 a
0!
1)
b101 *
b101 J
b11111111 +
b11111111 K
b101 h
#220000
0)
#230000
0!
b1111111 Q
b110 N
b110 _
b10101010 T
b10101010 a
1)
b110 *
b110 J
b10101010 +
b10101010 K
b110 h
#240000
0)
#250000
b11111111 Q
b111 N
b111 _
b11111111 T
b11111111 a
0!
1)
b111 *
b111 J
b11111111 +
b11111111 K
b111 h
#260000
0)
#270000
0!
b111111111 Q
b1000 N
b1000 _
b10101010 T
b10101010 a
1)
b1000 *
b1000 J
b10101010 +
b10101010 K
b1000 h
#280000
0)
#290000
b1111111111 Q
b1001 N
b1001 _
b11111111 T
b11111111 a
0!
1)
b1001 *
b1001 J
b11111111 +
b11111111 K
b1001 h
#300000
0)
#310000
0!
b11111111111 Q
b1010 N
b1010 _
b10101010 T
b10101010 a
1)
b1010 *
b1010 J
b10101010 +
b10101010 K
b1010 h
#320000
0)
#330000
b111111111111 Q
b1011 N
b1011 _
b11111111 T
b11111111 a
0!
1)
b1011 *
b1011 J
b11111111 +
b11111111 K
b1011 h
#340000
0)
#350000
0!
b1111111111111 Q
b1100 N
b1100 _
b10101010 T
b10101010 a
1)
b1100 *
b1100 J
b10101010 +
b10101010 K
b1100 h
#360000
0)
#370000
b11111111111111 Q
b1101 N
b1101 _
b11111111 T
b11111111 a
0!
1)
b1101 *
b1101 J
b11111111 +
b11111111 K
b1101 h
#380000
0)
#390000
0!
b111111111111111 Q
b1110 N
b1110 _
b10101010 T
b10101010 a
1)
b1110 *
b1110 J
b10101010 +
b10101010 K
b1110 h
#400000
0)
#410000
b1111111111111111 Q
b1111 N
b1111 _
b11111111 T
b11111111 a
0!
1)
b1111 *
b1111 J
b11111111 +
b11111111 K
b1111 h
#420000
0)
#430000
0!
b11111111111111111 Q
b10000 N
b10000 _
b10101010 T
b10101010 a
1)
b10000 *
b10000 J
b10101010 +
b10101010 K
b10000 h
#440000
0)
#450000
b111111111111111111 Q
b10001 N
b10001 _
b11111111 T
b11111111 a
0!
1)
b10001 *
b10001 J
b11111111 +
b11111111 K
b10001 h
#460000
0)
#470000
0!
b1111111111111111111 Q
b10010 N
b10010 _
b10101010 T
b10101010 a
1)
b10010 *
b10010 J
b10101010 +
b10101010 K
b10010 h
#480000
0)
#490000
b11111111111111111111 Q
b10011 N
b10011 _
b11111111 T
b11111111 a
0!
1)
b10011 *
b10011 J
b11111111 +
b11111111 K
b10011 h
#500000
0)
#510000
0!
b111111111111111111111 Q
b10100 N
b10100 _
b10101010 T
b10101010 a
1)
b10100 *
b10100 J
b10101010 +
b10101010 K
b10100 h
#520000
0)
#530000
b1111111111111111111111 Q
b10101 N
b10101 _
b11111111 T
b11111111 a
0!
1)
b10101 *
b10101 J
b11111111 +
b11111111 K
b10101 h
#540000
0)
#550000
0!
b11111111111111111111111 Q
b10110 N
b10110 _
b10101010 T
b10101010 a
1)
b10110 *
b10110 J
b10101010 +
b10101010 K
b10110 h
#560000
0)
#570000
b111111111111111111111111 Q
b10111 N
b10111 _
b11111111 T
b11111111 a
0!
1)
b10111 *
b10111 J
b11111111 +
b11111111 K
b10111 h
#580000
0)
#590000
0!
b1111111111111111111111111 Q
b11000 N
b11000 _
b10101010 T
b10101010 a
1)
b11000 *
b11000 J
b10101010 +
b10101010 K
b11000 h
#600000
0)
#610000
b11111111111111111111111111 Q
b11001 N
b11001 _
b11111111 T
b11111111 a
0!
1)
b11001 *
b11001 J
b11111111 +
b11111111 K
b11001 h
#620000
0)
#630000
0!
b111111111111111111111111111 Q
b11010 N
b11010 _
b10101010 T
b10101010 a
1)
b11010 *
b11010 J
b10101010 +
b10101010 K
b11010 h
#640000
0)
#650000
b1111111111111111111111111111 Q
b11011 N
b11011 _
b11111111 T
b11111111 a
0!
1)
b11011 *
b11011 J
b11111111 +
b11111111 K
b11011 h
#660000
0)
#670000
0!
b11111111111111111111111111111 Q
b11100 N
b11100 _
b10101010 T
b10101010 a
1)
b11100 *
b11100 J
b10101010 +
b10101010 K
b11100 h
#680000
0)
#690000
b111111111111111111111111111111 Q
b11101 N
b11101 _
b11111111 T
b11111111 a
0!
1)
b11101 *
b11101 J
b11111111 +
b11111111 K
b11101 h
#700000
0)
#710000
0!
b1111111111111111111111111111111 Q
b11110 N
b11110 _
b10101010 T
b10101010 a
1)
b11110 *
b11110 J
b10101010 +
b10101010 K
b11110 h
#720000
0)
#730000
b11111111111111111111111111111111 Q
b11111 N
b11111 _
b11111111 T
b11111111 a
0!
1)
b11111 *
b11111 J
b11111111 +
b11111111 K
b11111 h
#740000
0)
#750000
0!
b111111111111111111111111111111111 Q
b100000 N
b100000 _
b10101010 T
b10101010 a
1)
b0 *
b0 J
b1 ,
b1 L
b10101010 +
b10101010 K
b1 g
b0 h
#760000
0)
#770000
b1111111111111111111111111111111111 Q
b100001 N
b100001 _
b11111111 T
b11111111 a
0!
1)
b1 *
b1 J
b11111111 +
b11111111 K
b1 h
#780000
0)
#790000
0!
b11111111111111111111111111111111111 Q
b100010 N
b100010 _
b10101010 T
b10101010 a
1)
b10 *
b10 J
b10101010 +
b10101010 K
b10 h
#800000
0)
#810000
b111111111111111111111111111111111111 Q
b100011 N
b100011 _
b11111111 T
b11111111 a
0!
1)
b11 *
b11 J
b11111111 +
b11111111 K
b11 h
#820000
0)
#830000
0!
b1111111111111111111111111111111111111 Q
b100100 N
b100100 _
b10101010 T
b10101010 a
1)
b100 *
b100 J
b10101010 +
b10101010 K
b100 h
#840000
0)
#850000
b11111111111111111111111111111111111111 Q
b100101 N
b100101 _
b11111111 T
b11111111 a
0!
1)
b101 *
b101 J
b11111111 +
b11111111 K
b101 h
#860000
0)
#870000
0!
b111111111111111111111111111111111111111 Q
b100110 N
b100110 _
b10101010 T
b10101010 a
1)
b110 *
b110 J
b10101010 +
b10101010 K
b110 h
#880000
0)
#890000
b1111111111111111111111111111111111111111 Q
b100111 N
b100111 _
b11111111 T
b11111111 a
0!
1)
b111 *
b111 J
b11111111 +
b11111111 K
b111 h
#900000
0)
#910000
0!
b11111111111111111111111111111111111111111 Q
b101000 N
b101000 _
b10101010 T
b10101010 a
1)
b1000 *
b1000 J
b10101010 +
b10101010 K
b1000 h
#920000
0)
#930000
b111111111111111111111111111111111111111111 Q
b101001 N
b101001 _
b11111111 T
b11111111 a
0!
1)
b1001 *
b1001 J
b11111111 +
b11111111 K
b1001 h
#940000
0)
#950000
0!
b1111111111111111111111111111111111111111111 Q
b101010 N
b101010 _
b10101010 T
b10101010 a
1)
b1010 *
b1010 J
b10101010 +
b10101010 K
b1010 h
#960000
0)
#970000
b11111111111111111111111111111111111111111111 Q
b101011 N
b101011 _
b11111111 T
b11111111 a
0!
1)
b1011 *
b1011 J
b11111111 +
b11111111 K
b1011 h
#980000
0)
#990000
0!
b111111111111111111111111111111111111111111111 Q
b101100 N
b101100 _
b10101010 T
b10101010 a
1)
b1100 *
b1100 J
b10101010 +
b10101010 K
b1100 h
#1000000
0)
#1010000
b1111111111111111111111111111111111111111111111 Q
b101101 N
b101101 _
b11111111 T
b11111111 a
0!
1)
b1101 *
b1101 J
b11111111 +
b11111111 K
b1101 h
#1020000
0)
#1030000
0!
b11111111111111111111111111111111111111111111111 Q
b101110 N
b101110 _
b10101010 T
b10101010 a
1)
b1110 *
b1110 J
b10101010 +
b10101010 K
b1110 h
#1040000
0)
#1050000
b111111111111111111111111111111111111111111111111 Q
b101111 N
b101111 _
b11111111 T
b11111111 a
0!
1)
b1111 *
b1111 J
b11111111 +
b11111111 K
b1111 h
#1060000
0)
#1070000
0!
b1111111111111111111111111111111111111111111111111 Q
b110000 N
b110000 _
b10101010 T
b10101010 a
1)
b10000 *
b10000 J
b10101010 +
b10101010 K
b10000 h
#1080000
0)
#1090000
b11111111111111111111111111111111111111111111111111 Q
b110001 N
b110001 _
b11111111 T
b11111111 a
0!
1)
b10001 *
b10001 J
b11111111 +
b11111111 K
b10001 h
#1100000
0)
#1110000
0!
b111111111111111111111111111111111111111111111111111 Q
b110010 N
b110010 _
b10101010 T
b10101010 a
1)
b10010 *
b10010 J
b10101010 +
b10101010 K
b10010 h
#1120000
0)
#1130000
b1111111111111111111111111111111111111111111111111111 Q
b110011 N
b110011 _
b11111111 T
b11111111 a
0!
1)
b10011 *
b10011 J
b11111111 +
b11111111 K
b10011 h
#1140000
0)
#1150000
0!
b11111111111111111111111111111111111111111111111111111 Q
b110100 N
b110100 _
b10101010 T
b10101010 a
1)
b10100 *
b10100 J
b10101010 +
b10101010 K
b10100 h
#1160000
0)
#1170000
b111111111111111111111111111111111111111111111111111111 Q
b110101 N
b110101 _
b11111111 T
b11111111 a
0!
1)
b10101 *
b10101 J
b11111111 +
b11111111 K
b10101 h
#1180000
0)
#1190000
0!
b1111111111111111111111111111111111111111111111111111111 Q
b110110 N
b110110 _
b10101010 T
b10101010 a
1)
b10110 *
b10110 J
b10101010 +
b10101010 K
b10110 h
#1200000
0)
#1210000
b11111111111111111111111111111111111111111111111111111111 Q
b110111 N
b110111 _
b11111111 T
b11111111 a
0!
1)
b10111 *
b10111 J
b11111111 +
b11111111 K
b10111 h
#1220000
0)
#1230000
0!
b111111111111111111111111111111111111111111111111111111111 Q
b111000 N
b111000 _
b10101010 T
b10101010 a
1)
b11000 *
b11000 J
b10101010 +
b10101010 K
b11000 h
#1240000
0)
#1250000
b1111111111111111111111111111111111111111111111111111111111 Q
b111001 N
b111001 _
b11111111 T
b11111111 a
0!
1)
b11001 *
b11001 J
b11111111 +
b11111111 K
b11001 h
#1260000
0)
#1270000
0!
b11111111111111111111111111111111111111111111111111111111111 Q
b111010 N
b111010 _
b10101010 T
b10101010 a
1)
b11010 *
b11010 J
b10101010 +
b10101010 K
b11010 h
#1280000
0)
#1290000
b111111111111111111111111111111111111111111111111111111111111 Q
b111011 N
b111011 _
b11111111 T
b11111111 a
0!
1)
b11011 *
b11011 J
b11111111 +
b11111111 K
b11011 h
#1300000
0)
#1310000
0!
b1111111111111111111111111111111111111111111111111111111111111 Q
b111100 N
b111100 _
b10101010 T
b10101010 a
1)
b11100 *
b11100 J
b10101010 +
b10101010 K
b11100 h
#1320000
0)
#1330000
b11111111111111111111111111111111111111111111111111111111111111 Q
b111101 N
b111101 _
b11111111 T
b11111111 a
0!
1)
b11101 *
b11101 J
b11111111 +
b11111111 K
b11101 h
#1340000
0)
#1350000
0!
b111111111111111111111111111111111111111111111111111111111111111 Q
b111110 N
b111110 _
b10101010 T
b10101010 a
1)
b11110 *
b11110 J
b10101010 +
b10101010 K
b11110 h
#1360000
0)
#1370000
b1111111111111111111111111111111111111111111111111111111111111111 Q
b111111 N
b111111 _
b11111111 T
b11111111 a
0!
1)
b11111 *
b11111 J
b11111111 +
b11111111 K
b11111 h
#1380000
0)
#1390000
0!
b11111111111111111111111111111111111111111111111111111111111111111 Q
b1000000 N
b1000000 _
b10101010 T
b10101010 a
1)
b0 *
b0 J
b10 ,
b10 L
b10101010 +
b10101010 K
b10 g
b0 h
#1400000
0)
#1410000
b111111111111111111111111111111111111111111111111111111111111111111 Q
b1000001 N
b1000001 _
b11111111 T
b11111111 a
0!
1)
b1 *
b1 J
b11111111 +
b11111111 K
b1 h
#1420000
0)
#1430000
0!
b1111111111111111111111111111111111111111111111111111111111111111111 Q
b1000010 N
b1000010 _
b10101010 T
b10101010 a
1)
b10 *
b10 J
b10101010 +
b10101010 K
b10 h
#1440000
0)
#1450000
b11111111111111111111111111111111111111111111111111111111111111111111 Q
b1000011 N
b1000011 _
b11111111 T
b11111111 a
0!
1)
b11 *
b11 J
b11111111 +
b11111111 K
b11 h
#1460000
0)
#1470000
0!
b111111111111111111111111111111111111111111111111111111111111111111111 Q
b1000100 N
b1000100 _
b10101010 T
b10101010 a
1)
b100 *
b100 J
b10101010 +
b10101010 K
b100 h
#1480000
0)
#1490000
b1111111111111111111111111111111111111111111111111111111111111111111111 Q
b1000101 N
b1000101 _
b11111111 T
b11111111 a
0!
1)
b101 *
b101 J
b11111111 +
b11111111 K
b101 h
#1500000
0)
#1510000
0!
b11111111111111111111111111111111111111111111111111111111111111111111111 Q
b1000110 N
b1000110 _
b10101010 T
b10101010 a
1)
b110 *
b110 J
b10101010 +
b10101010 K
b110 h
#1520000
0)
#1530000
b111111111111111111111111111111111111111111111111111111111111111111111111 Q
b1000111 N
b1000111 _
b11111111 T
b11111111 a
0!
1)
b111 *
b111 J
b11111111 +
b11111111 K
b111 h
#1540000
0)
#1550000
0!
b1111111111111111111111111111111111111111111111111111111111111111111111111 Q
b1001000 N
b1001000 _
b10101010 T
b10101010 a
1)
b1000 *
b1000 J
b10101010 +
b10101010 K
b1000 h
#1560000
0)
#1570000
b11111111111111111111111111111111111111111111111111111111111111111111111111 Q
b1001001 N
b1001001 _
b11111111 T
b11111111 a
0!
1)
b1001 *
b1001 J
b11111111 +
b11111111 K
b1001 h
#1580000
0)
#1590000
0!
b111111111111111111111111111111111111111111111111111111111111111111111111111 Q
b1001010 N
b1001010 _
b10101010 T
b10101010 a
1)
b1010 *
b1010 J
b10101010 +
b10101010 K
b1010 h
#1600000
0)
#1610000
b1111111111111111111111111111111111111111111111111111111111111111111111111111 Q
b1001011 N
b1001011 _
b11111111 T
b11111111 a
0!
1)
b1011 *
b1011 J
b11111111 +
b11111111 K
b1011 h
#1620000
0)
#1630000
0!
b11111111111111111111111111111111111111111111111111111111111111111111111111111 Q
b1001100 N
b1001100 _
b10101010 T
b10101010 a
1)
b1100 *
b1100 J
b10101010 +
b10101010 K
b1100 h
#1640000
0)
#1650000
b111111111111111111111111111111111111111111111111111111111111111111111111111111 Q
b1001101 N
b1001101 _
b11111111 T
b11111111 a
0!
1)
b1101 *
b1101 J
b11111111 +
b11111111 K
b1101 h
#1660000
0)
#1670000
0!
b1111111111111111111111111111111111111111111111111111111111111111111111111111111 Q
b1001110 N
b1001110 _
b10101010 T
b10101010 a
1)
b1110 *
b1110 J
b10101010 +
b10101010 K
b1110 h
#1680000
0)
#1690000
b11111111111111111111111111111111111111111111111111111111111111111111111111111111 Q
b1001111 N
b1001111 _
b11111111 T
b11111111 a
0!
1)
b1111 *
b1111 J
b11111111 +
b11111111 K
b1111 h
#1700000
0)
#1710000
0!
b111111111111111111111111111111111111111111111111111111111111111111111111111111111 Q
b1010000 N
b1010000 _
b10101010 T
b10101010 a
1)
b10000 *
b10000 J
b10101010 +
b10101010 K
b10000 h
#1720000
0)
#1730000
b1111111111111111111111111111111111111111111111111111111111111111111111111111111111 Q
b1010001 N
b1010001 _
b11111111 T
b11111111 a
0!
1)
b10001 *
b10001 J
b11111111 +
b11111111 K
b10001 h
#1740000
0)
#1750000
0!
b11111111111111111111111111111111111111111111111111111111111111111111111111111111111 Q
b1010010 N
b1010010 _
b10101010 T
b10101010 a
1)
b10010 *
b10010 J
b10101010 +
b10101010 K
b10010 h
#1760000
0)
#1770000
b111111111111111111111111111111111111111111111111111111111111111111111111111111111111 Q
b1010011 N
b1010011 _
b11111111 T
b11111111 a
0!
1)
b10011 *
b10011 J
b11111111 +
b11111111 K
b10011 h
#1780000
0)
#1790000
0!
b1111111111111111111111111111111111111111111111111111111111111111111111111111111111111 Q
b1010100 N
b1010100 _
b10101010 T
b10101010 a
1)
b10100 *
b10100 J
b10101010 +
b10101010 K
b10100 h
#1800000
0)
#1810000
b11111111111111111111111111111111111111111111111111111111111111111111111111111111111111 Q
b1010101 N
b1010101 _
b11111111 T
b11111111 a
0!
1)
b10101 *
b10101 J
b11111111 +
b11111111 K
b10101 h
#1820000
0)
#1830000
0!
b111111111111111111111111111111111111111111111111111111111111111111111111111111111111111 Q
b1010110 N
b1010110 _
b10101010 T
b10101010 a
1)
b10110 *
b10110 J
b10101010 +
b10101010 K
b10110 h
#1840000
0)
#1850000
b1111111111111111111111111111111111111111111111111111111111111111111111111111111111111111 Q
b1010111 N
b1010111 _
b11111111 T
b11111111 a
0!
1)
b10111 *
b10111 J
b11111111 +
b11111111 K
b10111 h
#1860000
0)
#1870000
0!
b11111111111111111111111111111111111111111111111111111111111111111111111111111111111111111 Q
b1011000 N
b1011000 _
b10101010 T
b10101010 a
1)
b11000 *
b11000 J
b10101010 +
b10101010 K
b11000 h
#1880000
0)
#1890000
b111111111111111111111111111111111111111111111111111111111111111111111111111111111111111111 Q
b1011001 N
b1011001 _
b11111111 T
b11111111 a
0!
1)
b11001 *
b11001 J
b11111111 +
b11111111 K
b11001 h
#1900000
0)
#1910000
0!
b1111111111111111111111111111111111111111111111111111111111111111111111111111111111111111111 Q
b1011010 N
b1011010 _
b10101010 T
b10101010 a
1)
b11010 *
b11010 J
b10101010 +
b10101010 K
b11010 h
#1920000
0)
#1930000
b11111111111111111111111111111111111111111111111111111111111111111111111111111111111111111111 Q
b1011011 N
b1011011 _
b11111111 T
b11111111 a
0!
1)
b11011 *
b11011 J
b11111111 +
b11111111 K
b11011 h
#1940000
0)
#1950000
0!
b111111111111111111111111111111111111111111111111111111111111111111111111111111111111111111111 Q
b1011100 N
b1011100 _
b10101010 T
b10101010 a
1)
b11100 *
b11100 J
b10101010 +
b10101010 K
b11100 h
#1960000
0)
#1970000
b1111111111111111111111111111111111111111111111111111111111111111111111111111111111111111111111 Q
b1011101 N
b1011101 _
b11111111 T
b11111111 a
0!
1)
b11101 *
b11101 J
b11111111 +
b11111111 K
b11101 h
#1980000
0)
#1990000
0!
b11111111111111111111111111111111111111111111111111111111111111111111111111111111111111111111111 Q
b1011110 N
b1011110 _
b10101010 T
b10101010 a
1)
b11110 *
b11110 J
b10101010 +
b10101010 K
b11110 h
#2000000
0)
#2010000
b111111111111111111111111111111111111111111111111111111111111111111111111111111111111111111111111 Q
b1011111 N
b1011111 _
b11111111 T
b11111111 a
0!
1)
b11111 *
b11111 J
b11111111 +
b11111111 K
b11111 h
#2020000
0)
#2030000
0!
b1111111111111111111111111111111111111111111111111111111111111111111111111111111111111111111111111 Q
b1100000 N
b1100000 _
b10101010 T
b10101010 a
1)
b0 *
b0 J
b11 ,
b11 L
b10101010 +
b10101010 K
b11 g
b0 h
#2040000
0)
#2050000
b11111111111111111111111111111111111111111111111111111111111111111111111111111111111111111111111111 Q
b1100001 N
b1100001 _
b11111111 T
b11111111 a
0!
1)
b1 *
b1 J
b11111111 +
b11111111 K
b1 h
#2060000
0)
#2070000
0!
b111111111111111111111111111111111111111111111111111111111111111111111111111111111111111111111111111 Q
b1100010 N
b1100010 _
b10101010 T
b10101010 a
1)
b10 *
b10 J
b10101010 +
b10101010 K
b10 h
#2080000
0)
#2090000
b1111111111111111111111111111111111111111111111111111111111111111111111111111111111111111111111111111 Q
b1100011 N
b1100011 _
b11111111 T
b11111111 a
0!
1)
b11 *
b11 J
b11111111 +
b11111111 K
b11 h
#2100000
0)
#2110000
0!
b11111111111111111111111111111111111111111111111111111111111111111111111111111111111111111111111111111 Q
b1100100 N
b1100100 _
b10101010 T
b10101010 a
1)
b100 *
b100 J
b10101010 +
b10101010 K
b100 h
#2120000
0)
#2130000
b111111111111111111111111111111111111111111111111111111111111111111111111111111111111111111111111111111 Q
b1100101 N
b1100101 _
b11111111 T
b11111111 a
0!
1)
b101 *
b101 J
b11111111 +
b11111111 K
b101 h
#2140000
0)
#2150000
0!
b1111111111111111111111111111111111111111111111111111111111111111111111111111111111111111111111111111111 Q
b1100110 N
b1100110 _
b10101010 T
b10101010 a
1)
b110 *
b110 J
b10101010 +
b10101010 K
b110 h
#2160000
0)
#2170000
b11111111111111111111111111111111111111111111111111111111111111111111111111111111111111111111111111111111 Q
b1100111 N
b1100111 _
b11111111 T
b11111111 a
0!
1)
b111 *
b111 J
b11111111 +
b11111111 K
b111 h
#2180000
0)
#2190000
0!
b111111111111111111111111111111111111111111111111111111111111111111111111111111111111111111111111111111111 Q
b1101000 N
b1101000 _
b10101010 T
b10101010 a
1)
b1000 *
b1000 J
b10101010 +
b10101010 K
b1000 h
#2200000
0)
#2210000
b1111111111111111111111111111111111111111111111111111111111111111111111111111111111111111111111111111111111 Q
b1101001 N
b1101001 _
b11111111 T
b11111111 a
0!
1)
b1001 *
b1001 J
b11111111 +
b11111111 K
b1001 h
#2220000
0)
#2230000
0!
b11111111111111111111111111111111111111111111111111111111111111111111111111111111111111111111111111111111111 Q
b1101010 N
b1101010 _
b10101010 T
b10101010 a
1)
b1010 *
b1010 J
b10101010 +
b10101010 K
b1010 h
#2240000
0)
#2250000
b111111111111111111111111111111111111111111111111111111111111111111111111111111111111111111111111111111111111 Q
b1101011 N
b1101011 _
b11111111 T
b11111111 a
0!
1)
b1011 *
b1011 J
b11111111 +
b11111111 K
b1011 h
#2260000
0)
#2270000
0!
b1111111111111111111111111111111111111111111111111111111111111111111111111111111111111111111111111111111111111 Q
b1101100 N
b1101100 _
b10101010 T
b10101010 a
1)
b1100 *
b1100 J
b10101010 +
b10101010 K
b1100 h
#2280000
0)
#2290000
b11111111111111111111111111111111111111111111111111111111111111111111111111111111111111111111111111111111111111 Q
b1101101 N
b1101101 _
b11111111 T
b11111111 a
0!
1)
b1101 *
b1101 J
b11111111 +
b11111111 K
b1101 h
#2300000
0)
#2310000
0!
b111111111111111111111111111111111111111111111111111111111111111111111111111111111111111111111111111111111111111 Q
b1101110 N
b1101110 _
b10101010 T
b10101010 a
1)
b1110 *
b1110 J
b10101010 +
b10101010 K
b1110 h
#2320000
0)
#2330000
b1111111111111111111111111111111111111111111111111111111111111111111111111111111111111111111111111111111111111111 Q
b1101111 N
b1101111 _
b11111111 T
b11111111 a
0!
1)
b1111 *
b1111 J
b11111111 +
b11111111 K
b1111 h
#2340000
0)
#2350000
0!
b11111111111111111111111111111111111111111111111111111111111111111111111111111111111111111111111111111111111111111 Q
b1110000 N
b1110000 _
b10101010 T
b10101010 a
1)
b10000 *
b10000 J
b10101010 +
b10101010 K
b10000 h
#2360000
0)
#2370000
b111111111111111111111111111111111111111111111111111111111111111111111111111111111111111111111111111111111111111111 Q
b1110001 N
b1110001 _
b11111111 T
b11111111 a
0!
1)
b10001 *
b10001 J
b11111111 +
b11111111 K
b10001 h
#2380000
0)
#2390000
0!
b1111111111111111111111111111111111111111111111111111111111111111111111111111111111111111111111111111111111111111111 Q
b1110010 N
b1110010 _
b10101010 T
b10101010 a
1)
b10010 *
b10010 J
b10101010 +
b10101010 K
b10010 h
#2400000
0)
#2410000
b11111111111111111111111111111111111111111111111111111111111111111111111111111111111111111111111111111111111111111111 Q
b1110011 N
b1110011 _
b11111111 T
b11111111 a
0!
1)
b10011 *
b10011 J
b11111111 +
b11111111 K
b10011 h
#2420000
0)
#2430000
0!
b111111111111111111111111111111111111111111111111111111111111111111111111111111111111111111111111111111111111111111111 Q
b1110100 N
b1110100 _
b10101010 T
b10101010 a
1)
b10100 *
b10100 J
b10101010 +
b10101010 K
b10100 h
#2440000
0)
#2450000
b1111111111111111111111111111111111111111111111111111111111111111111111111111111111111111111111111111111111111111111111 Q
b1110101 N
b1110101 _
b11111111 T
b11111111 a
0!
1)
b10101 *
b10101 J
b11111111 +
b11111111 K
b10101 h
#2460000
0)
#2470000
0!
b11111111111111111111111111111111111111111111111111111111111111111111111111111111111111111111111111111111111111111111111 Q
b1110110 N
b1110110 _
b10101010 T
b10101010 a
1)
b10110 *
b10110 J
b10101010 +
b10101010 K
b10110 h
#2480000
0)
#2490000
b111111111111111111111111111111111111111111111111111111111111111111111111111111111111111111111111111111111111111111111111 Q
b1110111 N
b1110111 _
b11111111 T
b11111111 a
0!
1)
b10111 *
b10111 J
b11111111 +
b11111111 K
b10111 h
#2500000
0)
