matrix_load_comp.vcd
$date
	Wed Dec 14 03:22:27 2022
$end
$version
	Icarus Verilog
$end
$timescale
	1ps
$end
$scope module matrix_load_comp_tb $end
$var wire 1 ! valid_rows $end
$var wire 1 " valid_request $end
$var wire 1 # valid_data_out $end
$var wire 5 $ requested_b_col [4:0] $end
$var wire 5 % requested_a_row [4:0] $end
$var wire 8 & output_element [7:0] $end
$var wire 1 ' done $end
$var wire 2 ( dibit [1:0] $end
$var wire 1 ) complete $end
$var wire 256 * b_col_out [255:0] $end
$var wire 5 + b_addr_out [4:0] $end
$var wire 1 , alg_val $end
$var wire 5 - alg_row [4:0] $end
$var wire 5 . alg_col [4:0] $end
$var wire 256 / a_row_out [255:0] $end
$var wire 5 0 a_addr_out [4:0] $end
$var reg 2 1 axiid [1:0] $end
$var reg 1 2 axiiv $end
$var reg 1 3 clk $end
$var reg 1 4 data_request $end
$var reg 1 5 rst $end
$scope module test_comp $end
$var wire 1 4 data_request $end
$var wire 1 3 eth_refclk $end
$var wire 1 3 inter_refclk $end
$var wire 1 5 rst $end
$var wire 1 , valid_data_in $end
$var wire 5 6 row_addr [4:0] $end
$var wire 8 7 matrix_element [7:0] $end
$var wire 8 8 doutb [7:0] $end
$var wire 5 9 col_addr [4:0] $end
$var reg 10 : addra [9:0] $end
$var reg 10 ; addrb [9:0] $end
$var reg 1 < bram_rst $end
$var reg 1024 = bram_tracker [1023:0] $end
$var reg 2 > dibit [1:0] $end
$var reg 8 ? dina [7:0] $end
$var reg 1 @ downtime $end
$var reg 2 A element_counter [1:0] $end
$var reg 1 B enb $end
$var reg 1 C loading $end
$var reg 1 D old $end
$var reg 1 E regceb $end
$var reg 1 F transmit $end
$var reg 1 # valid_data_out $end
$var reg 1 G waiting $end
$var reg 1 H wea $end
$scope module matrix_output $end
$var wire 10 I addra [9:0] $end
$var wire 10 J addrb [9:0] $end
$var wire 1 3 clka $end
$var wire 1 3 clkb $end
$var wire 8 K dina [7:0] $end
$var wire 1 B enb $end
$var wire 1 E regceb $end
$var wire 1 < rstb $end
$var wire 1 H wea $end
$var wire 8 L doutb [7:0] $end
$var reg 8 M ram_data [7:0] $end
$scope function clogb2 $end
$var integer 32 N depth [31:0] $end
$upscope $end
$scope begin init_bram_to_zero $end
$var integer 32 O ram_index [31:0] $end
$upscope $end
$scope begin output_register $end
$var reg 8 P doutb_reg [7:0] $end
$upscope $end
$upscope $end
$upscope $end
$scope module test_iter $end
$var wire 1 3 clk_in $end
$var wire 1 5 rst_in $end
$var wire 1 ! val_rows $end
$var wire 1 Q val_out $end
$var wire 5 R row_in [4:0] $end
$var wire 256 S matB_col [255:0] $end
$var wire 256 T matA_row [255:0] $end
$var wire 8 U element_out [7:0] $end
$var wire 1 ) complete $end
$var wire 5 V col_in [4:0] $end
$var reg 5 W addr_col [4:0] $end
$var reg 5 X addr_row [4:0] $end
$var reg 5 Y col_out [4:0] $end
$var reg 5 Z col_req [4:0] $end
$var reg 256 [ col_store [255:0] $end
$var reg 1 \ complete_old $end
$var reg 1 ] compute_val $end
$var reg 2 ^ control_state [1:0] $end
$var reg 1 ' done $end
$var reg 8 _ matrix_val [7:0] $end
$var reg 1 " new_request $end
$var reg 5 ` row_out [4:0] $end
$var reg 5 a row_req [4:0] $end
$var reg 256 b row_store [255:0] $end
$var reg 1 , valid_out $end
$scope module dot_prod $end
$var wire 1 ] axiiv $end
$var wire 1 3 clk $end
$var wire 256 c col2 [255:0] $end
$var wire 256 d row1 [255:0] $end
$var wire 1 5 rst $end
$var wire 8 e axiod [7:0] $end
$var reg 1 Q axiov $end
$var reg 256 f col_buff [255:0] $end
$var reg 6 g count [5:0] $end
$var reg 2 h iter_state [1:0] $end
$var reg 256 i prods [255:0] $end
$var reg 256 j row_buff [255:0] $end
$var reg 256 k sums [255:0] $end
$scope begin $ivl_for_loop7 $end
$var integer 32 l i [31:0] $end
$upscope $end
$scope begin $ivl_for_loop8 $end
$var integer 32 m j [31:0] $end
$upscope $end
$upscope $end
$upscope $end
$scope module uut $end
$var wire 2 n axiid [1:0] $end
$var wire 1 2 axiiv $end
$var wire 1 3 eth_refclk $end
$var wire 1 3 inter_refclk $end
$var wire 5 o requested_a_row [4:0] $end
$var wire 5 p requested_b_col [4:0] $end
$var wire 1 5 rst $end
$var wire 1 " valid_request $end
$var wire 256 q B_dout [255:0] $end
$var wire 256 r A_dout [255:0] $end
$var reg 1 s A $end
$var reg 10 t A_addr_buffer [9:0] $end
$var reg 5 u A_addra [4:0] $end
$var reg 5 v A_addrb [4:0] $end
$var reg 256 w A_dina [255:0] $end
$var reg 1 x A_enb $end
$var reg 1 y A_regceb $end
$var reg 1 z A_wea $end
$var reg 1 { B $end
$var reg 10 | B_addr_buffer [9:0] $end
$var reg 5 } B_addra [4:0] $end
$var reg 5 ~ B_addrb [4:0] $end
$var reg 256 !" B_dina [255:0] $end
$var reg 1 "" B_enb $end
$var reg 1 #" B_regceb $end
$var reg 1 $" B_wea $end
$var reg 5 %" a_addr_out [4:0] $end
$var reg 256 &" a_row_out [255:0] $end
$var reg 5 '" b_addr_out [4:0] $end
$var reg 256 (" b_col_out [255:0] $end
$var reg 1 )" bad $end
$var reg 1 *" bram_rst $end
$var reg 1 ) complete $end
$var reg 1 +" downtime $end
$var reg 6 ," element_buffer [5:0] $end
$var reg 2 -" element_counter [1:0] $end
$var reg 1 ." loading $end
$var reg 10 /" matrix_counter [9:0] $end
$var reg 256 0" row_buffer [255:0] $end
$var reg 1 1" transmitting $end
$var reg 2 2" valid_data_buffer [1:0] $end
$var reg 1 ! valid_out $end
$scope module Matrix_A_BRAM $end
$var wire 5 3" addra [4:0] $end
$var wire 5 4" addrb [4:0] $end
$var wire 1 3 clka $end
$var wire 1 3 clkb $end
$var wire 256 5" dina [255:0] $end
$var wire 1 x enb $end
$var wire 1 y regceb $end
$var wire 1 5 rstb $end
$var wire 1 z wea $end
$var wire 256 6" doutb [255:0] $end
$var reg 256 7" ram_data [255:0] $end
$scope function clogb2 $end
$var integer 32 8" depth [31:0] $end
$upscope $end
$scope begin init_bram_to_zero $end
$var integer 32 9" ram_index [31:0] $end
$upscope $end
$scope begin output_register $end
$var reg 256 :" doutb_reg [255:0] $end
$upscope $end
$upscope $end
$scope module Matrix_B_BRAM $end
$var wire 5 ;" addra [4:0] $end
$var wire 5 <" addrb [4:0] $end
$var wire 1 3 clka $end
$var wire 1 3 clkb $end
$var wire 256 =" dina [255:0] $end
$var wire 1 "" enb $end
$var wire 1 #" regceb $end
$var wire 1 5 rstb $end
$var wire 1 $" wea $end
$var wire 256 >" doutb [255:0] $end
$var reg 256 ?" ram_data [255:0] $end
$scope function clogb2 $end
$var integer 32 @" depth [31:0] $end
$upscope $end
$scope begin init_bram_to_zero $end
$var integer 32 A" ram_index [31:0] $end
$upscope $end
$scope begin output_register $end
$var reg 256 B" doutb_reg [255:0] $end
$upscope $end
$upscope $end
$upscope $end
$scope begin $ivl_for_loop0 $end
$var integer 32 C" i [31:0] $end
$scope begin $ivl_for_loop1 $end
$var integer 32 D" j [31:0] $end
$scope begin $ivl_for_loop2 $end
$var integer 32 E" k [31:0] $end
$upscope $end
$upscope $end
$upscope $end
$scope begin $ivl_for_loop3 $end
$var integer 32 F" a [31:0] $end
$scope begin $ivl_for_loop4 $end
$var integer 32 G" b [31:0] $end
$scope begin $ivl_for_loop5 $end
$var integer 32 H" c [31:0] $end
$upscope $end
$upscope $end
$upscope $end
$scope begin $ivl_for_loop6 $end
$var integer 32 I" t [31:0] $end
$upscope $end
$upscope $end
$enddefinitions $end
#0
$dumpvars
b0 I"
b0 H"
b0 G"
b0 F"
b0 E"
b0 D"
b0 C"
b0 B"
b100000 A"
bx @"
b0 ?"
b0 >"
bx ="
bx <"
bx ;"
b0 :"
b100000 9"
bx 8"
b0 7"
b0 6"
bx 5"
bx 4"
bx 3"
bx 2"
x1"
bx 0"
bx /"
x."
bx -"
bx ,"
x+"
x*"
x)"
bx ("
bx '"
bx &"
bx %"
x$"
x#"
x""
bx !"
bx ~
bx }
bx |
x{
xz
xy
xx
bx w
bx v
bx u
bx t
xs
b0 r
b0 q
bx p
bx o
bx n
b0 m
b0 l
bx k
bx j
bx i
bx h
bx g
bx f
bx e
bx d
bx c
bx b
bx a
bx `
bx _
bx ^
x]
x\
bx [
bx Z
bx Y
bx X
bx W
bx V
bx U
bx T
bx S
bx R
xQ
b0 P
b10000000000 O
bx N
b0 M
b0 L
bx K
bx J
bx I
xH
xG
xF
xE
xD
xC
xB
bx A
x@
bx ?
bx >
bx =
x<
bx ;
bx :
bx 9
b0 8
bx 7
bx 6
05
x4
03
x2
bx 1
bx 0
bx /
bx .
bx -
x,
bx +
bx *
x)
bx (
x'
bx &
bx %
bx $
x#
x"
x!
$end
#10000
0<
0!
0#"
0""
bx ~
bx <"
0y
0x
bx v
bx 4"
b0 h
b0 g
0Q
0#
0D
b0 ;
b0 J
0E
0B
13
#20000
03
#30000
b0 (
b0 >
b0 A
b0 =
0H
0C
1@
b0 ^
0,
b0 &
b0 7
b0 _
0'
b0 $
b0 Z
b0 p
b0 %
b0 a
b0 o
b0 .
b0 9
b0 Y
b0 -
b0 6
b0 `
b0 W
b0 X
b0 ~
b0 <"
b0 v
b0 4"
0)
0{
0s
b0 /"
b0 -"
0."
1+"
1<
1*"
13
15
#40000
03
#50000
0$"
0z
0\
0<
x*"
13
05
#60000
03
#70000
13
#80000
03
#90000
13
#100000
03
#110000
1s
b1 /"
b1100000000000000000000000000000000000000000000000000000000000000000000000000000000000000000000000000000000000000000000000000000000000000000000000000000000000000000000000000000000000000000000000000000000000000000000000000000000000000000000000000000000000000 0"
1."
0+"
13
b11 1
b11 n
12
#120000
03
#130000
b11xxxx ,"
b1 -"
13
b1 E"
#140000
03
#150000
b1111xx ,"
b10 -"
13
b10 E"
#160000
03
#170000
b111111 ,"
b11 -"
13
b11 E"
#180000
03
#190000
b1111111110000000000000000000000000000000000000000000000000000000000000000000000000000000000000000000000000000000000000000000000000000000000000000000000000000000000000000000000000000000000000000000000000000000000000000000000000000000000000000000000000000000 0"
b10 /"
b0 -"
13
b1 D"
b0 E"
#200000
03
#210000
b1 -"
13
b1 E"
#220000
03
#230000
b10 -"
13
b10 E"
#240000
03
#250000
b11 -"
13
b11 E"
#260000
03
#270000
b1111111111000000000000000000000000000000000000000000000000000000000000000000000000000000000000000000000000000000000000000000000000000000000000000000000000000000000000000000000000000000000000000000000000000000000000000000000000000000000000000000000000000000 0"
b11 /"
b0 -"
13
b10 D"
b0 E"
#280000
03
#290000
b1 -"
13
b1 E"
#300000
03
#310000
b10 -"
13
b10 E"
#320000
03
#330000
b11 -"
13
b11 E"
#340000
03
#350000
b1111111110000000000000000000000000000000000000000000000000000000000000000000000000000000000000000000000000000000000000000000000000000000000000000000000000000000000000000000000000000000000000000000000000000000000000000000000000000000000000000000000000000000 0"
b100 /"
b0 -"
13
b0 1
b0 n
b11 D"
b0 E"
#360000
03
#370000
b1111 ,"
b1 -"
13
b1 E"
#380000
03
#390000
b11 ,"
b10 -"
13
b10 E"
#400000
03
#410000
b0 ,"
b11 -"
13
b11 E"
#420000
03
#430000
b1111000000000000000000000000000000000000000000000000000000000000000000000000000000000000000000000000000000000000000000000000000000000000000000000000000000000000000000000000000000000000000000000000000000000000000000000000000000000000000000000000000000000000 0"
b101 /"
b0 -"
13
b100 D"
b0 E"
#440000
03
#450000
b1 -"
13
b1 E"
#460000
03
#470000
b10 -"
13
b10 E"
#480000
03
#490000
b11 -"
13
b11 E"
#500000
03
#510000
b110 /"
b0 -"
13
b101 D"
b0 E"
#520000
03
#530000
b1 -"
13
b1 E"
#540000
03
#550000
b10 -"
13
b10 E"
#560000
03
#570000
b11 -"
13
b11 E"
#580000
03
#590000
b111 /"
b0 -"
13
b110 D"
b0 E"
#600000
03
#610000
b1 -"
13
b1 E"
#620000
03
#630000
b10 -"
13
b10 E"
#640000
03
#650000
b11 -"
13
b11 E"
#660000
03
#670000
b1000 /"
b0 -"
13
b111 D"
b0 E"
#680000
03
#690000
b1 -"
13
b1 E"
#700000
03
#710000
b10 -"
13
b10 E"
#720000
03
#730000
b11 -"
13
b11 E"
#740000
03
#750000
b1001 /"
b0 -"
13
b1000 D"
b0 E"
#760000
03
#770000
b1 -"
13
b1 E"
#780000
03
#790000
b10 -"
13
b10 E"
#800000
03
#810000
b11 -"
13
b11 E"
#820000
03
#830000
b1010 /"
b0 -"
13
b1001 D"
b0 E"
#840000
03
#850000
b1 -"
13
b1 E"
#860000
03
#870000
b10 -"
13
b10 E"
#880000
03
#890000
b11 -"
13
b11 E"
#900000
03
#910000
b1011 /"
b0 -"
13
b1010 D"
b0 E"
#920000
03
#930000
b1 -"
13
b1 E"
#940000
03
#950000
b10 -"
13
b10 E"
#960000
03
#970000
b11 -"
13
b11 E"
#980000
03
#990000
b1100 /"
b0 -"
13
b1011 D"
b0 E"
#1000000
03
#1010000
b1 -"
13
b1 E"
#1020000
03
#1030000
b10 -"
13
b10 E"
#1040000
03
#1050000
b11 -"
13
b11 E"
#1060000
03
#1070000
b1101 /"
b0 -"
13
b1100 D"
b0 E"
#1080000
03
#1090000
b1 -"
13
b1 E"
#1100000
03
#1110000
b10 -"
13
b10 E"
#1120000
03
#1130000
b11 -"
13
b11 E"
#1140000
03
#1150000
b1110 /"
b0 -"
13
b1101 D"
b0 E"
#1160000
03
#1170000
b1 -"
13
b1 E"
#1180000
03
#1190000
b10 -"
13
b10 E"
#1200000
03
#1210000
b11 -"
13
b11 E"
#1220000
03
#1230000
b1111 /"
b0 -"
13
b1110 D"
b0 E"
#1240000
03
#1250000
b1 -"
13
b1 E"
#1260000
03
#1270000
b10 -"
13
b10 E"
#1280000
03
#1290000
b11 -"
13
b11 E"
#1300000
03
#1310000
b10000 /"
b0 -"
13
b1111 D"
b0 E"
#1320000
03
#1330000
b1 -"
13
b1 E"
#1340000
03
#1350000
b10 -"
13
b10 E"
#1360000
03
#1370000
b11 -"
13
b11 E"
#1380000
03
#1390000
b10001 /"
b0 -"
13
b10000 D"
b0 E"
#1400000
03
#1410000
b1 -"
13
b1 E"
#1420000
03
#1430000
b10 -"
13
b10 E"
#1440000
03
#1450000
b11 -"
13
b11 E"
#1460000
03
#1470000
b10010 /"
b0 -"
13
b10001 D"
b0 E"
#1480000
03
#1490000
b1 -"
13
b1 E"
#1500000
03
#1510000
b10 -"
13
b10 E"
#1520000
03
#1530000
b11 -"
13
b11 E"
#1540000
03
#1550000
b10011 /"
b0 -"
13
b10010 D"
b0 E"
#1560000
03
#1570000
b1 -"
13
b1 E"
#1580000
03
#1590000
b10 -"
13
b10 E"
#1600000
03
#1610000
b11 -"
13
b11 E"
#1620000
03
#1630000
b10100 /"
b0 -"
13
b10011 D"
b0 E"
#1640000
03
#1650000
b1 -"
13
b1 E"
#1660000
03
#1670000
b10 -"
13
b10 E"
#1680000
03
#1690000
b11 -"
13
b11 E"
#1700000
03
#1710000
b10101 /"
b0 -"
13
b10100 D"
b0 E"
#1720000
03
#1730000
b1 -"
13
b1 E"
#1740000
03
#1750000
b10 -"
13
b10 E"
#1760000
03
#1770000
b11 -"
13
b11 E"
#1780000
03
#1790000
b10110 /"
b0 -"
13
b10101 D"
b0 E"
#1800000
03
#1810000
b1 -"
13
b1 E"
#1820000
03
#1830000
b10 -"
13
b10 E"
#1840000
03
#1850000
b11 -"
13
b11 E"
#1860000
03
#1870000
b10111 /"
b0 -"
13
b10110 D"
b0 E"
#1880000
03
#1890000
b1 -"
13
b1 E"
#1900000
03
#1910000
b10 -"
13
b10 E"
#1920000
03
#1930000
b11 -"
13
b11 E"
#1940000
03
#1950000
b11000 /"
b0 -"
13
b10111 D"
b0 E"
#1960000
03
#1970000
b1 -"
13
b1 E"
#1980000
03
#1990000
b10 -"
13
b10 E"
#2000000
03
#2010000
b11 -"
13
b11 E"
#2020000
03
#2030000
b11001 /"
b0 -"
13
b11000 D"
b0 E"
#2040000
03
#2050000
b1 -"
13
b1 E"
#2060000
03
#2070000
b10 -"
13
b10 E"
#2080000
03
#2090000
b11 -"
13
b11 E"
#2100000
03
#2110000
b11010 /"
b0 -"
13
b11001 D"
b0 E"
#2120000
03
#2130000
b1 -"
13
b1 E"
#2140000
03
#2150000
b10 -"
13
b10 E"
#2160000
03
#2170000
b11 -"
13
b11 E"
#2180000
03
#2190000
b11011 /"
b0 -"
13
b11010 D"
b0 E"
#2200000
03
#2210000
b1 -"
13
b1 E"
#2220000
03
#2230000
b10 -"
13
b10 E"
#2240000
03
#2250000
b11 -"
13
b11 E"
#2260000
03
#2270000
b11100 /"
b0 -"
13
b11011 D"
b0 E"
#2280000
03
#2290000
b1 -"
13
b1 E"
#2300000
03
#2310000
b10 -"
13
b10 E"
#2320000
03
#2330000
b11 -"
13
b11 E"
#2340000
03
#2350000
b11101 /"
b0 -"
13
b11100 D"
b0 E"
#2360000
03
#2370000
b1 -"
13
b1 E"
#2380000
03
#2390000
b10 -"
13
b10 E"
#2400000
03
#2410000
b11 -"
13
b11 E"
#2420000
03
#2430000
b11110 /"
b0 -"
13
b11101 D"
b0 E"
#2440000
03
#2450000
b1 -"
13
b1 E"
#2460000
03
#2470000
b10 -"
13
b10 E"
#2480000
03
#2490000
b11 -"
13
b11 E"
#2500000
03
#2510000
b11111 /"
b0 -"
13
b11110 D"
b0 E"
#2520000
03
#2530000
b1 -"
13
b1 E"
#2540000
03
#2550000
b10 -"
13
b10 E"
#2560000
03
#2570000
b11 -"
13
b11 E"
#2580000
03
#2590000
1z
b0 u
b0 3"
b1111000000000000000000000000000000000000000000000000000000000000000000000000000000000000000000000000000000000000000000000000000000000000000000000000000000000000000000000000000000000000000000000000000000000000000000000000000000000000000000000000000000000000 w
b1111000000000000000000000000000000000000000000000000000000000000000000000000000000000000000000000000000000000000000000000000000000000000000000000000000000000000000000000000000000000000000000000000000000000000000000000000000000000000000000000000000000000000 5"
b100000 /"
b0 -"
13
b11111 D"
b0 E"
#2600000
03
#2610000
0z
b1 -"
13
b1 E"
#2620000
03
#2630000
b10 -"
13
b10 E"
#2640000
03
#2650000
b11 -"
13
b11 E"
#2660000
03
#2670000
b1100000000000000000000000000000000000000000000000000000000000000000000000000000000000000000000000000000000000000000000000000000000000000000000000000000000000000000000000000000000000000000000000000000000000000000000000000000000000000000000000000000000 0"
b100001 /"
b0 -"
13
b11 1
b11 n
b1 C"
b0 D"
b0 E"
#2680000
03
#2690000
b110000 ,"
b1 -"
13
b1 E"
#2700000
03
#2710000
b111100 ,"
b10 -"
13
b10 E"
#2720000
03
#2730000
b111111 ,"
b11 -"
13
b11 E"
#2740000
03
#2750000
b111111110000000000000000000000000000000000000000000000000000000000000000000000000000000000000000000000000000000000000000000000000000000000000000000000000000000000000000000000000000000000000000000000000000000000000000000000000000000000000000000000000000000 0"
b100010 /"
b0 -"
13
b1 D"
b0 E"
#2760000
03
#2770000
b1 -"
13
b1 E"
#2780000
03
#2790000
b10 -"
13
b10 E"
#2800000
03
#2810000
b11 -"
13
b11 E"
#2820000
03
#2830000
b111111111000000000000000000000000000000000000000000000000000000000000000000000000000000000000000000000000000000000000000000000000000000000000000000000000000000000000000000000000000000000000000000000000000000000000000000000000000000000000000000000000000000 0"
b100011 /"
b0 -"
13
b10 D"
b0 E"
#2840000
03
#2850000
b1 -"
13
b1 E"
#2860000
03
#2870000
b10 -"
13
b10 E"
#2880000
03
#2890000
b11 -"
13
b11 E"
#2900000
03
#2910000
b111111110000000000000000000000000000000000000000000000000000000000000000000000000000000000000000000000000000000000000000000000000000000000000000000000000000000000000000000000000000000000000000000000000000000000000000000000000000000000000000000000000000000 0"
b100100 /"
b0 -"
13
b0 1
b0 n
b11 D"
b0 E"
#2920000
03
#2930000
b1111 ,"
b1 -"
13
b1 E"
#2940000
03
#2950000
b11 ,"
b10 -"
13
b10 E"
#2960000
03
#2970000
b0 ,"
b11 -"
13
b11 E"
#2980000
03
#2990000
b111000000000000000000000000000000000000000000000000000000000000000000000000000000000000000000000000000000000000000000000000000000000000000000000000000000000000000000000000000000000000000000000000000000000000000000000000000000000000000000000000000000000000 0"
b100101 /"
b0 -"
13
b100 D"
b0 E"
#3000000
03
#3010000
b1 -"
13
b1 E"
#3020000
03
#3030000
b10 -"
13
b10 E"
#3040000
03
#3050000
b11 -"
13
b11 E"
#3060000
03
#3070000
b100110 /"
b0 -"
13
b101 D"
b0 E"
#3080000
03
#3090000
b1 -"
13
b1 E"
#3100000
03
#3110000
b10 -"
13
b10 E"
#3120000
03
#3130000
b11 -"
13
b11 E"
#3140000
03
#3150000
b100111 /"
b0 -"
13
b110 D"
b0 E"
#3160000
03
#3170000
b1 -"
13
b1 E"
#3180000
03
#3190000
b10 -"
13
b10 E"
#3200000
03
#3210000
b11 -"
13
b11 E"
#3220000
03
#3230000
b101000 /"
b0 -"
13
b111 D"
b0 E"
#3240000
03
#3250000
b1 -"
13
b1 E"
#3260000
03
#3270000
b10 -"
13
b10 E"
#3280000
03
#3290000
b11 -"
13
b11 E"
#3300000
03
#3310000
b101001 /"
b0 -"
13
b1000 D"
b0 E"
#3320000
03
#3330000
b1 -"
13
b1 E"
#3340000
03
#3350000
b10 -"
13
b10 E"
#3360000
03
#3370000
b11 -"
13
b11 E"
#3380000
03
#3390000
b101010 /"
b0 -"
13
b1001 D"
b0 E"
#3400000
03
#3410000
b1 -"
13
b1 E"
#3420000
03
#3430000
b10 -"
13
b10 E"
#3440000
03
#3450000
b11 -"
13
b11 E"
#3460000
03
#3470000
b101011 /"
b0 -"
13
b1010 D"
b0 E"
#3480000
03
#3490000
b1 -"
13
b1 E"
#3500000
03
#3510000
b10 -"
13
b10 E"
#3520000
03
#3530000
b11 -"
13
b11 E"
#3540000
03
#3550000
b101100 /"
b0 -"
13
b1011 D"
b0 E"
#3560000
03
#3570000
b1 -"
13
b1 E"
#3580000
03
#3590000
b10 -"
13
b10 E"
#3600000
03
#3610000
b11 -"
13
b11 E"
#3620000
03
#3630000
b101101 /"
b0 -"
13
b1100 D"
b0 E"
#3640000
03
#3650000
b1 -"
13
b1 E"
#3660000
03
#3670000
b10 -"
13
b10 E"
#3680000
03
#3690000
b11 -"
13
b11 E"
#3700000
03
#3710000
b101110 /"
b0 -"
13
b1101 D"
b0 E"
#3720000
03
#3730000
b1 -"
13
b1 E"
#3740000
03
#3750000
b10 -"
13
b10 E"
#3760000
03
#3770000
b11 -"
13
b11 E"
#3780000
03
#3790000
b101111 /"
b0 -"
13
b1110 D"
b0 E"
#3800000
03
#3810000
b1 -"
13
b1 E"
#3820000
03
#3830000
b10 -"
13
b10 E"
#3840000
03
#3850000
b11 -"
13
b11 E"
#3860000
03
#3870000
b110000 /"
b0 -"
13
b1111 D"
b0 E"
#3880000
03
#3890000
b1 -"
13
b1 E"
#3900000
03
#3910000
b10 -"
13
b10 E"
#3920000
03
#3930000
b11 -"
13
b11 E"
#3940000
03
#3950000
b110001 /"
b0 -"
13
b10000 D"
b0 E"
#3960000
03
#3970000
b1 -"
13
b1 E"
#3980000
03
#3990000
b10 -"
13
b10 E"
#4000000
03
#4010000
b11 -"
13
b11 E"
#4020000
03
#4030000
b110010 /"
b0 -"
13
b10001 D"
b0 E"
#4040000
03
#4050000
b1 -"
13
b1 E"
#4060000
03
#4070000
b10 -"
13
b10 E"
#4080000
03
#4090000
b11 -"
13
b11 E"
#4100000
03
#4110000
b110011 /"
b0 -"
13
b10010 D"
b0 E"
#4120000
03
#4130000
b1 -"
13
b1 E"
#4140000
03
#4150000
b10 -"
13
b10 E"
#4160000
03
#4170000
b11 -"
13
b11 E"
#4180000
03
#4190000
b110100 /"
b0 -"
13
b10011 D"
b0 E"
#4200000
03
#4210000
b1 -"
13
b1 E"
#4220000
03
#4230000
b10 -"
13
b10 E"
#4240000
03
#4250000
b11 -"
13
b11 E"
#4260000
03
#4270000
b110101 /"
b0 -"
13
b10100 D"
b0 E"
#4280000
03
#4290000
b1 -"
13
b1 E"
#4300000
03
#4310000
b10 -"
13
b10 E"
#4320000
03
#4330000
b11 -"
13
b11 E"
#4340000
03
#4350000
b110110 /"
b0 -"
13
b10101 D"
b0 E"
#4360000
03
#4370000
b1 -"
13
b1 E"
#4380000
03
#4390000
b10 -"
13
b10 E"
#4400000
03
#4410000
b11 -"
13
b11 E"
#4420000
03
#4430000
b110111 /"
b0 -"
13
b10110 D"
b0 E"
#4440000
03
#4450000
b1 -"
13
b1 E"
#4460000
03
#4470000
b10 -"
13
b10 E"
#4480000
03
#4490000
b11 -"
13
b11 E"
#4500000
03
#4510000
b111000 /"
b0 -"
13
b10111 D"
b0 E"
#4520000
03
#4530000
b1 -"
13
b1 E"
#4540000
03
#4550000
b10 -"
13
b10 E"
#4560000
03
#4570000
b11 -"
13
b11 E"
#4580000
03
#4590000
b111001 /"
b0 -"
13
b11000 D"
b0 E"
#4600000
03
#4610000
b1 -"
13
b1 E"
#4620000
03
#4630000
b10 -"
13
b10 E"
#4640000
03
#4650000
b11 -"
13
b11 E"
#4660000
03
#4670000
b111010 /"
b0 -"
13
b11001 D"
b0 E"
#4680000
03
#4690000
b1 -"
13
b1 E"
#4700000
03
#4710000
b10 -"
13
b10 E"
#4720000
03
#4730000
b11 -"
13
b11 E"
#4740000
03
#4750000
b111011 /"
b0 -"
13
b11010 D"
b0 E"
#4760000
03
#4770000
b1 -"
13
b1 E"
#4780000
03
#4790000
b10 -"
13
b10 E"
#4800000
03
#4810000
b11 -"
13
b11 E"
#4820000
03
#4830000
b111100 /"
b0 -"
13
b11011 D"
b0 E"
#4840000
03
#4850000
b1 -"
13
b1 E"
#4860000
03
#4870000
b10 -"
13
b10 E"
#4880000
03
#4890000
b11 -"
13
b11 E"
#4900000
03
#4910000
b111101 /"
b0 -"
13
b11100 D"
b0 E"
#4920000
03
#4930000
b1 -"
13
b1 E"
#4940000
03
#4950000
b10 -"
13
b10 E"
#4960000
03
#4970000
b11 -"
13
b11 E"
#4980000
03
#4990000
b111110 /"
b0 -"
13
b11101 D"
b0 E"
#5000000
03
#5010000
b1 -"
13
b1 E"
#5020000
03
#5030000
b10 -"
13
b10 E"
#5040000
03
#5050000
b11 -"
13
b11 E"
#5060000
03
#5070000
b111111 /"
b0 -"
13
b11110 D"
b0 E"
#5080000
03
#5090000
b1 -"
13
b1 E"
#5100000
03
#5110000
b10 -"
13
b10 E"
#5120000
03
#5130000
b11 -"
13
b11 E"
#5140000
03
#5150000
1z
b1 u
b1 3"
b111000000000000000000000000000000000000000000000000000000000000000000000000000000000000000000000000000000000000000000000000000000000000000000000000000000000000000000000000000000000000000000000000000000000000000000000000000000000000000000000000000000000000 w
b111000000000000000000000000000000000000000000000000000000000000000000000000000000000000000000000000000000000000000000000000000000000000000000000000000000000000000000000000000000000000000000000000000000000000000000000000000000000000000000000000000000000000 5"
b1000000 /"
b0 -"
13
b11111 D"
b0 E"
#5160000
03
#5170000
0z
b1 -"
13
b1 E"
#5180000
03
#5190000
b10 -"
13
b10 E"
#5200000
03
#5210000
b11 -"
13
b11 E"
#5220000
03
#5230000
b1100000000000000000000000000000000000000000000000000000000000000000000000000000000000000000000000000000000000000000000000000000000000000000000000000000000000000000000000000000000000000000000000000000000000000000000000000000000000000000000000000000000 0"
b1000001 /"
b0 -"
13
b11 1
b11 n
b10 C"
b0 D"
b0 E"
#5240000
03
#5250000
b110000 ,"
b1 -"
13
b1 E"
#5260000
03
#5270000
b111100 ,"
b10 -"
13
b10 E"
#5280000
03
#5290000
b111111 ,"
b11 -"
13
b11 E"
#5300000
03
#5310000
b111111110000000000000000000000000000000000000000000000000000000000000000000000000000000000000000000000000000000000000000000000000000000000000000000000000000000000000000000000000000000000000000000000000000000000000000000000000000000000000000000000000000000 0"
b1000010 /"
b0 -"
13
b1 D"
b0 E"
#5320000
03
#5330000
b1 -"
13
b1 E"
#5340000
03
#5350000
b10 -"
13
b10 E"
#5360000
03
#5370000
b11 -"
13
b11 E"
#5380000
03
#5390000
b111111111000000000000000000000000000000000000000000000000000000000000000000000000000000000000000000000000000000000000000000000000000000000000000000000000000000000000000000000000000000000000000000000000000000000000000000000000000000000000000000000000000000 0"
b1000011 /"
b0 -"
13
b10 D"
b0 E"
#5400000
03
#5410000
b1 -"
13
b1 E"
#5420000
03
#5430000
b10 -"
13
b10 E"
#5440000
03
#5450000
b11 -"
13
b11 E"
#5460000
03
#5470000
b111111110000000000000000000000000000000000000000000000000000000000000000000000000000000000000000000000000000000000000000000000000000000000000000000000000000000000000000000000000000000000000000000000000000000000000000000000000000000000000000000000000000000 0"
b1000100 /"
b0 -"
13
b0 1
b0 n
b11 D"
b0 E"
#5480000
03
#5490000
b1111 ,"
b1 -"
13
b1 E"
#5500000
03
#5510000
b11 ,"
b10 -"
13
b10 E"
#5520000
03
#5530000
b0 ,"
b11 -"
13
b11 E"
#5540000
03
#5550000
b111000000000000000000000000000000000000000000000000000000000000000000000000000000000000000000000000000000000000000000000000000000000000000000000000000000000000000000000000000000000000000000000000000000000000000000000000000000000000000000000000000000000000 0"
b1000101 /"
b0 -"
13
b100 D"
b0 E"
#5560000
03
#5570000
b1 -"
13
b1 E"
#5580000
03
#5590000
b10 -"
13
b10 E"
#5600000
03
#5610000
b11 -"
13
b11 E"
#5620000
03
#5630000
b1000110 /"
b0 -"
13
b101 D"
b0 E"
#5640000
03
#5650000
b1 -"
13
b1 E"
#5660000
03
#5670000
b10 -"
13
b10 E"
#5680000
03
#5690000
b11 -"
13
b11 E"
#5700000
03
#5710000
b1000111 /"
b0 -"
13
b110 D"
b0 E"
#5720000
03
#5730000
b1 -"
13
b1 E"
#5740000
03
#5750000
b10 -"
13
b10 E"
#5760000
03
#5770000
b11 -"
13
b11 E"
#5780000
03
