matrix_compiler.vcd
$date
	Tue Dec 13 17:22:26 2022
$end
$version
	Icarus Verilog
$end
$timescale
	1ps
$end
$scope module matrix_compiler_tb $end
$var wire 1 ! valid_data_out $end
$var wire 256 " dibit [255:0] $end
$var reg 1 # clk $end
$var reg 5 $ col_addr [4:0] $end
$var reg 8 % matrix_element [7:0] $end
$var reg 5 & row_addr [4:0] $end
$var reg 1 ' rst $end
$var reg 1 ( valid_data_in $end
$scope module uut $end
$var wire 5 ) col_addr [4:0] $end
$var wire 1 # eth_refclk $end
$var wire 1 # inter_refclk $end
$var wire 8 * matrix_element [7:0] $end
$var wire 5 + row_addr [4:0] $end
$var wire 1 ' rst $end
$var wire 1 ( valid_data_in $end
$var wire 256 , row_out [255:0] $end
$var reg 5 - addra [4:0] $end
$var reg 5 . addrb [4:0] $end
$var reg 256 / data_buffer [255:0] $end
$var reg 256 0 dibit [255:0] $end
$var reg 256 1 dina [255:0] $end
$var reg 1 2 downtime $end
$var reg 10 3 element_counter [9:0] $end
$var reg 1 4 enb $end
$var reg 1 5 fill $end
$var reg 5 6 fill_col [4:0] $end
$var reg 3 7 fill_element [2:0] $end
$var reg 1 8 loading $end
$var reg 1 9 regceb $end
$var reg 1 : transmitting $end
$var reg 1 ; update $end
$var reg 5 < update_addr [4:0] $end
$var reg 1 ! valid_data_out $end
$var reg 1 = wea $end
$scope module Matrix_B_BRAM $end
$var wire 5 > addra [4:0] $end
$var wire 5 ? addrb [4:0] $end
$var wire 1 # clka $end
$var wire 1 # clkb $end
$var wire 256 @ dina [255:0] $end
$var wire 1 4 enb $end
$var wire 1 9 regceb $end
$var wire 1 ' rstb $end
$var wire 1 = wea $end
$var wire 256 A doutb [255:0] $end
$var reg 256 B ram_data [255:0] $end
$scope function clogb2 $end
$var integer 32 C depth [31:0] $end
$upscope $end
$scope begin init_bram_to_zero $end
$var integer 32 D ram_index [31:0] $end
$upscope $end
$scope begin output_register $end
$var reg 256 E doutb_reg [255:0] $end
$upscope $end
$upscope $end
$scope begin $ivl_for_loop5 $end
$var integer 32 F i [31:0] $end
$upscope $end
$upscope $end
$scope begin $ivl_for_loop0 $end
$var integer 32 G i [31:0] $end
$scope begin $ivl_for_loop1 $end
$var integer 32 H j [31:0] $end
$upscope $end
$upscope $end
$scope begin $ivl_for_loop2 $end
$var integer 32 I i [31:0] $end
$scope begin $ivl_for_loop3 $end
$var integer 32 J j [31:0] $end
$upscope $end
$upscope $end
$scope begin $ivl_for_loop4 $end
$var integer 32 K i [31:0] $end
$upscope $end
$upscope $end
$enddefinitions $end
#0
$dumpvars
b0 K
b0 J
b0 I
b0 H
b0 G
b0 F
b0 E
b100000 D
bx C
b0 B
b0 A
bx @
bx ?
bx >
x=
bx <
x;
x:
x9
x8
bx 7
bx 6
x5
x4
bx 3
x2
bx 1
bx 0
bx /
bx .
bx -
b0 ,
bx +
bx *
bx )
x(
0'
bx &
bx %
bx $
0#
bx "
x!
$end
#10000
1#
#20000
0#
#30000
b0 .
b0 ?
b0 /
b0 3
0;
05
09
04
0=
0:
08
12
1#
1'
#40000
0#
#50000
1#
0'
#60000
0#
#70000
1#
#80000
0#
#90000
1#
#100000
0#
#110000
b11111 <
1;
b1111100000000000000000000000000000000000000000000000000000000000000000000000000000000000000000000000000000000000000000000000000000000000000000000000000000000000000000000000000000000000000000000000000000000000000000000000000000000000000000000000000000000 /
18
02
1#
b11111 %
b11111 *
b0 $
b0 )
b11111 &
b11111 +
1(
b11111 H
#120000
0#
#130000
b1 3
b0 6
b110 7
15
19
14
b11110 .
b11110 ?
0;
b1111100000000000000000000000000000000000000000000000000000000000000000000000000000000000000000000000000000000000000000000000000000000000000000000000000000000000000000000000000000000000000000000000000000000000000000000000000000000000000000000000000000000 1
b1111100000000000000000000000000000000000000000000000000000000000000000000000000000000000000000000000000000000000000000000000000000000000000000000000000000000000000000000000000000000000000000000000000000000000000000000000000000000000000000000000000000000 @
b11111 -
b11111 >
1=
1#
b11110 %
b11110 *
b11110 &
b11110 +
b11110 H
#140000
0#
#150000
b10 3
b101 7
b11101 .
b11101 ?
b11110 <
1;
b0 /
0=
b100000000 F
1#
b11101 %
b11101 *
b11101 &
b11101 +
b11101 H
#160000
0#
#170000
b11 3
b100 7
b11100 .
b11100 ?
b11101 <
b0 1
b0 @
b11110 -
b11110 >
1=
b100000000 F
1#
b11100 %
b11100 *
b11100 &
b11100 +
b11100 H
#180000
0#
#190000
b100 3
b11 7
b11011 .
b11011 ?
b11100 <
b11101 -
b11101 >
b100000000 F
1#
b11011 %
b11011 *
b11011 &
b11011 +
b11011 H
#200000
0#
#210000
b101 3
b10 7
b11010 .
b11010 ?
b11011 <
b11100 -
b11100 >
b100000000 F
1#
b11010 %
b11010 *
b11010 &
b11010 +
b11010 H
#220000
0#
#230000
b110 3
b1 7
b11001 .
b11001 ?
b11010 <
b11011 -
b11011 >
b100000000 F
1#
b11001 %
b11001 *
b11001 &
b11001 +
b11001 H
#240000
0#
#250000
b111 3
b0 7
b11000 .
b11000 ?
b11001 <
b11010 -
b11010 >
b100000000 F
1#
b11000 %
b11000 *
b11000 &
b11000 +
b11000 H
#260000
0#
#270000
b1000 3
b111 7
b10111 .
b10111 ?
b11000 <
b11001 -
b11001 >
b100000000 F
1#
b10111 %
b10111 *
b10111 &
b10111 +
b10111 H
#280000
0#
#290000
b1001 3
b110 7
b10110 .
b10110 ?
b10111 <
b11000 -
b11000 >
b100000000 F
1#
b10110 %
b10110 *
b10110 &
b10110 +
b10110 H
#300000
0#
#310000
b1010 3
b101 7
b10101 .
b10101 ?
b10110 <
b10111 -
b10111 >
b100000000 F
1#
b10101 %
b10101 *
b10101 &
b10101 +
b10101 H
#320000
0#
#330000
b1011 3
b100 7
b10100 .
b10100 ?
b10101 <
b10110 -
b10110 >
b100000000 F
1#
b10100 %
b10100 *
b10100 &
b10100 +
b10100 H
#340000
0#
#350000
b1100 3
b11 7
b10011 .
b10011 ?
b10100 <
b10101 -
b10101 >
b100000000 F
1#
b10011 %
b10011 *
b10011 &
b10011 +
b10011 H
#360000
0#
#370000
b1101 3
b10 7
b10010 .
b10010 ?
b10011 <
b10100 -
b10100 >
b100000000 F
1#
b10010 %
b10010 *
b10010 &
b10010 +
b10010 H
#380000
0#
#390000
b1110 3
b1 7
b10001 .
b10001 ?
b10010 <
b10011 -
b10011 >
b100000000 F
1#
b10001 %
b10001 *
b10001 &
b10001 +
b10001 H
#400000
0#
#410000
b1111 3
b0 7
b10000 .
b10000 ?
b10001 <
b10010 -
b10010 >
b100000000 F
1#
b10000 %
b10000 *
b10000 &
b10000 +
b10000 H
#420000
0#
#430000
b10000 3
b111 7
b1111 .
b1111 ?
b10000 <
b10001 -
b10001 >
b100000000 F
1#
b1111 %
b1111 *
b1111 &
b1111 +
b1111 H
#440000
0#
#450000
b10001 3
b110 7
b1110 .
b1110 ?
b1111 <
b10000 -
b10000 >
b100000000 F
1#
b1110 %
b1110 *
b1110 &
b1110 +
b1110 H
#460000
0#
#470000
b10010 3
b101 7
b1101 .
b1101 ?
b1110 <
b1111 -
b1111 >
b100000000 F
1#
b1101 %
b1101 *
b1101 &
b1101 +
b1101 H
#480000
0#
#490000
b10011 3
b100 7
b1100 .
b1100 ?
b1101 <
b1110 -
b1110 >
b100000000 F
1#
b1100 %
b1100 *
b1100 &
b1100 +
b1100 H
#500000
0#
#510000
b10100 3
b11 7
b1011 .
b1011 ?
b1100 <
b1101 -
b1101 >
b100000000 F
1#
b1011 %
b1011 *
b1011 &
b1011 +
b1011 H
#520000
0#
#530000
b10101 3
b10 7
b1010 .
b1010 ?
b1011 <
b1100 -
b1100 >
b100000000 F
1#
b1010 %
b1010 *
b1010 &
b1010 +
b1010 H
#540000
0#
#550000
b10110 3
b1 7
b1001 .
b1001 ?
b1010 <
b1011 -
b1011 >
b100000000 F
1#
b1001 %
b1001 *
b1001 &
b1001 +
b1001 H
#560000
0#
#570000
b10111 3
b0 7
b1000 .
b1000 ?
b1001 <
b1010 -
b1010 >
b100000000 F
1#
b1000 %
b1000 *
b1000 &
b1000 +
b1000 H
#580000
0#
#590000
b11000 3
b111 7
b111 .
b111 ?
b1000 <
b1001 -
b1001 >
b100000000 F
1#
b111 %
b111 *
b111 &
b111 +
b111 H
#600000
0#
#610000
b11001 3
b110 7
b110 .
b110 ?
b111 <
b1000 -
b1000 >
b100000000 F
1#
b110 %
b110 *
b110 &
b110 +
b110 H
#620000
0#
#630000
b11010 3
b101 7
b101 .
b101 ?
b110 <
b111 -
b111 >
b100000000 F
1#
b101 %
b101 *
b101 &
b101 +
b101 H
#640000
0#
#650000
b11011 3
b100 7
b100 .
b100 ?
b101 <
b110 -
b110 >
b100000000 F
1#
b100 %
b100 *
b100 &
b100 +
b100 H
#660000
0#
#670000
b11100 3
b11 7
b11 .
b11 ?
b100 <
b101 -
b101 >
b100000000 F
1#
b11 %
b11 *
b11 &
b11 +
b11 H
#680000
0#
#690000
b11101 3
b10 7
b10 .
b10 ?
b11 <
b100 -
b100 >
b100000000 F
1#
b10 %
b10 *
b10 &
b10 +
b10 H
#700000
0#
#710000
b11110 3
b1 7
b1 .
b1 ?
b10 <
b11 -
b11 >
b100000000 F
1#
b1 %
b1 *
b1 &
b1 +
b1 H
#720000
0#
#730000
b11111 3
b0 7
b0 .
b0 ?
b1 <
b10 -
b10 >
b100000000 F
1#
b0 %
b0 *
b0 &
b0 +
b0 H
#740000
0#
#750000
b100000 3
b10 6
b111 7
b11111 .
b11111 ?
b0 <
b1 -
b1 >
b100000000 F
1#
b11111 %
b11111 *
b10 $
b10 )
b11111 &
b11111 +
b10 G
b11111 H
#760000
0#
#770000
b100001 3
b110 7
b11110 .
b11110 ?
b11111 <
b1111100000000000000000000000000000000000000000000000000000000000000000000000000000000000000000000000000000000000000000000000000000000000000000000000000000000000000000000000000000000000000000000000000000000000000000000000000000000000000000000000000000000 B
b0 -
b0 >
b100000000 F
1#
b11110 %
b11110 *
b11110 &
b11110 +
b11110 H
#780000
0#
#790000
b100010 3
b101 7
b11101 .
b11101 ?
b11110 <
b0 B
b1111100000000000000000000000000000000000000000000000000000000000000000000000000000000000000000000000000000000000000000000000000000000000000000000000000000000000000000000000000000000000000000000000000000000000000000000000000000000000000000000000000000000 ,
b1111100000000000000000000000000000000000000000000000000000000000000000000000000000000000000000000000000000000000000000000000000000000000000000000000000000000000000000000000000000000000000000000000000000000000000000000000000000000000000000000000000000000 A
b1111100000000000000000000000000000000000000000000000000000000000000000000000000000000000000000000000000000000000000000000000000000000000000000000000000000000000000000000000000000000000000000000000000000000000000000000000000000000000000000000000000000000 E
b11111 -
b11111 >
b100000000 F
1#
b11101 %
b11101 *
b11101 &
b11101 +
b11101 H
#800000
0#
#810000
b100011 3
b100 7
b11100 .
b11100 ?
b11101 <
b1111100000000000000000000000000000000000000000000000000000000000000000000000000000000000000000000000000000000000000000000000000000000000000000000000000000000000000000000000000000000000000000000000000000000000000000000000000000000000000000000000000000000 /
b0 ,
b0 A
b0 E
b11110 -
b11110 >
b100000000 F
1#
b11100 %
b11100 *
b11100 &
b11100 +
b11100 H
#820000
0#
#830000
b100100 3
b11 7
b11011 .
b11011 ?
b11100 <
b0 /
b1111100000000000000000000000000000000000000000000000000000000000000000000000000000000000000000000000000000000000000000000000000000000000000000000000000000000000000000000000000000000000000000000000000000000000000000000000000000000000000000000000000000000 1
b1111100000000000000000000000000000000000000000000000000000000000000000000000000000000000000000000000000000000000000000000000000000000000000000000000000000000000000000000000000000000000000000000000000000000000000000000000000000000000000000000000000000000 @
b11101 -
b11101 >
b100000000 F
1#
b11011 %
b11011 *
b11011 &
b11011 +
b11011 H
#840000
0#
#850000
b100101 3
b10 7
b11010 .
b11010 ?
b11011 <
b0 1
b0 @
b11100 -
b11100 >
b100000000 F
1#
b11010 %
b11010 *
b11010 &
b11010 +
b11010 H
#860000
0#
#870000
b100110 3
b1 7
b11001 .
b11001 ?
b11010 <
b11011 -
b11011 >
b100000000 F
1#
b11001 %
b11001 *
b11001 &
b11001 +
b11001 H
#880000
0#
#890000
b100111 3
b0 7
b11000 .
b11000 ?
b11001 <
b11010 -
b11010 >
b100000000 F
1#
b11000 %
b11000 *
b11000 &
b11000 +
b11000 H
#900000
0#
#910000
b101000 3
b111 7
b10111 .
b10111 ?
b11000 <
b11001 -
b11001 >
b100000000 F
1#
b10111 %
b10111 *
b10111 &
b10111 +
b10111 H
#920000
0#
#930000
b101001 3
b110 7
b10110 .
b10110 ?
b10111 <
b11000 -
b11000 >
b100000000 F
1#
b10110 %
b10110 *
b10110 &
b10110 +
b10110 H
#940000
0#
#950000
b101010 3
b101 7
b10101 .
b10101 ?
b10110 <
b10111 -
b10111 >
b100000000 F
1#
b10101 %
b10101 *
b10101 &
b10101 +
b10101 H
#960000
0#
#970000
b101011 3
b100 7
b10100 .
b10100 ?
b10101 <
b10110 -
b10110 >
b100000000 F
1#
b10100 %
b10100 *
b10100 &
b10100 +
b10100 H
#980000
0#
#990000
b101100 3
b11 7
b10011 .
b10011 ?
b10100 <
b10101 -
b10101 >
b100000000 F
1#
b10011 %
b10011 *
b10011 &
b10011 +
b10011 H
#1000000
0#
#1010000
b101101 3
b10 7
b10010 .
b10010 ?
b10011 <
b10100 -
b10100 >
b100000000 F
1#
b10010 %
b10010 *
b10010 &
b10010 +
b10010 H
#1020000
0#
#1030000
b101110 3
b1 7
b10001 .
b10001 ?
b10010 <
b10011 -
b10011 >
b100000000 F
1#
b10001 %
b10001 *
b10001 &
b10001 +
b10001 H
#1040000
0#
#1050000
b101111 3
b0 7
b10000 .
b10000 ?
b10001 <
b10010 -
b10010 >
b100000000 F
1#
b10000 %
b10000 *
b10000 &
b10000 +
b10000 H
#1060000
0#
#1070000
b110000 3
b111 7
b1111 .
b1111 ?
b10000 <
b10001 -
b10001 >
b100000000 F
1#
b1111 %
b1111 *
b1111 &
b1111 +
b1111 H
#1080000
0#
#1090000
b110001 3
b110 7
b1110 .
b1110 ?
b1111 <
b10000 -
b10000 >
b100000000 F
1#
b1110 %
b1110 *
b1110 &
b1110 +
b1110 H
#1100000
0#
#1110000
b110010 3
b101 7
b1101 .
b1101 ?
b1110 <
b1111 -
b1111 >
b100000000 F
1#
b1101 %
b1101 *
b1101 &
b1101 +
b1101 H
#1120000
0#
#1130000
b110011 3
b100 7
b1100 .
b1100 ?
b1101 <
b1110 -
b1110 >
b100000000 F
1#
b1100 %
b1100 *
b1100 &
b1100 +
b1100 H
#1140000
0#
#1150000
b110100 3
b11 7
b1011 .
b1011 ?
b1100 <
b1101 -
b1101 >
b100000000 F
1#
b1011 %
b1011 *
b1011 &
b1011 +
b1011 H
#1160000
0#
#1170000
b110101 3
b10 7
b1010 .
b1010 ?
b1011 <
b1100 -
b1100 >
b100000000 F
1#
b1010 %
b1010 *
b1010 &
b1010 +
b1010 H
#1180000
0#
#1190000
b110110 3
b1 7
b1001 .
b1001 ?
b1010 <
b1011 -
b1011 >
b100000000 F
1#
b1001 %
b1001 *
b1001 &
b1001 +
b1001 H
#1200000
0#
#1210000
b110111 3
b0 7
b1000 .
b1000 ?
b1001 <
b1010 -
b1010 >
b100000000 F
1#
b1000 %
b1000 *
b1000 &
b1000 +
b1000 H
#1220000
0#
#1230000
b111000 3
b111 7
b111 .
b111 ?
b1000 <
b1001 -
b1001 >
b100000000 F
1#
b111 %
b111 *
b111 &
b111 +
b111 H
#1240000
0#
#1250000
b111001 3
b110 7
b110 .
b110 ?
b111 <
b1000 -
b1000 >
b100000000 F
1#
b110 %
b110 *
b110 &
b110 +
b110 H
#1260000
0#
#1270000
b111010 3
b101 7
b101 .
b101 ?
b110 <
b111 -
b111 >
b100000000 F
1#
b101 %
b101 *
b101 &
b101 +
b101 H
#1280000
0#
#1290000
b111011 3
b100 7
b100 .
b100 ?
b101 <
b110 -
b110 >
b100000000 F
1#
b100 %
b100 *
b100 &
b100 +
b100 H
#1300000
0#
#1310000
b111100 3
b11 7
b11 .
b11 ?
b100 <
b101 -
b101 >
b100000000 F
1#
b11 %
b11 *
b11 &
b11 +
b11 H
#1320000
0#
#1330000
b111101 3
b10 7
b10 .
b10 ?
b11 <
b100 -
b100 >
b100000000 F
1#
b10 %
b10 *
b10 &
b10 +
b10 H
#1340000
0#
#1350000
b111110 3
b1 7
b1 .
b1 ?
b10 <
b11 -
b11 >
b100000000 F
1#
b1 %
b1 *
b1 &
b1 +
b1 H
#1360000
0#
#1370000
b111111 3
b0 7
b0 .
b0 ?
b1 <
b10 -
b10 >
b100000000 F
1#
b0 %
b0 *
b0 &
b0 +
b0 H
#1380000
0#
#1390000
b1000000 3
b100 6
b111 7
b11111 .
b11111 ?
b0 <
b1 -
b1 >
b100000000 F
1#
b11111 %
b11111 *
b100 $
b100 )
b11111 &
b11111 +
b100 G
b11111 H
#1400000
0#
#1410000
b1000001 3
b110 7
b11110 .
b11110 ?
b11111 <
b0 -
b0 >
b100000000 F
1#
b11110 %
b11110 *
b11110 &
b11110 +
b11110 H
#1420000
0#
#1430000
b1000010 3
b101 7
b11101 .
b11101 ?
b11110 <
b11111 -
b11111 >
b100000000 F
1#
b11101 %
b11101 *
b11101 &
b11101 +
b11101 H
#1440000
0#
#1450000
b1000011 3
b100 7
b11100 .
b11100 ?
b11101 <
b1111100000000000000000000000000000000000000000000000000000000000000000000000000000000000000000000000000000000000000000000000000000000000000000000000000000000000000000000000000000000000000000000000000000000000000000000000000000000000000000000000000000000 B
b11110 -
b11110 >
b100000000 F
1#
b11100 %
b11100 *
b11100 &
b11100 +
b11100 H
#1460000
0#
#1470000
b1000100 3
b11 7
b11011 .
b11011 ?
b11100 <
b0 B
b1111100000000000000000000000000000000000000000000000000000000000000000000000000000000000000000000000000000000000000000000000000000000000000000000000000000000000000000000000000000000000000000000000000000000000000000000000000000000000000000000000000000000 ,
b1111100000000000000000000000000000000000000000000000000000000000000000000000000000000000000000000000000000000000000000000000000000000000000000000000000000000000000000000000000000000000000000000000000000000000000000000000000000000000000000000000000000000 A
b1111100000000000000000000000000000000000000000000000000000000000000000000000000000000000000000000000000000000000000000000000000000000000000000000000000000000000000000000000000000000000000000000000000000000000000000000000000000000000000000000000000000000 E
b11101 -
b11101 >
b100000000 F
1#
b11011 %
b11011 *
b11011 &
b11011 +
b11011 H
#1480000
0#
#1490000
b1000101 3
b10 7
b11010 .
b11010 ?
b11011 <
b1111100000000000000000000000000000000000000000000000000000000000000000000000000000000000000000000000000000000000000000000000000000000000000000000000000000000000000000000000000000000000000000000000000000000000000000000000000000000000000000000000000000000 /
b0 ,
b0 A
b0 E
b11100 -
b11100 >
b100000000 F
1#
b11010 %
b11010 *
b11010 &
b11010 +
b11010 H
#1500000
0#
#1510000
b1000110 3
b1 7
b11001 .
b11001 ?
b11010 <
b0 /
b1111100000000000000000000000000000000000000000000000000000000000000000000000000000000000000000000000000000000000000000000000000000000000000000000000000000000000000000000000000000000000000000000000000000000000000000000000000000000000000000000000000000000 1
b1111100000000000000000000000000000000000000000000000000000000000000000000000000000000000000000000000000000000000000000000000000000000000000000000000000000000000000000000000000000000000000000000000000000000000000000000000000000000000000000000000000000000 @
b11011 -
b11011 >
b100000000 F
1#
b11001 %
b11001 *
b11001 &
b11001 +
b11001 H
#1520000
0#
#1530000
b1000111 3
b0 7
b11000 .
b11000 ?
b11001 <
b0 1
b0 @
b11010 -
b11010 >
b100000000 F
1#
b11000 %
b11000 *
b11000 &
b11000 +
b11000 H
#1540000
0#
#1550000
b1001000 3
b111 7
b10111 .
b10111 ?
b11000 <
b11001 -
b11001 >
b100000000 F
1#
b10111 %
b10111 *
b10111 &
b10111 +
b10111 H
#1560000
0#
#1570000
b1001001 3
b110 7
b10110 .
b10110 ?
b10111 <
b11000 -
b11000 >
b100000000 F
1#
b10110 %
b10110 *
b10110 &
b10110 +
b10110 H
#1580000
0#
#1590000
b1001010 3
b101 7
b10101 .
b10101 ?
b10110 <
b10111 -
b10111 >
b100000000 F
1#
b10101 %
b10101 *
b10101 &
b10101 +
b10101 H
#1600000
0#
#1610000
b1001011 3
b100 7
b10100 .
b10100 ?
b10101 <
b10110 -
b10110 >
b100000000 F
1#
b10100 %
b10100 *
b10100 &
b10100 +
b10100 H
#1620000
0#
#1630000
b1001100 3
b11 7
b10011 .
b10011 ?
b10100 <
b10101 -
b10101 >
b100000000 F
1#
b10011 %
b10011 *
b10011 &
b10011 +
b10011 H
#1640000
0#
#1650000
b1001101 3
b10 7
b10010 .
b10010 ?
b10011 <
b10100 -
b10100 >
b100000000 F
1#
b10010 %
b10010 *
b10010 &
b10010 +
b10010 H
#1660000
0#
#1670000
b1001110 3
b1 7
b10001 .
b10001 ?
b10010 <
b10011 -
b10011 >
b100000000 F
1#
b10001 %
b10001 *
b10001 &
b10001 +
b10001 H
#1680000
0#
#1690000
b1001111 3
b0 7
b10000 .
b10000 ?
b10001 <
b10010 -
b10010 >
b100000000 F
1#
b10000 %
b10000 *
b10000 &
b10000 +
b10000 H
#1700000
0#
#1710000
b1010000 3
b111 7
b1111 .
b1111 ?
b10000 <
b10001 -
b10001 >
b100000000 F
1#
b1111 %
b1111 *
b1111 &
b1111 +
b1111 H
#1720000
0#
#1730000
b1010001 3
b110 7
b1110 .
b1110 ?
b1111 <
b10000 -
b10000 >
b100000000 F
1#
b1110 %
b1110 *
b1110 &
b1110 +
b1110 H
#1740000
0#
#1750000
b1010010 3
b101 7
b1101 .
b1101 ?
b1110 <
b1111 -
b1111 >
b100000000 F
1#
b1101 %
b1101 *
b1101 &
b1101 +
b1101 H
#1760000
0#
#1770000
b1010011 3
b100 7
b1100 .
b1100 ?
b1101 <
b1110 -
b1110 >
b100000000 F
1#
b1100 %
b1100 *
b1100 &
b1100 +
b1100 H
#1780000
0#
#1790000
b1010100 3
b11 7
b1011 .
b1011 ?
b1100 <
b1101 -
b1101 >
b100000000 F
1#
b1011 %
b1011 *
b1011 &
b1011 +
b1011 H
#1800000
0#
#1810000
b1010101 3
b10 7
b1010 .
b1010 ?
b1011 <
b1100 -
b1100 >
b100000000 F
1#
b1010 %
b1010 *
b1010 &
b1010 +
b1010 H
#1820000
0#
#1830000
b1010110 3
b1 7
b1001 .
b1001 ?
b1010 <
b1011 -
b1011 >
b100000000 F
1#
b1001 %
b1001 *
b1001 &
b1001 +
b1001 H
#1840000
0#
#1850000
b1010111 3
b0 7
b1000 .
b1000 ?
b1001 <
b1010 -
b1010 >
b100000000 F
1#
b1000 %
b1000 *
b1000 &
b1000 +
b1000 H
#1860000
0#
#1870000
b1011000 3
b111 7
b111 .
b111 ?
b1000 <
b1001 -
b1001 >
b100000000 F
1#
b111 %
b111 *
b111 &
b111 +
b111 H
#1880000
0#
#1890000
b1011001 3
b110 7
b110 .
b110 ?
b111 <
b1000 -
b1000 >
b100000000 F
1#
b110 %
b110 *
b110 &
b110 +
b110 H
#1900000
0#
#1910000
b1011010 3
b101 7
b101 .
b101 ?
b110 <
b111 -
b111 >
b100000000 F
1#
b101 %
b101 *
b101 &
b101 +
b101 H
#1920000
0#
#1930000
b1011011 3
b100 7
b100 .
b100 ?
b101 <
b110 -
b110 >
b100000000 F
1#
b100 %
b100 *
b100 &
b100 +
b100 H
#1940000
0#
#1950000
b1011100 3
b11 7
b11 .
b11 ?
b100 <
b101 -
b101 >
b100000000 F
1#
b11 %
b11 *
b11 &
b11 +
b11 H
#1960000
0#
#1970000
b1011101 3
b10 7
b10 .
b10 ?
b11 <
b100 -
b100 >
b100000000 F
1#
b10 %
b10 *
b10 &
b10 +
b10 H
#1980000
0#
#1990000
b1011110 3
b1 7
b1 .
b1 ?
b10 <
b11 -
b11 >
b100000000 F
1#
b1 %
b1 *
b1 &
b1 +
b1 H
#2000000
0#
#2010000
b1011111 3
b0 7
b0 .
b0 ?
b1 <
b10 -
b10 >
b100000000 F
1#
b0 %
b0 *
b0 &
b0 +
b0 H
#2020000
0#
#2030000
b1100000 3
b110 6
b111 7
b11111 .
b11111 ?
b0 <
b1 -
b1 >
b100000000 F
1#
b11111 %
b11111 *
b110 $
b110 )
b11111 &
b11111 +
b110 G
b11111 H
#2040000
0#
#2050000
b1100001 3
b110 7
b11110 .
b11110 ?
b11111 <
b0 -
b0 >
b100000000 F
1#
b11110 %
b11110 *
b11110 &
b11110 +
b11110 H
#2060000
0#
#2070000
b1100010 3
b101 7
b11101 .
b11101 ?
b11110 <
b11111 -
b11111 >
b100000000 F
1#
b11101 %
b11101 *
b11101 &
b11101 +
b11101 H
#2080000
0#
#2090000
b1100011 3
b100 7
b11100 .
b11100 ?
b11101 <
b11110 -
b11110 >
b100000000 F
1#
b11100 %
b11100 *
b11100 &
b11100 +
b11100 H
#2100000
0#
#2110000
b1100100 3
b11 7
b11011 .
b11011 ?
b11100 <
b11101 -
b11101 >
b100000000 F
1#
b11011 %
b11011 *
b11011 &
b11011 +
b11011 H
#2120000
0#
#2130000
b1100101 3
b10 7
b11010 .
b11010 ?
b11011 <
b1111100000000000000000000000000000000000000000000000000000000000000000000000000000000000000000000000000000000000000000000000000000000000000000000000000000000000000000000000000000000000000000000000000000000000000000000000000000000000000000000000000000000 B
b11100 -
b11100 >
b100000000 F
1#
b11010 %
b11010 *
b11010 &
b11010 +
b11010 H
#2140000
0#
#2150000
b1100110 3
b1 7
b11001 .
b11001 ?
b11010 <
b0 B
b1111100000000000000000000000000000000000000000000000000000000000000000000000000000000000000000000000000000000000000000000000000000000000000000000000000000000000000000000000000000000000000000000000000000000000000000000000000000000000000000000000000000000 ,
b1111100000000000000000000000000000000000000000000000000000000000000000000000000000000000000000000000000000000000000000000000000000000000000000000000000000000000000000000000000000000000000000000000000000000000000000000000000000000000000000000000000000000 A
b1111100000000000000000000000000000000000000000000000000000000000000000000000000000000000000000000000000000000000000000000000000000000000000000000000000000000000000000000000000000000000000000000000000000000000000000000000000000000000000000000000000000000 E
b11011 -
b11011 >
b100000000 F
1#
b11001 %
b11001 *
b11001 &
b11001 +
b11001 H
#2160000
0#
#2170000
b1100111 3
b0 7
b11000 .
b11000 ?
b11001 <
b1111100000000000000000000000000000000000000000000000000000000000000000000000000000000000000000000000000000000000000000000000000000000000000000000000000000000000000000000000000000000000000000000000000000000000000000000000000000000000000000000000000000000 /
b0 ,
b0 A
b0 E
b11010 -
b11010 >
b100000000 F
1#
b11000 %
b11000 *
b11000 &
b11000 +
b11000 H
#2180000
0#
#2190000
b1101000 3
b111 7
b10111 .
b10111 ?
b11000 <
b0 /
b1111100000000000000000000000000000000000000000000000000000000000000000000000000000000000000000000000000000000000000000000000000000000000000000000000000000000000000000000000000000000000000000000000000000000000000000000000000000000000000000000000000000000 1
b1111100000000000000000000000000000000000000000000000000000000000000000000000000000000000000000000000000000000000000000000000000000000000000000000000000000000000000000000000000000000000000000000000000000000000000000000000000000000000000000000000000000000 @
b11001 -
b11001 >
b100000000 F
1#
b10111 %
b10111 *
b10111 &
b10111 +
b10111 H
#2200000
0#
#2210000
b1101001 3
b110 7
b10110 .
b10110 ?
b10111 <
b0 1
b0 @
b11000 -
b11000 >
b100000000 F
1#
b10110 %
b10110 *
b10110 &
b10110 +
b10110 H
#2220000
0#
#2230000
b1101010 3
b101 7
b10101 .
b10101 ?
b10110 <
b10111 -
b10111 >
b100000000 F
1#
b10101 %
b10101 *
b10101 &
b10101 +
b10101 H
#2240000
0#
#2250000
b1101011 3
b100 7
b10100 .
b10100 ?
b10101 <
b10110 -
b10110 >
b100000000 F
1#
b10100 %
b10100 *
b10100 &
b10100 +
b10100 H
#2260000
0#
#2270000
b1101100 3
b11 7
b10011 .
b10011 ?
b10100 <
b10101 -
b10101 >
b100000000 F
1#
b10011 %
b10011 *
b10011 &
b10011 +
b10011 H
#2280000
0#
#2290000
b1101101 3
b10 7
b10010 .
b10010 ?
b10011 <
b10100 -
b10100 >
b100000000 F
1#
b10010 %
b10010 *
b10010 &
b10010 +
b10010 H
#2300000
0#
#2310000
b1101110 3
b1 7
b10001 .
b10001 ?
b10010 <
b10011 -
b10011 >
b100000000 F
1#
b10001 %
b10001 *
b10001 &
b10001 +
b10001 H
#2320000
0#
#2330000
b1101111 3
b0 7
b10000 .
b10000 ?
b10001 <
b10010 -
b10010 >
b100000000 F
1#
b10000 %
b10000 *
b10000 &
b10000 +
b10000 H
#2340000
0#
#2350000
b1110000 3
b111 7
b1111 .
b1111 ?
b10000 <
b10001 -
b10001 >
b100000000 F
1#
b1111 %
b1111 *
b1111 &
b1111 +
b1111 H
#2360000
0#
#2370000
b1110001 3
b110 7
b1110 .
b1110 ?
b1111 <
b10000 -
b10000 >
b100000000 F
1#
b1110 %
b1110 *
b1110 &
b1110 +
b1110 H
#2380000
0#
#2390000
b1110010 3
b101 7
b1101 .
b1101 ?
b1110 <
b1111 -
b1111 >
b100000000 F
1#
b1101 %
b1101 *
b1101 &
b1101 +
b1101 H
#2400000
0#
#2410000
b1110011 3
b100 7
b1100 .
b1100 ?
b1101 <
b1110 -
b1110 >
b100000000 F
1#
b1100 %
b1100 *
b1100 &
b1100 +
b1100 H
#2420000
0#
#2430000
b1110100 3
b11 7
b1011 .
b1011 ?
b1100 <
b1101 -
b1101 >
b100000000 F
1#
b1011 %
b1011 *
b1011 &
b1011 +
b1011 H
#2440000
0#
#2450000
b1110101 3
b10 7
b1010 .
b1010 ?
b1011 <
b1100 -
b1100 >
b100000000 F
1#
b1010 %
b1010 *
b1010 &
b1010 +
b1010 H
#2460000
0#
#2470000
b1110110 3
b1 7
b1001 .
b1001 ?
b1010 <
b1011 -
b1011 >
b100000000 F
1#
b1001 %
b1001 *
b1001 &
b1001 +
b1001 H
#2480000
0#
