matrix_compiler.vcd
$date
	Wed Dec 14 09:21:02 2022
$end
$version
	Icarus Verilog
$end
$timescale
	1ps
$end
$scope module matrix_compiler_tb $end
$var wire 1 ! valid_data_out $end
$var wire 1 " compile_done $end
$var wire 8 # byte_out [7:0] $end
$var reg 1 $ clk $end
$var reg 5 % col_addr [4:0] $end
$var reg 1 & data_request $end
$var reg 8 ' matrix_element [7:0] $end
$var reg 5 ( row_addr [4:0] $end
$var reg 1 ) rst $end
$var reg 1 * valid_data_in $end
$scope module uut $end
$var wire 5 + col_addr [4:0] $end
$var wire 1 & data_request $end
$var wire 1 $ eth_refclk $end
$var wire 1 $ inter_refclk $end
$var wire 8 , matrix_element [7:0] $end
$var wire 5 - row_addr [4:0] $end
$var wire 1 ) rst $end
$var wire 1 * valid_data_in $end
$var wire 8 . doutb [7:0] $end
$var reg 10 / addra [9:0] $end
$var reg 10 0 addrb [9:0] $end
$var reg 1 1 bram_rst $end
$var reg 1024 2 bram_tracker [1023:0] $end
$var reg 8 3 byte_out [7:0] $end
$var reg 1 " compile_done $end
$var reg 3 4 delay [2:0] $end
$var reg 8 5 dina [7:0] $end
$var reg 1 6 downtime $end
$var reg 2 7 element_counter [1:0] $end
$var reg 1 8 enb $end
$var reg 1 9 loading $end
$var reg 1 : old $end
$var reg 2 ; output_counter [1:0] $end
$var reg 1 < regceb $end
$var reg 1 = transmit $end
$var reg 1 ! valid_data_out $end
$var reg 1 > waiting $end
$var reg 1 ? wea $end
$scope module matrix_output $end
$var wire 10 @ addra [9:0] $end
$var wire 10 A addrb [9:0] $end
$var wire 1 $ clka $end
$var wire 1 $ clkb $end
$var wire 8 B dina [7:0] $end
$var wire 1 8 enb $end
$var wire 1 < regceb $end
$var wire 1 1 rstb $end
$var wire 1 ? wea $end
$var wire 8 C doutb [7:0] $end
$var reg 8 D ram_data [7:0] $end
$scope function clogb2 $end
$var integer 32 E depth [31:0] $end
$upscope $end
$scope begin init_bram_to_zero $end
$var integer 32 F ram_index [31:0] $end
$upscope $end
$scope begin output_register $end
$var reg 8 G doutb_reg [7:0] $end
$upscope $end
$upscope $end
$upscope $end
$scope begin $ivl_for_loop0 $end
$var integer 32 H i [31:0] $end
$scope begin $ivl_for_loop1 $end
$var integer 32 I j [31:0] $end
$upscope $end
$upscope $end
$scope begin $ivl_for_loop2 $end
$var integer 32 J i [31:0] $end
$upscope $end
$upscope $end
$enddefinitions $end
#0
$dumpvars
b0 J
b0 I
b0 H
b0 G
b10000000000 F
bx E
b0 D
b0 C
bx B
bx A
bx @
x?
x>
x=
x<
bx ;
x:
x9
x8
bx 7
x6
bx 5
bx 4
b0 3
bx 2
x1
bx 0
bx /
b0 .
bx -
bx ,
bx +
x*
0)
bx (
bx '
x&
bx %
0$
b0 #
x"
x!
$end
#10000
01
b0 ;
0:
b0 0
b0 A
0<
08
0!
1$
#20000
0$
#30000
b0 7
0"
b0 2
0?
09
16
11
1$
1)
#40000
0$
#50000
0!
01
1$
0)
#60000
0$
#70000
0!
1$
#80000
0$
#90000
0!
1$
#100000
0$
#110000
0!
b1 2
1?
19
06
1$
b0 %
b0 +
b0 (
b0 -
b10101010 '
b10101010 ,
1*
0&
#120000
0$
#130000
b11 2
b1 /
b1 @
b11111111 5
b11111111 B
0!
1$
b1 %
b1 +
b11111111 '
b11111111 ,
b1 I
#140000
0$
#150000
0!
b111 2
b10 /
b10 @
b10101010 5
b10101010 B
1$
b10 %
b10 +
b10101010 '
b10101010 ,
b10 I
#160000
0$
#170000
b1111 2
b11 /
b11 @
b11111111 5
b11111111 B
0!
1$
b11 %
b11 +
b11111111 '
b11111111 ,
b11 I
#180000
0$
#190000
0!
b11111 2
b100 /
b100 @
b10101010 5
b10101010 B
1$
b100 %
b100 +
b10101010 '
b10101010 ,
b100 I
#200000
0$
#210000
b111111 2
b101 /
b101 @
b11111111 5
b11111111 B
0!
1$
b101 %
b101 +
b11111111 '
b11111111 ,
b101 I
#220000
0$
#230000
0!
b1111111 2
b110 /
b110 @
b10101010 5
b10101010 B
1$
b110 %
b110 +
b10101010 '
b10101010 ,
b110 I
#240000
0$
#250000
b11111111 2
b111 /
b111 @
b11111111 5
b11111111 B
0!
1$
b111 %
b111 +
b11111111 '
b11111111 ,
b111 I
#260000
0$
#270000
0!
b111111111 2
b1000 /
b1000 @
b10101010 5
b10101010 B
1$
b1000 %
b1000 +
b10101010 '
b10101010 ,
b1000 I
#280000
0$
#290000
b1111111111 2
b1001 /
b1001 @
b11111111 5
b11111111 B
0!
1$
b1001 %
b1001 +
b11111111 '
b11111111 ,
b1001 I
#300000
0$
#310000
0!
b11111111111 2
b1010 /
b1010 @
b10101010 5
b10101010 B
1$
b1010 %
b1010 +
b10101010 '
b10101010 ,
b1010 I
#320000
0$
#330000
b111111111111 2
b1011 /
b1011 @
b11111111 5
b11111111 B
0!
1$
b1011 %
b1011 +
b11111111 '
b11111111 ,
b1011 I
#340000
0$
#350000
0!
b1111111111111 2
b1100 /
b1100 @
b10101010 5
b10101010 B
1$
b1100 %
b1100 +
b10101010 '
b10101010 ,
b1100 I
#360000
0$
#370000
b11111111111111 2
b1101 /
b1101 @
b11111111 5
b11111111 B
0!
1$
b1101 %
b1101 +
b11111111 '
b11111111 ,
b1101 I
#380000
0$
#390000
0!
b111111111111111 2
b1110 /
b1110 @
b10101010 5
b10101010 B
1$
b1110 %
b1110 +
b10101010 '
b10101010 ,
b1110 I
#400000
0$
#410000
b1111111111111111 2
b1111 /
b1111 @
b11111111 5
b11111111 B
0!
1$
b1111 %
b1111 +
b11111111 '
b11111111 ,
b1111 I
#420000
0$
#430000
0!
b11111111111111111 2
b10000 /
b10000 @
b10101010 5
b10101010 B
1$
b10000 %
b10000 +
b10101010 '
b10101010 ,
b10000 I
#440000
0$
#450000
b111111111111111111 2
b10001 /
b10001 @
b11111111 5
b11111111 B
0!
1$
b10001 %
b10001 +
b11111111 '
b11111111 ,
b10001 I
#460000
0$
#470000
0!
b1111111111111111111 2
b10010 /
b10010 @
b10101010 5
b10101010 B
1$
b10010 %
b10010 +
b10101010 '
b10101010 ,
b10010 I
#480000
0$
#490000
b11111111111111111111 2
b10011 /
b10011 @
b11111111 5
b11111111 B
0!
1$
b10011 %
b10011 +
b11111111 '
b11111111 ,
b10011 I
#500000
0$
#510000
0!
b111111111111111111111 2
b10100 /
b10100 @
b10101010 5
b10101010 B
1$
b10100 %
b10100 +
b10101010 '
b10101010 ,
b10100 I
#520000
0$
#530000
b1111111111111111111111 2
b10101 /
b10101 @
b11111111 5
b11111111 B
0!
1$
b10101 %
b10101 +
b11111111 '
b11111111 ,
b10101 I
#540000
0$
#550000
0!
b11111111111111111111111 2
b10110 /
b10110 @
b10101010 5
b10101010 B
1$
b10110 %
b10110 +
b10101010 '
b10101010 ,
b10110 I
#560000
0$
#570000
b111111111111111111111111 2
b10111 /
b10111 @
b11111111 5
b11111111 B
0!
1$
b10111 %
b10111 +
b11111111 '
b11111111 ,
b10111 I
#580000
0$
#590000
0!
b1111111111111111111111111 2
b11000 /
b11000 @
b10101010 5
b10101010 B
1$
b11000 %
b11000 +
b10101010 '
b10101010 ,
b11000 I
#600000
0$
#610000
b11111111111111111111111111 2
b11001 /
b11001 @
b11111111 5
b11111111 B
0!
1$
b11001 %
b11001 +
b11111111 '
b11111111 ,
b11001 I
#620000
0$
#630000
0!
b111111111111111111111111111 2
b11010 /
b11010 @
b10101010 5
b10101010 B
1$
b11010 %
b11010 +
b10101010 '
b10101010 ,
b11010 I
#640000
0$
#650000
b1111111111111111111111111111 2
b11011 /
b11011 @
b11111111 5
b11111111 B
0!
1$
b11011 %
b11011 +
b11111111 '
b11111111 ,
b11011 I
#660000
0$
#670000
0!
b11111111111111111111111111111 2
b11100 /
b11100 @
b10101010 5
b10101010 B
1$
b11100 %
b11100 +
b10101010 '
b10101010 ,
b11100 I
#680000
0$
#690000
b111111111111111111111111111111 2
b11101 /
b11101 @
b11111111 5
b11111111 B
0!
1$
b11101 %
b11101 +
b11111111 '
b11111111 ,
b11101 I
#700000
0$
#710000
0!
b1111111111111111111111111111111 2
b11110 /
b11110 @
b10101010 5
b10101010 B
1$
b11110 %
b11110 +
b10101010 '
b10101010 ,
b11110 I
#720000
0$
#730000
b11111111111111111111111111111111 2
b11111 /
b11111 @
b11111111 5
b11111111 B
0!
1$
b11111 %
b11111 +
b11111111 '
b11111111 ,
b11111 I
#740000
0$
#750000
0!
b111111111111111111111111111111111 2
b100000 /
b100000 @
b10101010 5
b10101010 B
1$
b0 %
b0 +
b1 (
b1 -
b10101010 '
b10101010 ,
b1 H
b0 I
#760000
0$
#770000
b1111111111111111111111111111111111 2
b100001 /
b100001 @
b11111111 5
b11111111 B
0!
1$
b1 %
b1 +
b11111111 '
b11111111 ,
b1 I
#780000
0$
#790000
0!
b11111111111111111111111111111111111 2
b100010 /
b100010 @
b10101010 5
b10101010 B
1$
b10 %
b10 +
b10101010 '
b10101010 ,
b10 I
#800000
0$
#810000
b111111111111111111111111111111111111 2
b100011 /
b100011 @
b11111111 5
b11111111 B
0!
1$
b11 %
b11 +
b11111111 '
b11111111 ,
b11 I
#820000
0$
#830000
0!
b1111111111111111111111111111111111111 2
b100100 /
b100100 @
b10101010 5
b10101010 B
1$
b100 %
b100 +
b10101010 '
b10101010 ,
b100 I
#840000
0$
#850000
b11111111111111111111111111111111111111 2
b100101 /
b100101 @
b11111111 5
b11111111 B
0!
1$
b101 %
b101 +
b11111111 '
b11111111 ,
b101 I
#860000
0$
#870000
0!
b111111111111111111111111111111111111111 2
b100110 /
b100110 @
b10101010 5
b10101010 B
1$
b110 %
b110 +
b10101010 '
b10101010 ,
b110 I
#880000
0$
#890000
b1111111111111111111111111111111111111111 2
b100111 /
b100111 @
b11111111 5
b11111111 B
0!
1$
b111 %
b111 +
b11111111 '
b11111111 ,
b111 I
#900000
0$
#910000
0!
b11111111111111111111111111111111111111111 2
b101000 /
b101000 @
b10101010 5
b10101010 B
1$
b1000 %
b1000 +
b10101010 '
b10101010 ,
b1000 I
#920000
0$
#930000
b111111111111111111111111111111111111111111 2
b101001 /
b101001 @
b11111111 5
b11111111 B
0!
1$
b1001 %
b1001 +
b11111111 '
b11111111 ,
b1001 I
#940000
0$
#950000
0!
b1111111111111111111111111111111111111111111 2
b101010 /
b101010 @
b10101010 5
b10101010 B
1$
b1010 %
b1010 +
b10101010 '
b10101010 ,
b1010 I
#960000
0$
#970000
b11111111111111111111111111111111111111111111 2
b101011 /
b101011 @
b11111111 5
b11111111 B
0!
1$
b1011 %
b1011 +
b11111111 '
b11111111 ,
b1011 I
#980000
0$
#990000
0!
b111111111111111111111111111111111111111111111 2
b101100 /
b101100 @
b10101010 5
b10101010 B
1$
b1100 %
b1100 +
b10101010 '
b10101010 ,
b1100 I
#1000000
0$
#1010000
b1111111111111111111111111111111111111111111111 2
b101101 /
b101101 @
b11111111 5
b11111111 B
0!
1$
b1101 %
b1101 +
b11111111 '
b11111111 ,
b1101 I
#1020000
0$
#1030000
0!
b11111111111111111111111111111111111111111111111 2
b101110 /
b101110 @
b10101010 5
b10101010 B
1$
b1110 %
b1110 +
b10101010 '
b10101010 ,
b1110 I
#1040000
0$
#1050000
b111111111111111111111111111111111111111111111111 2
b101111 /
b101111 @
b11111111 5
b11111111 B
0!
1$
b1111 %
b1111 +
b11111111 '
b11111111 ,
b1111 I
#1060000
0$
#1070000
0!
b1111111111111111111111111111111111111111111111111 2
b110000 /
b110000 @
b10101010 5
b10101010 B
1$
b10000 %
b10000 +
b10101010 '
b10101010 ,
b10000 I
#1080000
0$
#1090000
b11111111111111111111111111111111111111111111111111 2
b110001 /
b110001 @
b11111111 5
b11111111 B
0!
1$
b10001 %
b10001 +
b11111111 '
b11111111 ,
b10001 I
#1100000
0$
#1110000
0!
b111111111111111111111111111111111111111111111111111 2
b110010 /
b110010 @
b10101010 5
b10101010 B
1$
b10010 %
b10010 +
b10101010 '
b10101010 ,
b10010 I
#1120000
0$
#1130000
b1111111111111111111111111111111111111111111111111111 2
b110011 /
b110011 @
b11111111 5
b11111111 B
0!
1$
b10011 %
b10011 +
b11111111 '
b11111111 ,
b10011 I
#1140000
0$
#1150000
0!
b11111111111111111111111111111111111111111111111111111 2
b110100 /
b110100 @
b10101010 5
b10101010 B
1$
b10100 %
b10100 +
b10101010 '
b10101010 ,
b10100 I
#1160000
0$
#1170000
b111111111111111111111111111111111111111111111111111111 2
b110101 /
b110101 @
b11111111 5
b11111111 B
0!
1$
b10101 %
b10101 +
b11111111 '
b11111111 ,
b10101 I
#1180000
0$
#1190000
0!
b1111111111111111111111111111111111111111111111111111111 2
b110110 /
b110110 @
b10101010 5
b10101010 B
1$
b10110 %
b10110 +
b10101010 '
b10101010 ,
b10110 I
#1200000
0$
#1210000
b11111111111111111111111111111111111111111111111111111111 2
b110111 /
b110111 @
b11111111 5
b11111111 B
0!
1$
b10111 %
b10111 +
b11111111 '
b11111111 ,
b10111 I
#1220000
0$
#1230000
0!
b111111111111111111111111111111111111111111111111111111111 2
b111000 /
b111000 @
b10101010 5
b10101010 B
1$
b11000 %
b11000 +
b10101010 '
b10101010 ,
b11000 I
#1240000
0$
#1250000
b1111111111111111111111111111111111111111111111111111111111 2
b111001 /
b111001 @
b11111111 5
b11111111 B
0!
1$
b11001 %
b11001 +
b11111111 '
b11111111 ,
b11001 I
#1260000
0$
#1270000
0!
b11111111111111111111111111111111111111111111111111111111111 2
b111010 /
b111010 @
b10101010 5
b10101010 B
1$
b11010 %
b11010 +
b10101010 '
b10101010 ,
b11010 I
#1280000
0$
#1290000
b111111111111111111111111111111111111111111111111111111111111 2
b111011 /
b111011 @
b11111111 5
b11111111 B
0!
1$
b11011 %
b11011 +
b11111111 '
b11111111 ,
b11011 I
#1300000
0$
#1310000
0!
b1111111111111111111111111111111111111111111111111111111111111 2
b111100 /
b111100 @
b10101010 5
b10101010 B
1$
b11100 %
b11100 +
b10101010 '
b10101010 ,
b11100 I
#1320000
0$
#1330000
b11111111111111111111111111111111111111111111111111111111111111 2
b111101 /
b111101 @
b11111111 5
b11111111 B
0!
1$
b11101 %
b11101 +
b11111111 '
b11111111 ,
b11101 I
#1340000
0$
#1350000
0!
b111111111111111111111111111111111111111111111111111111111111111 2
b111110 /
b111110 @
b10101010 5
b10101010 B
1$
b11110 %
b11110 +
b10101010 '
b10101010 ,
b11110 I
#1360000
0$
#1370000
b1111111111111111111111111111111111111111111111111111111111111111 2
b111111 /
b111111 @
b11111111 5
b11111111 B
0!
1$
b11111 %
b11111 +
b11111111 '
b11111111 ,
b11111 I
#1380000
0$
#1390000
0!
b11111111111111111111111111111111111111111111111111111111111111111 2
b1000000 /
b1000000 @
b10101010 5
b10101010 B
1$
b0 %
b0 +
b10 (
b10 -
b10101010 '
b10101010 ,
b10 H
b0 I
#1400000
0$
#1410000
b111111111111111111111111111111111111111111111111111111111111111111 2
b1000001 /
b1000001 @
b11111111 5
b11111111 B
0!
1$
b1 %
b1 +
b11111111 '
b11111111 ,
b1 I
#1420000
0$
#1430000
0!
b1111111111111111111111111111111111111111111111111111111111111111111 2
b1000010 /
b1000010 @
b10101010 5
b10101010 B
1$
b10 %
b10 +
b10101010 '
b10101010 ,
b10 I
#1440000
0$
#1450000
b11111111111111111111111111111111111111111111111111111111111111111111 2
b1000011 /
b1000011 @
b11111111 5
b11111111 B
0!
1$
b11 %
b11 +
b11111111 '
b11111111 ,
b11 I
#1460000
0$
#1470000
0!
b111111111111111111111111111111111111111111111111111111111111111111111 2
b1000100 /
b1000100 @
b10101010 5
b10101010 B
1$
b100 %
b100 +
b10101010 '
b10101010 ,
b100 I
#1480000
0$
#1490000
b1111111111111111111111111111111111111111111111111111111111111111111111 2
b1000101 /
b1000101 @
b11111111 5
b11111111 B
0!
1$
b101 %
b101 +
b11111111 '
b11111111 ,
b101 I
#1500000
0$
#1510000
0!
b11111111111111111111111111111111111111111111111111111111111111111111111 2
b1000110 /
b1000110 @
b10101010 5
b10101010 B
1$
b110 %
b110 +
b10101010 '
b10101010 ,
b110 I
#1520000
0$
#1530000
b111111111111111111111111111111111111111111111111111111111111111111111111 2
b1000111 /
b1000111 @
b11111111 5
b11111111 B
0!
1$
b111 %
b111 +
b11111111 '
b11111111 ,
b111 I
#1540000
0$
#1550000
0!
b1111111111111111111111111111111111111111111111111111111111111111111111111 2
b1001000 /
b1001000 @
b10101010 5
b10101010 B
1$
b1000 %
b1000 +
b10101010 '
b10101010 ,
b1000 I
#1560000
0$
#1570000
b11111111111111111111111111111111111111111111111111111111111111111111111111 2
b1001001 /
b1001001 @
b11111111 5
b11111111 B
0!
1$
b1001 %
b1001 +
b11111111 '
b11111111 ,
b1001 I
#1580000
0$
#1590000
0!
b111111111111111111111111111111111111111111111111111111111111111111111111111 2
b1001010 /
b1001010 @
b10101010 5
b10101010 B
1$
b1010 %
b1010 +
b10101010 '
b10101010 ,
b1010 I
#1600000
0$
#1610000
b1111111111111111111111111111111111111111111111111111111111111111111111111111 2
b1001011 /
b1001011 @
b11111111 5
b11111111 B
0!
1$
b1011 %
b1011 +
b11111111 '
b11111111 ,
b1011 I
#1620000
0$
#1630000
0!
b11111111111111111111111111111111111111111111111111111111111111111111111111111 2
b1001100 /
b1001100 @
b10101010 5
b10101010 B
1$
b1100 %
b1100 +
b10101010 '
b10101010 ,
b1100 I
#1640000
0$
#1650000
b111111111111111111111111111111111111111111111111111111111111111111111111111111 2
b1001101 /
b1001101 @
b11111111 5
b11111111 B
0!
1$
b1101 %
b1101 +
b11111111 '
b11111111 ,
b1101 I
#1660000
0$
#1670000
0!
b1111111111111111111111111111111111111111111111111111111111111111111111111111111 2
b1001110 /
b1001110 @
b10101010 5
b10101010 B
1$
b1110 %
b1110 +
b10101010 '
b10101010 ,
b1110 I
#1680000
0$
#1690000
b11111111111111111111111111111111111111111111111111111111111111111111111111111111 2
b1001111 /
b1001111 @
b11111111 5
b11111111 B
0!
1$
b1111 %
b1111 +
b11111111 '
b11111111 ,
b1111 I
#1700000
0$
#1710000
0!
b111111111111111111111111111111111111111111111111111111111111111111111111111111111 2
b1010000 /
b1010000 @
b10101010 5
b10101010 B
1$
b10000 %
b10000 +
b10101010 '
b10101010 ,
b10000 I
#1720000
0$
#1730000
b1111111111111111111111111111111111111111111111111111111111111111111111111111111111 2
b1010001 /
b1010001 @
b11111111 5
b11111111 B
0!
1$
b10001 %
b10001 +
b11111111 '
b11111111 ,
b10001 I
#1740000
0$
#1750000
0!
b11111111111111111111111111111111111111111111111111111111111111111111111111111111111 2
b1010010 /
b1010010 @
b10101010 5
b10101010 B
1$
b10010 %
b10010 +
b10101010 '
b10101010 ,
b10010 I
#1760000
0$
#1770000
b111111111111111111111111111111111111111111111111111111111111111111111111111111111111 2
b1010011 /
b1010011 @
b11111111 5
b11111111 B
0!
1$
b10011 %
b10011 +
b11111111 '
b11111111 ,
b10011 I
#1780000
0$
#1790000
0!
b1111111111111111111111111111111111111111111111111111111111111111111111111111111111111 2
b1010100 /
b1010100 @
b10101010 5
b10101010 B
1$
b10100 %
b10100 +
b10101010 '
b10101010 ,
b10100 I
#1800000
0$
#1810000
b11111111111111111111111111111111111111111111111111111111111111111111111111111111111111 2
b1010101 /
b1010101 @
b11111111 5
b11111111 B
0!
1$
b10101 %
b10101 +
b11111111 '
b11111111 ,
b10101 I
#1820000
0$
#1830000
0!
b111111111111111111111111111111111111111111111111111111111111111111111111111111111111111 2
b1010110 /
b1010110 @
b10101010 5
b10101010 B
1$
b10110 %
b10110 +
b10101010 '
b10101010 ,
b10110 I
#1840000
0$
#1850000
b1111111111111111111111111111111111111111111111111111111111111111111111111111111111111111 2
b1010111 /
b1010111 @
b11111111 5
b11111111 B
0!
1$
b10111 %
b10111 +
b11111111 '
b11111111 ,
b10111 I
#1860000
0$
#1870000
0!
b11111111111111111111111111111111111111111111111111111111111111111111111111111111111111111 2
b1011000 /
b1011000 @
b10101010 5
b10101010 B
1$
b11000 %
b11000 +
b10101010 '
b10101010 ,
b11000 I
#1880000
0$
#1890000
b111111111111111111111111111111111111111111111111111111111111111111111111111111111111111111 2
b1011001 /
b1011001 @
b11111111 5
b11111111 B
0!
1$
b11001 %
b11001 +
b11111111 '
b11111111 ,
b11001 I
#1900000
0$
#1910000
0!
b1111111111111111111111111111111111111111111111111111111111111111111111111111111111111111111 2
b1011010 /
b1011010 @
b10101010 5
b10101010 B
1$
b11010 %
b11010 +
b10101010 '
b10101010 ,
b11010 I
#1920000
0$
#1930000
b11111111111111111111111111111111111111111111111111111111111111111111111111111111111111111111 2
b1011011 /
b1011011 @
b11111111 5
b11111111 B
0!
1$
b11011 %
b11011 +
b11111111 '
b11111111 ,
b11011 I
#1940000
0$
#1950000
0!
b111111111111111111111111111111111111111111111111111111111111111111111111111111111111111111111 2
b1011100 /
b1011100 @
b10101010 5
b10101010 B
1$
b11100 %
b11100 +
b10101010 '
b10101010 ,
b11100 I
#1960000
0$
#1970000
b1111111111111111111111111111111111111111111111111111111111111111111111111111111111111111111111 2
b1011101 /
b1011101 @
b11111111 5
b11111111 B
0!
1$
b11101 %
b11101 +
b11111111 '
b11111111 ,
b11101 I
#1980000
0$
#1990000
0!
b11111111111111111111111111111111111111111111111111111111111111111111111111111111111111111111111 2
b1011110 /
b1011110 @
b10101010 5
b10101010 B
1$
b11110 %
b11110 +
b10101010 '
b10101010 ,
b11110 I
#2000000
0$
#2010000
b111111111111111111111111111111111111111111111111111111111111111111111111111111111111111111111111 2
b1011111 /
b1011111 @
b11111111 5
b11111111 B
0!
1$
b11111 %
b11111 +
b11111111 '
b11111111 ,
b11111 I
#2020000
0$
#2030000
0!
b1111111111111111111111111111111111111111111111111111111111111111111111111111111111111111111111111 2
b1100000 /
b1100000 @
b10101010 5
b10101010 B
1$
b0 %
b0 +
b11 (
b11 -
b10101010 '
b10101010 ,
b11 H
b0 I
#2040000
0$
#2050000
b11111111111111111111111111111111111111111111111111111111111111111111111111111111111111111111111111 2
b1100001 /
b1100001 @
b11111111 5
b11111111 B
0!
1$
b1 %
b1 +
b11111111 '
b11111111 ,
b1 I
#2060000
0$
#2070000
0!
b111111111111111111111111111111111111111111111111111111111111111111111111111111111111111111111111111 2
b1100010 /
b1100010 @
b10101010 5
b10101010 B
1$
b10 %
b10 +
b10101010 '
b10101010 ,
b10 I
#2080000
0$
#2090000
b1111111111111111111111111111111111111111111111111111111111111111111111111111111111111111111111111111 2
b1100011 /
b1100011 @
b11111111 5
b11111111 B
0!
1$
b11 %
b11 +
b11111111 '
b11111111 ,
b11 I
#2100000
0$
#2110000
0!
b11111111111111111111111111111111111111111111111111111111111111111111111111111111111111111111111111111 2
b1100100 /
b1100100 @
b10101010 5
b10101010 B
1$
b100 %
b100 +
b10101010 '
b10101010 ,
b100 I
#2120000
0$
#2130000
b111111111111111111111111111111111111111111111111111111111111111111111111111111111111111111111111111111 2
b1100101 /
b1100101 @
b11111111 5
b11111111 B
0!
1$
b101 %
b101 +
b11111111 '
b11111111 ,
b101 I
#2140000
0$
#2150000
0!
b1111111111111111111111111111111111111111111111111111111111111111111111111111111111111111111111111111111 2
b1100110 /
b1100110 @
b10101010 5
b10101010 B
1$
b110 %
b110 +
b10101010 '
b10101010 ,
b110 I
#2160000
0$
#2170000
b11111111111111111111111111111111111111111111111111111111111111111111111111111111111111111111111111111111 2
b1100111 /
b1100111 @
b11111111 5
b11111111 B
0!
1$
b111 %
b111 +
b11111111 '
b11111111 ,
b111 I
#2180000
0$
#2190000
0!
b111111111111111111111111111111111111111111111111111111111111111111111111111111111111111111111111111111111 2
b1101000 /
b1101000 @
b10101010 5
b10101010 B
1$
b1000 %
b1000 +
b10101010 '
b10101010 ,
b1000 I
#2200000
0$
#2210000
b1111111111111111111111111111111111111111111111111111111111111111111111111111111111111111111111111111111111 2
b1101001 /
b1101001 @
b11111111 5
b11111111 B
0!
1$
b1001 %
b1001 +
b11111111 '
b11111111 ,
b1001 I
#2220000
0$
#2230000
0!
b11111111111111111111111111111111111111111111111111111111111111111111111111111111111111111111111111111111111 2
b1101010 /
b1101010 @
b10101010 5
b10101010 B
1$
b1010 %
b1010 +
b10101010 '
b10101010 ,
b1010 I
#2240000
0$
#2250000
b111111111111111111111111111111111111111111111111111111111111111111111111111111111111111111111111111111111111 2
b1101011 /
b1101011 @
b11111111 5
b11111111 B
0!
1$
b1011 %
b1011 +
b11111111 '
b11111111 ,
b1011 I
#2260000
0$
#2270000
0!
b1111111111111111111111111111111111111111111111111111111111111111111111111111111111111111111111111111111111111 2
b1101100 /
b1101100 @
b10101010 5
b10101010 B
1$
b1100 %
b1100 +
b10101010 '
b10101010 ,
b1100 I
#2280000
0$
#2290000
b11111111111111111111111111111111111111111111111111111111111111111111111111111111111111111111111111111111111111 2
b1101101 /
b1101101 @
b11111111 5
b11111111 B
0!
1$
b1101 %
b1101 +
b11111111 '
b11111111 ,
b1101 I
#2300000
0$
#2310000
0!
b111111111111111111111111111111111111111111111111111111111111111111111111111111111111111111111111111111111111111 2
b1101110 /
b1101110 @
b10101010 5
b10101010 B
1$
b1110 %
b1110 +
b10101010 '
b10101010 ,
b1110 I
#2320000
0$
#2330000
b1111111111111111111111111111111111111111111111111111111111111111111111111111111111111111111111111111111111111111 2
b1101111 /
b1101111 @
b11111111 5
b11111111 B
0!
1$
b1111 %
b1111 +
b11111111 '
b11111111 ,
b1111 I
#2340000
0$
#2350000
0!
b11111111111111111111111111111111111111111111111111111111111111111111111111111111111111111111111111111111111111111 2
b1110000 /
b1110000 @
b10101010 5
b10101010 B
1$
b10000 %
b10000 +
b10101010 '
b10101010 ,
b10000 I
#2360000
0$
#2370000
b111111111111111111111111111111111111111111111111111111111111111111111111111111111111111111111111111111111111111111 2
b1110001 /
b1110001 @
b11111111 5
b11111111 B
0!
1$
b10001 %
b10001 +
b11111111 '
b11111111 ,
b10001 I
#2380000
0$
#2390000
0!
b1111111111111111111111111111111111111111111111111111111111111111111111111111111111111111111111111111111111111111111 2
b1110010 /
b1110010 @
b10101010 5
b10101010 B
1$
b10010 %
b10010 +
b10101010 '
b10101010 ,
b10010 I
#2400000
0$
#2410000
b11111111111111111111111111111111111111111111111111111111111111111111111111111111111111111111111111111111111111111111 2
b1110011 /
b1110011 @
b11111111 5
b11111111 B
0!
1$
b10011 %
b10011 +
b11111111 '
b11111111 ,
b10011 I
#2420000
0$
#2430000
0!
b111111111111111111111111111111111111111111111111111111111111111111111111111111111111111111111111111111111111111111111 2
b1110100 /
b1110100 @
b10101010 5
b10101010 B
1$
b10100 %
b10100 +
b10101010 '
b10101010 ,
b10100 I
#2440000
0$
#2450000
b1111111111111111111111111111111111111111111111111111111111111111111111111111111111111111111111111111111111111111111111 2
b1110101 /
b1110101 @
b11111111 5
b11111111 B
0!
1$
b10101 %
b10101 +
b11111111 '
b11111111 ,
b10101 I
#2460000
0$
#2470000
0!
b11111111111111111111111111111111111111111111111111111111111111111111111111111111111111111111111111111111111111111111111 2
b1110110 /
b1110110 @
b10101010 5
b10101010 B
1$
b10110 %
b10110 +
b10101010 '
b10101010 ,
b10110 I
#2480000
0$
#2490000
b111111111111111111111111111111111111111111111111111111111111111111111111111111111111111111111111111111111111111111111111 2
b1110111 /
b1110111 @
b11111111 5
b11111111 B
0!
1$
b10111 %
b10111 +
b11111111 '
b11111111 ,
b10111 I
#2500000
0$
#2510000
0!
b1111111111111111111111111111111111111111111111111111111111111111111111111111111111111111111111111111111111111111111111111 2
b1111000 /
b1111000 @
b10101010 5
b10101010 B
1$
b11000 %
b11000 +
b10101010 '
b10101010 ,
b11000 I
#2520000
0$
#2530000
b11111111111111111111111111111111111111111111111111111111111111111111111111111111111111111111111111111111111111111111111111 2
b1111001 /
b1111001 @
b11111111 5
b11111111 B
0!
1$
b11001 %
b11001 +
b11111111 '
b11111111 ,
b11001 I
#2540000
0$
#2550000
0!
b111111111111111111111111111111111111111111111111111111111111111111111111111111111111111111111111111111111111111111111111111 2
b1111010 /
b1111010 @
b10101010 5
b10101010 B
1$
b11010 %
b11010 +
b10101010 '
b10101010 ,
b11010 I
#2560000
0$
#2570000
b1111111111111111111111111111111111111111111111111111111111111111111111111111111111111111111111111111111111111111111111111111 2
b1111011 /
b1111011 @
b11111111 5
b11111111 B
0!
1$
b11011 %
b11011 +
b11111111 '
b11111111 ,
b11011 I
#2580000
0$
#2590000
0!
b11111111111111111111111111111111111111111111111111111111111111111111111111111111111111111111111111111111111111111111111111111 2
b1111100 /
b1111100 @
b10101010 5
b10101010 B
1$
b11100 %
b11100 +
b10101010 '
b10101010 ,
b11100 I
#2600000
0$
#2610000
b111111111111111111111111111111111111111111111111111111111111111111111111111111111111111111111111111111111111111111111111111111 2
b1111101 /
b1111101 @
b11111111 5
b11111111 B
0!
1$
b11101 %
b11101 +
b11111111 '
b11111111 ,
b11101 I
#2620000
0$
#2630000
0!
b1111111111111111111111111111111111111111111111111111111111111111111111111111111111111111111111111111111111111111111111111111111 2
b1111110 /
b1111110 @
b10101010 5
b10101010 B
1$
b11110 %
b11110 +
b10101010 '
b10101010 ,
b11110 I
#2640000
0$
#2650000
b11111111111111111111111111111111111111111111111111111111111111111111111111111111111111111111111111111111111111111111111111111111 2
b1111111 /
b1111111 @
b11111111 5
b11111111 B
0!
1$
b11111 %
b11111 +
b11111111 '
b11111111 ,
b11111 I
#2660000
0$
#2670000
0!
b111111111111111111111111111111111111111111111111111111111111111111111111111111111111111111111111111111111111111111111111111111111 2
b10000000 /
b10000000 @
b10101010 5
b10101010 B
1$
b0 %
b0 +
b100 (
b100 -
b10101010 '
b10101010 ,
b100 H
b0 I
#2680000
0$
