matrix_loader.vcd
$date
	Tue Dec 13 10:23:08 2022
$end
$version
	Icarus Verilog
$end
$timescale
	1ps
$end
$scope module matrix_loader_tb $end
$var wire 1 ! complete $end
$var wire 256 " b_col_out [255:0] $end
$var wire 5 # addr_out [4:0] $end
$var wire 256 $ a_row_out [255:0] $end
$var reg 2 % axiid [1:0] $end
$var reg 1 & axiiv $end
$var reg 1 ' clk $end
$var reg 5 ( requested_a_row [4:0] $end
$var reg 5 ) requested_b_col [4:0] $end
$var reg 1 * rst $end
$scope module uut $end
$var wire 1 + A_enb $end
$var wire 1 , A_regceb $end
$var wire 1 - A_wea $end
$var wire 1 . B_enb $end
$var wire 1 / B_regceb $end
$var wire 1 0 B_wea $end
$var wire 2 1 axiid [1:0] $end
$var wire 1 & axiiv $end
$var wire 1 ' eth_refclk $end
$var wire 1 ' inter_refclk $end
$var wire 5 2 requested_a_row [4:0] $end
$var wire 5 3 requested_b_col [4:0] $end
$var wire 1 * rst $end
$var wire 256 4 b_col_out [255:0] $end
$var wire 256 5 A_matrix_out [255:0] $end
$var reg 5 6 A_addra [4:0] $end
$var reg 5 7 A_addrb [4:0] $end
$var reg 256 8 A_dina [255:0] $end
$var reg 5 9 B_addra [4:0] $end
$var reg 5 : B_addrb [4:0] $end
$var reg 256 ; B_dina [255:0] $end
$var reg 256 < a_row_out [255:0] $end
$var reg 5 = addr_out [4:0] $end
$var reg 1 > bad $end
$var reg 1 ? bram_rst $end
$var reg 1 ! complete $end
$var reg 1 @ downtime $end
$var reg 6 A element_buffer [5:0] $end
$var reg 2 B element_counter [1:0] $end
$var reg 1 C loading $end
$var reg 10 D matrix_counter [9:0] $end
$var reg 256 E row_buffer [255:0] $end
$var reg 1 F transmitting $end
$scope module Matrix_A_BRAM $end
$var wire 5 G addra [4:0] $end
$var wire 5 H addrb [4:0] $end
$var wire 1 ' clka $end
$var wire 1 ' clkb $end
$var wire 256 I dina [255:0] $end
$var wire 1 + enb $end
$var wire 1 , regceb $end
$var wire 1 * rstb $end
$var wire 1 - wea $end
$var wire 256 J doutb [255:0] $end
$var reg 256 K ram_data [255:0] $end
$scope function clogb2 $end
$var integer 32 L depth [31:0] $end
$upscope $end
$scope begin init_bram_to_zero $end
$var integer 32 M ram_index [31:0] $end
$upscope $end
$scope begin output_register $end
$var reg 256 N doutb_reg [255:0] $end
$upscope $end
$upscope $end
$scope module Matrix_B_BRAM $end
$var wire 5 O addra [4:0] $end
$var wire 5 P addrb [4:0] $end
$var wire 1 ' clka $end
$var wire 1 ' clkb $end
$var wire 256 Q dina [255:0] $end
$var wire 1 . enb $end
$var wire 1 / regceb $end
$var wire 1 * rstb $end
$var wire 1 0 wea $end
$var wire 256 R doutb [255:0] $end
$var reg 256 S ram_data [255:0] $end
$scope function clogb2 $end
$var integer 32 T depth [31:0] $end
$upscope $end
$scope begin init_bram_to_zero $end
$var integer 32 U ram_index [31:0] $end
$upscope $end
$scope begin output_register $end
$var reg 256 V doutb_reg [255:0] $end
$upscope $end
$upscope $end
$upscope $end
$scope begin $ivl_for_loop0 $end
$var integer 32 W i [31:0] $end
$scope begin $ivl_for_loop1 $end
$var integer 32 X j [31:0] $end
$scope begin $ivl_for_loop2 $end
$var integer 32 Y k [31:0] $end
$upscope $end
$upscope $end
$upscope $end
$scope begin $ivl_for_loop3 $end
$var integer 32 Z i [31:0] $end
$upscope $end
$upscope $end
$enddefinitions $end
#0
$dumpvars
b0 Z
b0 Y
b0 X
b0 W
b0 V
b100000 U
bx T
b0 S
b0 R
bx Q
bx P
bx O
b0 N
b100000 M
bx L
b0 K
b0 J
bx I
bx H
bx G
xF
bx E
bx D
xC
bx B
bx A
x@
x?
x>
bx =
bx <
bx ;
bx :
bx 9
bx 8
bx 7
bx 6
b0 5
b0 4
bx 3
bx 2
bx 1
00
0/
0.
0-
0,
0+
0*
bx )
bx (
0'
x&
bx %
bx $
bx #
b0 "
x!
$end
#10000
1'
#20000
0'
#30000
b0 D
b0 B
0C
1@
1?
1'
1*
#40000
0'
#50000
x?
1'
0*
#60000
0'
#70000
1'
#80000
0'
#90000
1'
#100000
0'
#110000
b1 D
b0 E
1C
0@
1'
b0 %
b0 1
1&
#120000
0'
#130000
b0xxxx A
b1 B
1'
b1 Y
#140000
0'
#150000
b0xx A
b10 B
1'
b10 Y
#160000
0'
#170000
b0 A
b11 B
1'
b11 Y
#180000
0'
#190000
b110000000000000000000000000000000000000000000000000000000000000000000000000000000000000000000000000000000000000000000000000000000000000000000000000000000000000000000000000000000000000000000000000000000000000000000000000000000000000000000000000000000 E
b10 D
b0 B
1'
b11 %
b11 1
b1 X
b0 Y
#200000
0'
#210000
b110000 A
b1 B
1'
b1 Y
#220000
0'
#230000
b111100 A
b10 B
1'
b10 Y
#240000
0'
#250000
b111111 A
b11 B
1'
b11 Y
#260000
0'
#270000
b11111111000000000000000000000000000000000000000000000000000000000000000000000000000000000000000000000000000000000000000000000000000000000000000000000000000000000000000000000000000000000000000000000000000000000000000000000000000000000000000000000000000000 E
b11 D
b0 B
1'
b10 X
b0 Y
#280000
0'
#290000
b1 B
1'
b1 Y
#300000
0'
#310000
b10 B
1'
b10 Y
#320000
0'
#330000
b11 B
1'
b11 Y
#340000
0'
#350000
b11111111100000000000000000000000000000000000000000000000000000000000000000000000000000000000000000000000000000000000000000000000000000000000000000000000000000000000000000000000000000000000000000000000000000000000000000000000000000000000000000000000000000 E
b100 D
b0 B
1'
b11 X
b0 Y
#360000
0'
#370000
b1 B
1'
b1 Y
#380000
0'
#390000
b10 B
1'
b10 Y
#400000
0'
#410000
b11 B
1'
b11 Y
#420000
0'
#430000
b11111111110000000000000000000000000000000000000000000000000000000000000000000000000000000000000000000000000000000000000000000000000000000000000000000000000000000000000000000000000000000000000000000000000000000000000000000000000000000000000000000000000000 E
b101 D
b0 B
1'
b100 X
b0 Y
#440000
0'
#450000
b1 B
1'
b1 Y
#460000
0'
#470000
b10 B
1'
b10 Y
#480000
0'
#490000
b11 B
1'
b11 Y
#500000
0'
#510000
b11111111111000000000000000000000000000000000000000000000000000000000000000000000000000000000000000000000000000000000000000000000000000000000000000000000000000000000000000000000000000000000000000000000000000000000000000000000000000000000000000000000000000 E
b110 D
b0 B
1'
b101 X
b0 Y
#520000
0'
#530000
b1 B
1'
b1 Y
#540000
0'
#550000
b10 B
1'
b10 Y
#560000
0'
#570000
b11 B
1'
b11 Y
#580000
0'
#590000
b11111111111100000000000000000000000000000000000000000000000000000000000000000000000000000000000000000000000000000000000000000000000000000000000000000000000000000000000000000000000000000000000000000000000000000000000000000000000000000000000000000000000000 E
b111 D
b0 B
1'
b110 X
b0 Y
#600000
0'
#610000
b1 B
1'
b1 Y
#620000
0'
#630000
b10 B
1'
b10 Y
#640000
0'
#650000
b11 B
1'
b11 Y
#660000
0'
#670000
b11111111111110000000000000000000000000000000000000000000000000000000000000000000000000000000000000000000000000000000000000000000000000000000000000000000000000000000000000000000000000000000000000000000000000000000000000000000000000000000000000000000000000 E
b1000 D
b0 B
1'
b111 X
b0 Y
#680000
0'
#690000
b1 B
1'
b1 Y
#700000
0'
#710000
b10 B
1'
b10 Y
#720000
0'
#730000
b11 B
1'
b11 Y
#740000
0'
#750000
b11111111111111000000000000000000000000000000000000000000000000000000000000000000000000000000000000000000000000000000000000000000000000000000000000000000000000000000000000000000000000000000000000000000000000000000000000000000000000000000000000000000000000 E
b1001 D
b0 B
1'
b1000 X
b0 Y
#760000
0'
#770000
b1 B
1'
b1 Y
#780000
0'
#790000
b10 B
1'
b10 Y
#800000
0'
#810000
b11 B
1'
b11 Y
#820000
0'
#830000
b11111111111111100000000000000000000000000000000000000000000000000000000000000000000000000000000000000000000000000000000000000000000000000000000000000000000000000000000000000000000000000000000000000000000000000000000000000000000000000000000000000000000000 E
b1010 D
b0 B
1'
b1001 X
b0 Y
#840000
0'
#850000
b1 B
1'
b1 Y
#860000
0'
#870000
b10 B
1'
b10 Y
#880000
0'
#890000
b11 B
1'
b11 Y
#900000
0'
#910000
b11111111111111110000000000000000000000000000000000000000000000000000000000000000000000000000000000000000000000000000000000000000000000000000000000000000000000000000000000000000000000000000000000000000000000000000000000000000000000000000000000000000000000 E
b1011 D
b0 B
1'
b1010 X
b0 Y
#920000
0'
#930000
b1 B
1'
b1 Y
#940000
0'
#950000
b10 B
1'
b10 Y
#960000
0'
#970000
b11 B
1'
b11 Y
#980000
0'
#990000
b11111111111111111000000000000000000000000000000000000000000000000000000000000000000000000000000000000000000000000000000000000000000000000000000000000000000000000000000000000000000000000000000000000000000000000000000000000000000000000000000000000000000000 E
b1100 D
b0 B
1'
b1011 X
b0 Y
#1000000
0'
#1010000
b1 B
1'
b1 Y
#1020000
0'
#1030000
b10 B
1'
b10 Y
#1040000
0'
#1050000
b11 B
1'
b11 Y
#1060000
0'
#1070000
b11111111111111111100000000000000000000000000000000000000000000000000000000000000000000000000000000000000000000000000000000000000000000000000000000000000000000000000000000000000000000000000000000000000000000000000000000000000000000000000000000000000000000 E
b1101 D
b0 B
1'
b1100 X
b0 Y
#1080000
0'
#1090000
b1 B
1'
b1 Y
#1100000
0'
#1110000
b10 B
1'
b10 Y
#1120000
0'
#1130000
b11 B
1'
b11 Y
#1140000
0'
#1150000
b11111111111111111110000000000000000000000000000000000000000000000000000000000000000000000000000000000000000000000000000000000000000000000000000000000000000000000000000000000000000000000000000000000000000000000000000000000000000000000000000000000000000000 E
b1110 D
b0 B
1'
b1101 X
b0 Y
#1160000
0'
#1170000
b1 B
1'
b1 Y
#1180000
0'
#1190000
b10 B
1'
b10 Y
#1200000
0'
#1210000
b11 B
1'
b11 Y
#1220000
0'
#1230000
b11111111111111111111000000000000000000000000000000000000000000000000000000000000000000000000000000000000000000000000000000000000000000000000000000000000000000000000000000000000000000000000000000000000000000000000000000000000000000000000000000000000000000 E
b1111 D
b0 B
1'
b1110 X
b0 Y
#1240000
0'
#1250000
b1 B
1'
b1 Y
#1260000
0'
#1270000
b10 B
1'
b10 Y
#1280000
0'
#1290000
b11 B
1'
b11 Y
#1300000
0'
#1310000
b11111111111111111111100000000000000000000000000000000000000000000000000000000000000000000000000000000000000000000000000000000000000000000000000000000000000000000000000000000000000000000000000000000000000000000000000000000000000000000000000000000000000000 E
b10000 D
b0 B
1'
b1111 X
b0 Y
#1320000
0'
#1330000
b1 B
1'
b1 Y
#1340000
0'
#1350000
b10 B
1'
b10 Y
#1360000
0'
#1370000
b11 B
1'
b11 Y
#1380000
0'
#1390000
b11111111111111111111110000000000000000000000000000000000000000000000000000000000000000000000000000000000000000000000000000000000000000000000000000000000000000000000000000000000000000000000000000000000000000000000000000000000000000000000000000000000000000 E
b10001 D
b0 B
1'
b10000 X
b0 Y
#1400000
0'
#1410000
b1 B
1'
b1 Y
#1420000
0'
#1430000
b10 B
1'
b10 Y
#1440000
0'
#1450000
b11 B
1'
b11 Y
#1460000
0'
#1470000
b11111111111111111111111000000000000000000000000000000000000000000000000000000000000000000000000000000000000000000000000000000000000000000000000000000000000000000000000000000000000000000000000000000000000000000000000000000000000000000000000000000000000000 E
b10010 D
b0 B
1'
b10001 X
b0 Y
#1480000
0'
#1490000
b1 B
1'
b1 Y
#1500000
0'
#1510000
b10 B
1'
b10 Y
#1520000
0'
#1530000
b11 B
1'
b11 Y
#1540000
0'
#1550000
b11111111111111111111111100000000000000000000000000000000000000000000000000000000000000000000000000000000000000000000000000000000000000000000000000000000000000000000000000000000000000000000000000000000000000000000000000000000000000000000000000000000000000 E
b10011 D
b0 B
1'
b10010 X
b0 Y
#1560000
0'
#1570000
b1 B
1'
b1 Y
#1580000
0'
#1590000
b10 B
1'
b10 Y
#1600000
0'
#1610000
b11 B
1'
b11 Y
#1620000
0'
#1630000
b11111111111111111111111110000000000000000000000000000000000000000000000000000000000000000000000000000000000000000000000000000000000000000000000000000000000000000000000000000000000000000000000000000000000000000000000000000000000000000000000000000000000000 E
b10100 D
b0 B
1'
b10011 X
b0 Y
#1640000
0'
#1650000
b1 B
1'
b1 Y
#1660000
0'
#1670000
b10 B
1'
b10 Y
#1680000
0'
#1690000
b11 B
1'
b11 Y
#1700000
0'
#1710000
b11111111111111111111111111000000000000000000000000000000000000000000000000000000000000000000000000000000000000000000000000000000000000000000000000000000000000000000000000000000000000000000000000000000000000000000000000000000000000000000000000000000000000 E
b10101 D
b0 B
1'
b10100 X
b0 Y
#1720000
0'
#1730000
b1 B
1'
b1 Y
#1740000
0'
#1750000
b10 B
1'
b10 Y
#1760000
0'
#1770000
b11 B
1'
b11 Y
#1780000
0'
#1790000
b11111111111111111111111111100000000000000000000000000000000000000000000000000000000000000000000000000000000000000000000000000000000000000000000000000000000000000000000000000000000000000000000000000000000000000000000000000000000000000000000000000000000000 E
b10110 D
b0 B
1'
b10101 X
b0 Y
#1800000
0'
#1810000
b1 B
1'
b1 Y
#1820000
0'
#1830000
b10 B
1'
b10 Y
#1840000
0'
#1850000
b11 B
1'
b11 Y
#1860000
0'
#1870000
b11111111111111111111111111110000000000000000000000000000000000000000000000000000000000000000000000000000000000000000000000000000000000000000000000000000000000000000000000000000000000000000000000000000000000000000000000000000000000000000000000000000000000 E
b10111 D
b0 B
1'
b10110 X
b0 Y
#1880000
0'
#1890000
b1 B
1'
b1 Y
#1900000
0'
#1910000
b10 B
1'
b10 Y
#1920000
0'
#1930000
b11 B
1'
b11 Y
#1940000
0'
#1950000
b11111111111111111111111111111000000000000000000000000000000000000000000000000000000000000000000000000000000000000000000000000000000000000000000000000000000000000000000000000000000000000000000000000000000000000000000000000000000000000000000000000000000000 E
b11000 D
b0 B
1'
b10111 X
b0 Y
#1960000
0'
#1970000
b1 B
1'
b1 Y
#1980000
0'
#1990000
b10 B
1'
b10 Y
#2000000
0'
#2010000
b11 B
1'
b11 Y
#2020000
0'
#2030000
b11111111111111111111111111111100000000000000000000000000000000000000000000000000000000000000000000000000000000000000000000000000000000000000000000000000000000000000000000000000000000000000000000000000000000000000000000000000000000000000000000000000000000 E
b11001 D
b0 B
1'
b11000 X
b0 Y
#2040000
0'
#2050000
b1 B
1'
b1 Y
#2060000
0'
#2070000
b10 B
1'
b10 Y
#2080000
0'
#2090000
b11 B
1'
b11 Y
#2100000
0'
#2110000
b11111111111111111111111111111110000000000000000000000000000000000000000000000000000000000000000000000000000000000000000000000000000000000000000000000000000000000000000000000000000000000000000000000000000000000000000000000000000000000000000000000000000000 E
b11010 D
b0 B
1'
b11001 X
b0 Y
#2120000
0'
#2130000
b1 B
1'
b1 Y
#2140000
0'
#2150000
b10 B
1'
b10 Y
#2160000
0'
#2170000
b11 B
1'
b11 Y
#2180000
0'
#2190000
b11111111111111111111111111111111000000000000000000000000000000000000000000000000000000000000000000000000000000000000000000000000000000000000000000000000000000000000000000000000000000000000000000000000000000000000000000000000000000000000000000000000000000 E
b11011 D
b0 B
1'
b11010 X
b0 Y
#2200000
0'
#2210000
b1 B
1'
b1 Y
#2220000
0'
#2230000
b10 B
1'
b10 Y
#2240000
0'
#2250000
b11 B
1'
b11 Y
#2260000
0'
#2270000
b11111111111111111111111111111111100000000000000000000000000000000000000000000000000000000000000000000000000000000000000000000000000000000000000000000000000000000000000000000000000000000000000000000000000000000000000000000000000000000000000000000000000000 E
b11100 D
b0 B
1'
b11011 X
b0 Y
#2280000
0'
#2290000
b1 B
1'
b1 Y
#2300000
0'
#2310000
b10 B
1'
b10 Y
#2320000
0'
#2330000
b11 B
1'
b11 Y
#2340000
0'
#2350000
b11111111111111111111111111111111110000000000000000000000000000000000000000000000000000000000000000000000000000000000000000000000000000000000000000000000000000000000000000000000000000000000000000000000000000000000000000000000000000000000000000000000000000 E
b11101 D
b0 B
1'
b11100 X
b0 Y
#2360000
0'
#2370000
b1 B
1'
b1 Y
#2380000
0'
#2390000
b10 B
1'
b10 Y
#2400000
0'
#2410000
b11 B
1'
b11 Y
#2420000
0'
#2430000
b11111111111111111111111111111111111000000000000000000000000000000000000000000000000000000000000000000000000000000000000000000000000000000000000000000000000000000000000000000000000000000000000000000000000000000000000000000000000000000000000000000000000000 E
b11110 D
b0 B
1'
b11101 X
b0 Y
#2440000
0'
#2450000
b1 B
1'
b1 Y
#2460000
0'
#2470000
b10 B
1'
b10 Y
#2480000
0'
#2490000
b11 B
1'
b11 Y
#2500000
0'
#2510000
b11111111111111111111111111111111111100000000000000000000000000000000000000000000000000000000000000000000000000000000000000000000000000000000000000000000000000000000000000000000000000000000000000000000000000000000000000000000000000000000000000000000000000 E
b11111 D
b0 B
1'
b11110 X
b0 Y
#2520000
0'
#2530000
b1 B
1'
b1 Y
#2540000
0'
#2550000
b10 B
1'
b10 Y
#2560000
0'
#2570000
b11 B
1'
b11 Y
#2580000
0'
#2590000
b11111111111111111111111111111111111110000000000000000000000000000000000000000000000000000000000000000000000000000000000000000000000000000000000000000000000000000000000000000000000000000000000000000000000000000000000000000000000000000000000000000000000000 E
b100000 D
b0 B
1'
b11111 X
b0 Y
#2600000
0'
#2610000
b1 B
1'
b1 Y
#2620000
0'
#2630000
b10 B
1'
b10 Y
#2640000
0'
#2650000
b11 B
1'
b11 Y
#2660000
0'
#2670000
b1111111111111111111111111111111111111110000000000000000000000000000000000000000000000000000000000000000000000000000000000000000000000000000000000000000000000000000000000000000000000000000000000000000000000000000000000000000000000000000000000000000000000000 E
b0 #
b0 =
b11111111111111111111111111111111111110000000000000000000000000000000000000000000000000000000000000000000000000000000000000000000000000000000000000000000000000000000000000000000000000000000000000000000000000000000000000000000000000000000000000000000000000 $
b11111111111111111111111111111111111110000000000000000000000000000000000000000000000000000000000000000000000000000000000000000000000000000000000000000000000000000000000000000000000000000000000000000000000000000000000000000000000000000000000000000000000000 <
b100001 D
b0 B
1'
b1 W
b0 X
b0 Y
#2680000
0'
#2690000
b1 B
1'
b1 Y
#2700000
0'
#2710000
b10 B
1'
b10 Y
#2720000
0'
#2730000
b11 B
1'
b11 Y
#2740000
0'
#2750000
b1111111001111111111111111111111111111110000000000000000000000000000000000000000000000000000000000000000000000000000000000000000000000000000000000000000000000000000000000000000000000000000000000000000000000000000000000000000000000000000000000000000000000000 E
b100010 D
b0 B
1'
b0 %
b0 1
b1 X
b0 Y
#2760000
0'
#2770000
b1111 A
b1 B
1'
b1 Y
#2780000
0'
#2790000
b11 A
b10 B
1'
b10 Y
#2800000
0'
#2810000
b0 A
b11 B
1'
b11 Y
#2820000
0'
#2830000
b1100000011111111111111111111111111111110000000000000000000000000000000000000000000000000000000000000000000000000000000000000000000000000000000000000000000000000000000000000000000000000000000000000000000000000000000000000000000000000000000000000000000000000 E
b100011 D
b0 B
1'
b11 %
b11 1
b10 X
b0 Y
#2840000
0'
#2850000
b110000 A
b1 B
1'
b1 Y
#2860000
0'
#2870000
b111100 A
b10 B
1'
b10 Y
#2880000
0'
#2890000
b111111 A
b11 B
1'
b11 Y
#2900000
0'
#2910000
b1101111111111111111111111111111111111110000000000000000000000000000000000000000000000000000000000000000000000000000000000000000000000000000000000000000000000000000000000000000000000000000000000000000000000000000000000000000000000000000000000000000000000000 E
b100100 D
b0 B
1'
b11 X
b0 Y
#2920000
0'
#2930000
b1 B
1'
b1 Y
#2940000
0'
#2950000
b10 B
1'
b10 Y
#2960000
0'
#2970000
b11 B
1'
b11 Y
#2980000
0'
#2990000
b100101 D
b0 B
1'
b100 X
b0 Y
#3000000
0'
#3010000
b1 B
1'
b1 Y
#3020000
0'
#3030000
b10 B
1'
b10 Y
#3040000
0'
#3050000
b11 B
1'
b11 Y
#3060000
0'
#3070000
b100110 D
b0 B
1'
b101 X
b0 Y
#3080000
0'
#3090000
b1 B
1'
b1 Y
#3100000
0'
#3110000
b10 B
1'
b10 Y
#3120000
0'
#3130000
b11 B
1'
b11 Y
#3140000
0'
#3150000
b100111 D
b0 B
1'
b110 X
b0 Y
#3160000
0'
#3170000
b1 B
1'
b1 Y
#3180000
0'
#3190000
b10 B
1'
b10 Y
#3200000
0'
#3210000
b11 B
1'
b11 Y
#3220000
0'
#3230000
b101000 D
b0 B
1'
b111 X
b0 Y
#3240000
0'
#3250000
b1 B
1'
b1 Y
#3260000
0'
#3270000
b10 B
1'
b10 Y
#3280000
0'
#3290000
b11 B
1'
b11 Y
#3300000
0'
#3310000
b101001 D
b0 B
1'
b1000 X
b0 Y
#3320000
0'
#3330000
b1 B
1'
b1 Y
#3340000
0'
#3350000
b10 B
1'
b10 Y
#3360000
0'
#3370000
b11 B
1'
b11 Y
#3380000
0'
#3390000
b101010 D
b0 B
1'
b1001 X
b0 Y
#3400000
0'
#3410000
b1 B
1'
b1 Y
#3420000
0'
#3430000
b10 B
1'
b10 Y
#3440000
0'
#3450000
b11 B
1'
b11 Y
#3460000
0'
#3470000
b101011 D
b0 B
1'
b1010 X
b0 Y
#3480000
0'
#3490000
b1 B
1'
b1 Y
#3500000
0'
#3510000
b10 B
1'
b10 Y
#3520000
0'
#3530000
b11 B
1'
b11 Y
#3540000
0'
#3550000
b101100 D
b0 B
1'
b1011 X
b0 Y
#3560000
0'
#3570000
b1 B
1'
b1 Y
#3580000
0'
#3590000
b10 B
1'
b10 Y
#3600000
0'
#3610000
b11 B
1'
b11 Y
#3620000
0'
#3630000
b101101 D
b0 B
1'
b1100 X
b0 Y
#3640000
0'
#3650000
b1 B
1'
b1 Y
#3660000
0'
#3670000
b10 B
1'
b10 Y
#3680000
0'
#3690000
b11 B
1'
b11 Y
#3700000
0'
#3710000
b101110 D
b0 B
1'
b1101 X
b0 Y
#3720000
0'
#3730000
b1 B
1'
b1 Y
#3740000
0'
#3750000
b10 B
1'
b10 Y
#3760000
0'
#3770000
b11 B
1'
b11 Y
#3780000
0'
#3790000
b101111 D
b0 B
1'
b1110 X
b0 Y
#3800000
0'
#3810000
b1 B
1'
b1 Y
#3820000
0'
#3830000
b10 B
1'
b10 Y
#3840000
0'
#3850000
b11 B
1'
b11 Y
#3860000
0'
#3870000
b110000 D
b0 B
1'
b1111 X
b0 Y
#3880000
0'
#3890000
b1 B
1'
b1 Y
#3900000
0'
#3910000
b10 B
1'
b10 Y
#3920000
0'
#3930000
b11 B
1'
b11 Y
#3940000
0'
#3950000
b110001 D
b0 B
1'
b10000 X
b0 Y
#3960000
0'
#3970000
b1 B
1'
b1 Y
#3980000
0'
#3990000
b10 B
1'
b10 Y
#4000000
0'
#4010000
b11 B
1'
b11 Y
#4020000
0'
#4030000
b110010 D
b0 B
1'
b10001 X
b0 Y
#4040000
0'
#4050000
b1 B
1'
b1 Y
#4060000
0'
#4070000
b10 B
1'
b10 Y
#4080000
0'
#4090000
b11 B
1'
b11 Y
#4100000
0'
#4110000
b110011 D
b0 B
1'
b10010 X
b0 Y
#4120000
0'
#4130000
b1 B
1'
b1 Y
#4140000
0'
#4150000
b10 B
1'
b10 Y
#4160000
0'
#4170000
b11 B
1'
b11 Y
#4180000
0'
#4190000
b110100 D
b0 B
1'
b10011 X
b0 Y
#4200000
0'
#4210000
b1 B
1'
b1 Y
#4220000
0'
#4230000
b10 B
1'
b10 Y
#4240000
0'
#4250000
b11 B
1'
b11 Y
#4260000
0'
#4270000
b110101 D
b0 B
1'
b10100 X
b0 Y
#4280000
0'
#4290000
b1 B
1'
b1 Y
#4300000
0'
#4310000
b10 B
1'
b10 Y
#4320000
0'
#4330000
b11 B
1'
b11 Y
#4340000
0'
#4350000
b110110 D
b0 B
1'
b10101 X
b0 Y
#4360000
0'
#4370000
b1 B
1'
b1 Y
#4380000
0'
#4390000
b10 B
1'
b10 Y
#4400000
0'
#4410000
b11 B
1'
b11 Y
#4420000
0'
#4430000
b110111 D
b0 B
1'
b10110 X
b0 Y
#4440000
0'
#4450000
b1 B
1'
b1 Y
#4460000
0'
#4470000
b10 B
1'
b10 Y
#4480000
0'
#4490000
b11 B
1'
b11 Y
#4500000
0'
#4510000
b111000 D
b0 B
1'
b10111 X
b0 Y
#4520000
0'
#4530000
b1 B
1'
b1 Y
#4540000
0'
#4550000
b10 B
1'
b10 Y
#4560000
0'
#4570000
b11 B
1'
b11 Y
#4580000
0'
#4590000
b111001 D
b0 B
1'
b11000 X
b0 Y
#4600000
0'
#4610000
b1 B
1'
b1 Y
#4620000
0'
#4630000
b10 B
1'
b10 Y
#4640000
0'
#4650000
b11 B
1'
b11 Y
#4660000
0'
#4670000
b111010 D
b0 B
1'
b11001 X
b0 Y
#4680000
0'
#4690000
b1 B
1'
b1 Y
#4700000
0'
#4710000
b10 B
1'
b10 Y
#4720000
0'
#4730000
b11 B
1'
b11 Y
#4740000
0'
#4750000
b111011 D
b0 B
1'
b11010 X
b0 Y
#4760000
0'
#4770000
b1 B
1'
b1 Y
#4780000
0'
#4790000
b10 B
1'
b10 Y
#4800000
0'
#4810000
b11 B
1'
b11 Y
#4820000
0'
#4830000
b111100 D
b0 B
1'
b11011 X
b0 Y
#4840000
0'
#4850000
b1 B
1'
b1 Y
#4860000
0'
#4870000
b10 B
1'
b10 Y
#4880000
0'
#4890000
b11 B
1'
b11 Y
#4900000
0'
#4910000
b111101 D
b0 B
1'
b11100 X
b0 Y
#4920000
0'
#4930000
b1 B
1'
b1 Y
#4940000
0'
#4950000
b10 B
1'
b10 Y
#4960000
0'
#4970000
b11 B
1'
b11 Y
#4980000
0'
#4990000
b111110 D
b0 B
1'
b11101 X
b0 Y
#5000000
0'
#5010000
b1 B
1'
b1 Y
#5020000
0'
#5030000
b10 B
1'
b10 Y
#5040000
0'
#5050000
b11 B
1'
b11 Y
#5060000
0'
#5070000
b111111 D
b0 B
1'
b11110 X
b0 Y
#5080000
0'
#5090000
b1 B
1'
b1 Y
#5100000
0'
#5110000
b10 B
1'
b10 Y
#5120000
0'
#5130000
b11 B
1'
b11 Y
#5140000
0'
#5150000
b1000000 D
b0 B
1'
b11111 X
b0 Y
#5160000
0'
#5170000
b1 B
1'
b1 Y
#5180000
0'
#5190000
b10 B
1'
b10 Y
#5200000
0'
#5210000
b11 B
1'
b11 Y
#5220000
0'
#5230000
b1111111111111111111111111111111111111110000000000000000000000000000000000000000000000000000000000000000000000000000000000000000000000000000000000000000000000000000000000000000000000000000000000000000000000000000000000000000000000000000000000000000000000000 E
b1101111111111111111111111111111111111110000000000000000000000000000000000000000000000000000000000000000000000000000000000000000000000000000000000000000000000000000000000000000000000000000000000000000000000000000000000000000000000000000000000000000000000000 $
b1101111111111111111111111111111111111110000000000000000000000000000000000000000000000000000000000000000000000000000000000000000000000000000000000000000000000000000000000000000000000000000000000000000000000000000000000000000000000000000000000000000000000000 <
b1000001 D
b0 B
1'
b10 W
b0 X
b0 Y
#5240000
0'
#5250000
b1 B
1'
b1 Y
#5260000
0'
#5270000
b10 B
1'
b10 Y
#5280000
0'
#5290000
b11 B
1'
b11 Y
#5300000
0'
#5310000
b1000010 D
b0 B
1'
b1 X
b0 Y
#5320000
0'
#5330000
b1 B
1'
b1 Y
#5340000
0'
#5350000
b10 B
1'
b10 Y
#5360000
0'
#5370000
b11 B
1'
b11 Y
#5380000
0'
#5390000
b1111111100111111111111111111111111111110000000000000000000000000000000000000000000000000000000000000000000000000000000000000000000000000000000000000000000000000000000000000000000000000000000000000000000000000000000000000000000000000000000000000000000000000 E
b1000011 D
b0 B
1'
b0 %
b0 1
b10 X
b0 Y
#5400000
0'
#5410000
b1111 A
b1 B
1'
b1 Y
#5420000
0'
#5430000
b11 A
b10 B
1'
b10 Y
#5440000
0'
#5450000
b0 A
b11 B
1'
b11 Y
#5460000
0'
#5470000
b1110000001111111111111111111111111111110000000000000000000000000000000000000000000000000000000000000000000000000000000000000000000000000000000000000000000000000000000000000000000000000000000000000000000000000000000000000000000000000000000000000000000000000 E
b1000100 D
b0 B
1'
b11 %
b11 1
b11 X
b0 Y
#5480000
0'
#5490000
b110000 A
b1 B
1'
b1 Y
#5500000
0'
#5510000
b111100 A
b10 B
1'
b10 Y
#5520000
0'
#5530000
b111111 A
b11 B
1'
b11 Y
#5540000
0'
#5550000
b1110111111111111111111111111111111111110000000000000000000000000000000000000000000000000000000000000000000000000000000000000000000000000000000000000000000000000000000000000000000000000000000000000000000000000000000000000000000000000000000000000000000000000 E
b1000101 D
b0 B
1'
b100 X
b0 Y
#5560000
0'
#5570000
b1 B
1'
b1 Y
#5580000
0'
#5590000
b10 B
1'
b10 Y
#5600000
0'
#5610000
b11 B
1'
b11 Y
#5620000
0'
#5630000
b1000110 D
b0 B
1'
b101 X
b0 Y
#5640000
0'
#5650000
b1 B
1'
b1 Y
#5660000
0'
#5670000
b10 B
1'
b10 Y
#5680000
0'
#5690000
b11 B
1'
b11 Y
#5700000
0'
#5710000
b1000111 D
b0 B
1'
b110 X
b0 Y
#5720000
0'
#5730000
b1 B
1'
b1 Y
#5740000
0'
#5750000
b10 B
1'
b10 Y
#5760000
0'
#5770000
b11 B
1'
b11 Y
#5780000
0'
#5790000
b1001000 D
b0 B
1'
b111 X
b0 Y
#5800000
0'
#5810000
b1 B
1'
b1 Y
#5820000
0'
#5830000
b10 B
1'
b10 Y
#5840000
0'
#5850000
b11 B
1'
b11 Y
#5860000
0'
#5870000
b1001001 D
b0 B
1'
b1000 X
b0 Y
#5880000
0'
#5890000
b1 B
1'
b1 Y
#5900000
0'
#5910000
b10 B
1'
b10 Y
#5920000
0'
#5930000
b11 B
1'
b11 Y
#5940000
0'
#5950000
b1001010 D
b0 B
1'
b1001 X
b0 Y
#5960000
0'
#5970000
b1 B
1'
b1 Y
#5980000
0'
#5990000
b10 B
1'
b10 Y
#6000000
0'
#6010000
b11 B
1'
b11 Y
#6020000
0'
#6030000
b1001011 D
b0 B
1'
b1010 X
b0 Y
#6040000
0'
#6050000
b1 B
1'
b1 Y
#6060000
0'
#6070000
b10 B
1'
b10 Y
#6080000
0'
#6090000
b11 B
1'
b11 Y
#6100000
0'
