matrix_loader.vcd
$date
	Tue Dec 13 16:36:08 2022
$end
$version
	Icarus Verilog
$end
$timescale
	1ps
$end
$scope module matrix_loader_tb $end
$var wire 1 ! complete $end
$var wire 256 " b_col_out [255:0] $end
$var wire 5 # b_addr_out [4:0] $end
$var wire 256 $ a_row_out [255:0] $end
$var wire 5 % a_addr_out [4:0] $end
$var reg 2 & axiid [1:0] $end
$var reg 1 ' axiiv $end
$var reg 1 ( clk $end
$var reg 5 ) requested_a_row [4:0] $end
$var reg 5 * requested_b_col [4:0] $end
$var reg 1 + rst $end
$scope module uut $end
$var wire 2 , axiid [1:0] $end
$var wire 1 ' axiiv $end
$var wire 1 ( eth_refclk $end
$var wire 1 ( inter_refclk $end
$var wire 5 - requested_a_row [4:0] $end
$var wire 5 . requested_b_col [4:0] $end
$var wire 1 + rst $end
$var wire 256 / B_dout [255:0] $end
$var wire 256 0 A_dout [255:0] $end
$var reg 1 1 A $end
$var reg 10 2 A_addr_buffer [9:0] $end
$var reg 5 3 A_addra [4:0] $end
$var reg 5 4 A_addrb [4:0] $end
$var reg 256 5 A_dina [255:0] $end
$var reg 1 6 A_enb $end
$var reg 1 7 A_regceb $end
$var reg 1 8 A_wea $end
$var reg 1 9 B $end
$var reg 10 : B_addr_buffer [9:0] $end
$var reg 5 ; B_addra [4:0] $end
$var reg 5 < B_addrb [4:0] $end
$var reg 256 = B_dina [255:0] $end
$var reg 1 > B_enb $end
$var reg 1 ? B_regceb $end
$var reg 1 @ B_wea $end
$var reg 5 A a_addr_out [4:0] $end
$var reg 256 B a_row_out [255:0] $end
$var reg 5 C b_addr_out [4:0] $end
$var reg 256 D b_col_out [255:0] $end
$var reg 1 E bad $end
$var reg 1 F bram_rst $end
$var reg 1 ! complete $end
$var reg 1 G downtime $end
$var reg 6 H element_buffer [5:0] $end
$var reg 2 I element_counter [1:0] $end
$var reg 1 J loading $end
$var reg 10 K matrix_counter [9:0] $end
$var reg 256 L row_buffer [255:0] $end
$var reg 1 M transmitting $end
$scope module Matrix_A_BRAM $end
$var wire 5 N addra [4:0] $end
$var wire 5 O addrb [4:0] $end
$var wire 1 ( clka $end
$var wire 1 ( clkb $end
$var wire 256 P dina [255:0] $end
$var wire 1 6 enb $end
$var wire 1 7 regceb $end
$var wire 1 + rstb $end
$var wire 1 8 wea $end
$var wire 256 Q doutb [255:0] $end
$var reg 256 R ram_data [255:0] $end
$scope function clogb2 $end
$var integer 32 S depth [31:0] $end
$upscope $end
$scope begin init_bram_to_zero $end
$var integer 32 T ram_index [31:0] $end
$upscope $end
$scope begin output_register $end
$var reg 256 U doutb_reg [255:0] $end
$upscope $end
$upscope $end
$scope module Matrix_B_BRAM $end
$var wire 5 V addra [4:0] $end
$var wire 5 W addrb [4:0] $end
$var wire 1 ( clka $end
$var wire 1 ( clkb $end
$var wire 256 X dina [255:0] $end
$var wire 1 > enb $end
$var wire 1 ? regceb $end
$var wire 1 + rstb $end
$var wire 1 @ wea $end
$var wire 256 Y doutb [255:0] $end
$var reg 256 Z ram_data [255:0] $end
$scope function clogb2 $end
$var integer 32 [ depth [31:0] $end
$upscope $end
$scope begin init_bram_to_zero $end
$var integer 32 \ ram_index [31:0] $end
$upscope $end
$scope begin output_register $end
$var reg 256 ] doutb_reg [255:0] $end
$upscope $end
$upscope $end
$upscope $end
$scope begin $ivl_for_loop0 $end
$var integer 32 ^ i [31:0] $end
$scope begin $ivl_for_loop1 $end
$var integer 32 _ j [31:0] $end
$scope begin $ivl_for_loop2 $end
$var integer 32 ` k [31:0] $end
$upscope $end
$upscope $end
$upscope $end
$scope begin $ivl_for_loop3 $end
$var integer 32 a i [31:0] $end
$scope begin $ivl_for_loop4 $end
$var integer 32 b j [31:0] $end
$scope begin $ivl_for_loop5 $end
$var integer 32 c k [31:0] $end
$upscope $end
$upscope $end
$upscope $end
$scope begin $ivl_for_loop6 $end
$var integer 32 d i [31:0] $end
$upscope $end
$upscope $end
$enddefinitions $end
#0
$dumpvars
b0 d
b0 c
b0 b
b0 a
b0 `
b0 _
b0 ^
b0 ]
b100000 \
bx [
b0 Z
b0 Y
bx X
bx W
bx V
b0 U
b100000 T
bx S
b0 R
b0 Q
bx P
bx O
bx N
xM
bx L
bx K
xJ
bx I
bx H
xG
xF
xE
bx D
bx C
bx B
bx A
x@
x?
x>
bx =
bx <
bx ;
bx :
x9
x8
x7
x6
bx 5
bx 4
bx 3
bx 2
x1
b0 0
b0 /
bx .
bx -
bx ,
0+
bx *
bx )
0(
x'
bx &
bx %
bx $
bx #
bx "
x!
$end
#10000
1(
#20000
0(
#30000
0?
0>
b0 <
b0 W
07
06
b0 4
b0 O
09
01
b0 K
b0 I
0J
1G
1F
1(
1+
#40000
0(
#50000
0@
08
bx <
bx W
bx 4
bx O
xF
1(
0+
#60000
0(
#70000
1(
#80000
0(
#90000
1(
#100000
0(
#110000
11
b1 K
b0 L
1J
0G
1(
b0 &
b0 ,
1'
#120000
0(
#130000
b0xxxx H
b1 I
1(
b1 `
#140000
0(
#150000
b0xx H
b10 I
1(
b10 `
#160000
0(
#170000
b0 H
b11 I
1(
b11 `
#180000
0(
#190000
b110000000000000000000000000000000000000000000000000000000000000000000000000000000000000000000000000000000000000000000000000000000000000000000000000000000000000000000000000000000000000000000000000000000000000000000000000000000000000000000000000000000 L
b10 K
b0 I
1(
b11 &
b11 ,
b1 _
b0 `
#200000
0(
#210000
b110000 H
b1 I
1(
b1 `
#220000
0(
#230000
b111100 H
b10 I
1(
b10 `
#240000
0(
#250000
b111111 H
b11 I
1(
b11 `
#260000
0(
#270000
b11111111000000000000000000000000000000000000000000000000000000000000000000000000000000000000000000000000000000000000000000000000000000000000000000000000000000000000000000000000000000000000000000000000000000000000000000000000000000000000000000000000000000 L
b11 K
b0 I
1(
b10 _
b0 `
#280000
0(
#290000
b1 I
1(
b1 `
#300000
0(
#310000
b10 I
1(
b10 `
#320000
0(
#330000
b11 I
1(
b11 `
#340000
0(
#350000
b11111111100000000000000000000000000000000000000000000000000000000000000000000000000000000000000000000000000000000000000000000000000000000000000000000000000000000000000000000000000000000000000000000000000000000000000000000000000000000000000000000000000000 L
b100 K
b0 I
1(
b11 _
b0 `
#360000
0(
#370000
b1 I
1(
b1 `
#380000
0(
#390000
b10 I
1(
b10 `
#400000
0(
#410000
b11 I
1(
b11 `
#420000
0(
#430000
b11111111110000000000000000000000000000000000000000000000000000000000000000000000000000000000000000000000000000000000000000000000000000000000000000000000000000000000000000000000000000000000000000000000000000000000000000000000000000000000000000000000000000 L
b101 K
b0 I
1(
b100 _
b0 `
#440000
0(
#450000
b1 I
1(
b1 `
#460000
0(
#470000
b10 I
1(
b10 `
#480000
0(
#490000
b11 I
1(
b11 `
#500000
0(
#510000
b11111111111000000000000000000000000000000000000000000000000000000000000000000000000000000000000000000000000000000000000000000000000000000000000000000000000000000000000000000000000000000000000000000000000000000000000000000000000000000000000000000000000000 L
b110 K
b0 I
1(
b101 _
b0 `
#520000
0(
#530000
b1 I
1(
b1 `
#540000
0(
#550000
b10 I
1(
b10 `
#560000
0(
#570000
b11 I
1(
b11 `
#580000
0(
#590000
b11111111111100000000000000000000000000000000000000000000000000000000000000000000000000000000000000000000000000000000000000000000000000000000000000000000000000000000000000000000000000000000000000000000000000000000000000000000000000000000000000000000000000 L
b111 K
b0 I
1(
b110 _
b0 `
#600000
0(
#610000
b1 I
1(
b1 `
#620000
0(
#630000
b10 I
1(
b10 `
#640000
0(
#650000
b11 I
1(
b11 `
#660000
0(
#670000
b11111111111110000000000000000000000000000000000000000000000000000000000000000000000000000000000000000000000000000000000000000000000000000000000000000000000000000000000000000000000000000000000000000000000000000000000000000000000000000000000000000000000000 L
b1000 K
b0 I
1(
b111 _
b0 `
#680000
0(
#690000
b1 I
1(
b1 `
#700000
0(
#710000
b10 I
1(
b10 `
#720000
0(
#730000
b11 I
1(
b11 `
#740000
0(
#750000
b11111111111111000000000000000000000000000000000000000000000000000000000000000000000000000000000000000000000000000000000000000000000000000000000000000000000000000000000000000000000000000000000000000000000000000000000000000000000000000000000000000000000000 L
b1001 K
b0 I
1(
b1000 _
b0 `
#760000
0(
#770000
b1 I
1(
b1 `
#780000
0(
#790000
b10 I
1(
b10 `
#800000
0(
#810000
b11 I
1(
b11 `
#820000
0(
#830000
b11111111111111100000000000000000000000000000000000000000000000000000000000000000000000000000000000000000000000000000000000000000000000000000000000000000000000000000000000000000000000000000000000000000000000000000000000000000000000000000000000000000000000 L
b1010 K
b0 I
1(
b1001 _
b0 `
#840000
0(
#850000
b1 I
1(
b1 `
#860000
0(
#870000
b10 I
1(
b10 `
#880000
0(
#890000
b11 I
1(
b11 `
#900000
0(
#910000
b11111111111111110000000000000000000000000000000000000000000000000000000000000000000000000000000000000000000000000000000000000000000000000000000000000000000000000000000000000000000000000000000000000000000000000000000000000000000000000000000000000000000000 L
b1011 K
b0 I
1(
b1010 _
b0 `
#920000
0(
#930000
b1 I
1(
b1 `
#940000
0(
#950000
b10 I
1(
b10 `
#960000
0(
#970000
b11 I
1(
b11 `
#980000
0(
#990000
b11111111111111111000000000000000000000000000000000000000000000000000000000000000000000000000000000000000000000000000000000000000000000000000000000000000000000000000000000000000000000000000000000000000000000000000000000000000000000000000000000000000000000 L
b1100 K
b0 I
1(
b1011 _
b0 `
#1000000
0(
#1010000
b1 I
1(
b1 `
#1020000
0(
#1030000
b10 I
1(
b10 `
#1040000
0(
#1050000
b11 I
1(
b11 `
#1060000
0(
#1070000
b11111111111111111100000000000000000000000000000000000000000000000000000000000000000000000000000000000000000000000000000000000000000000000000000000000000000000000000000000000000000000000000000000000000000000000000000000000000000000000000000000000000000000 L
b1101 K
b0 I
1(
b1100 _
b0 `
#1080000
0(
#1090000
b1 I
1(
b1 `
#1100000
0(
#1110000
b10 I
1(
b10 `
#1120000
0(
#1130000
b11 I
1(
b11 `
#1140000
0(
#1150000
b11111111111111111110000000000000000000000000000000000000000000000000000000000000000000000000000000000000000000000000000000000000000000000000000000000000000000000000000000000000000000000000000000000000000000000000000000000000000000000000000000000000000000 L
b1110 K
b0 I
1(
b1101 _
b0 `
#1160000
0(
#1170000
b1 I
1(
b1 `
#1180000
0(
#1190000
b10 I
1(
b10 `
#1200000
0(
#1210000
b11 I
1(
b11 `
#1220000
0(
#1230000
b11111111111111111111000000000000000000000000000000000000000000000000000000000000000000000000000000000000000000000000000000000000000000000000000000000000000000000000000000000000000000000000000000000000000000000000000000000000000000000000000000000000000000 L
b1111 K
b0 I
1(
b1110 _
b0 `
#1240000
0(
#1250000
b1 I
1(
b1 `
#1260000
0(
#1270000
b10 I
1(
b10 `
#1280000
0(
#1290000
b11 I
1(
b11 `
#1300000
0(
#1310000
b11111111111111111111100000000000000000000000000000000000000000000000000000000000000000000000000000000000000000000000000000000000000000000000000000000000000000000000000000000000000000000000000000000000000000000000000000000000000000000000000000000000000000 L
b10000 K
b0 I
1(
b1111 _
b0 `
#1320000
0(
#1330000
b1 I
1(
b1 `
#1340000
0(
#1350000
b10 I
1(
b10 `
#1360000
0(
#1370000
b11 I
1(
b11 `
#1380000
0(
#1390000
b11111111111111111111110000000000000000000000000000000000000000000000000000000000000000000000000000000000000000000000000000000000000000000000000000000000000000000000000000000000000000000000000000000000000000000000000000000000000000000000000000000000000000 L
b10001 K
b0 I
1(
b10000 _
b0 `
#1400000
0(
#1410000
b1 I
1(
b1 `
#1420000
0(
#1430000
b10 I
1(
b10 `
#1440000
0(
#1450000
b11 I
1(
b11 `
#1460000
0(
#1470000
b11111111111111111111111000000000000000000000000000000000000000000000000000000000000000000000000000000000000000000000000000000000000000000000000000000000000000000000000000000000000000000000000000000000000000000000000000000000000000000000000000000000000000 L
b10010 K
b0 I
1(
b10001 _
b0 `
#1480000
0(
#1490000
b1 I
1(
b1 `
#1500000
0(
#1510000
b10 I
1(
b10 `
#1520000
0(
#1530000
b11 I
1(
b11 `
#1540000
0(
#1550000
b11111111111111111111111100000000000000000000000000000000000000000000000000000000000000000000000000000000000000000000000000000000000000000000000000000000000000000000000000000000000000000000000000000000000000000000000000000000000000000000000000000000000000 L
b10011 K
b0 I
1(
b10010 _
b0 `
#1560000
0(
#1570000
b1 I
1(
b1 `
#1580000
0(
#1590000
b10 I
1(
b10 `
#1600000
0(
#1610000
b11 I
1(
b11 `
#1620000
0(
#1630000
b11111111111111111111111110000000000000000000000000000000000000000000000000000000000000000000000000000000000000000000000000000000000000000000000000000000000000000000000000000000000000000000000000000000000000000000000000000000000000000000000000000000000000 L
b10100 K
b0 I
1(
b10011 _
b0 `
#1640000
0(
#1650000
b1 I
1(
b1 `
#1660000
0(
#1670000
b10 I
1(
b10 `
#1680000
0(
#1690000
b11 I
1(
b11 `
#1700000
0(
#1710000
b11111111111111111111111111000000000000000000000000000000000000000000000000000000000000000000000000000000000000000000000000000000000000000000000000000000000000000000000000000000000000000000000000000000000000000000000000000000000000000000000000000000000000 L
b10101 K
b0 I
1(
b10100 _
b0 `
#1720000
0(
#1730000
b1 I
1(
b1 `
#1740000
0(
#1750000
b10 I
1(
b10 `
#1760000
0(
#1770000
b11 I
1(
b11 `
#1780000
0(
#1790000
b11111111111111111111111111100000000000000000000000000000000000000000000000000000000000000000000000000000000000000000000000000000000000000000000000000000000000000000000000000000000000000000000000000000000000000000000000000000000000000000000000000000000000 L
b10110 K
b0 I
1(
b10101 _
b0 `
#1800000
0(
#1810000
b1 I
1(
b1 `
#1820000
0(
#1830000
b10 I
1(
b10 `
#1840000
0(
#1850000
b11 I
1(
b11 `
#1860000
0(
#1870000
b11111111111111111111111111110000000000000000000000000000000000000000000000000000000000000000000000000000000000000000000000000000000000000000000000000000000000000000000000000000000000000000000000000000000000000000000000000000000000000000000000000000000000 L
b10111 K
b0 I
1(
b10110 _
b0 `
#1880000
0(
#1890000
b1 I
1(
b1 `
#1900000
0(
#1910000
b10 I
1(
b10 `
#1920000
0(
#1930000
b11 I
1(
b11 `
#1940000
0(
#1950000
b11111111111111111111111111111000000000000000000000000000000000000000000000000000000000000000000000000000000000000000000000000000000000000000000000000000000000000000000000000000000000000000000000000000000000000000000000000000000000000000000000000000000000 L
b11000 K
b0 I
1(
b10111 _
b0 `
#1960000
0(
#1970000
b1 I
1(
b1 `
#1980000
0(
#1990000
b10 I
1(
b10 `
#2000000
0(
#2010000
b11 I
1(
b11 `
#2020000
0(
#2030000
b11111111111111111111111111111100000000000000000000000000000000000000000000000000000000000000000000000000000000000000000000000000000000000000000000000000000000000000000000000000000000000000000000000000000000000000000000000000000000000000000000000000000000 L
b11001 K
b0 I
1(
b11000 _
b0 `
#2040000
0(
#2050000
b1 I
1(
b1 `
#2060000
0(
#2070000
b10 I
1(
b10 `
#2080000
0(
#2090000
b11 I
1(
b11 `
#2100000
0(
#2110000
b11111111111111111111111111111110000000000000000000000000000000000000000000000000000000000000000000000000000000000000000000000000000000000000000000000000000000000000000000000000000000000000000000000000000000000000000000000000000000000000000000000000000000 L
b11010 K
b0 I
1(
b11001 _
b0 `
#2120000
0(
#2130000
b1 I
1(
b1 `
#2140000
0(
#2150000
b10 I
1(
b10 `
#2160000
0(
#2170000
b11 I
1(
b11 `
#2180000
0(
#2190000
b11111111111111111111111111111111000000000000000000000000000000000000000000000000000000000000000000000000000000000000000000000000000000000000000000000000000000000000000000000000000000000000000000000000000000000000000000000000000000000000000000000000000000 L
b11011 K
b0 I
1(
b11010 _
b0 `
#2200000
0(
#2210000
b1 I
1(
b1 `
#2220000
0(
#2230000
b10 I
1(
b10 `
#2240000
0(
#2250000
b11 I
1(
b11 `
#2260000
0(
#2270000
b11111111111111111111111111111111100000000000000000000000000000000000000000000000000000000000000000000000000000000000000000000000000000000000000000000000000000000000000000000000000000000000000000000000000000000000000000000000000000000000000000000000000000 L
b11100 K
b0 I
1(
b11011 _
b0 `
#2280000
0(
#2290000
b1 I
1(
b1 `
#2300000
0(
#2310000
b10 I
1(
b10 `
#2320000
0(
#2330000
b11 I
1(
b11 `
#2340000
0(
#2350000
b11111111111111111111111111111111110000000000000000000000000000000000000000000000000000000000000000000000000000000000000000000000000000000000000000000000000000000000000000000000000000000000000000000000000000000000000000000000000000000000000000000000000000 L
b11101 K
b0 I
1(
b11100 _
b0 `
#2360000
0(
#2370000
b1 I
1(
b1 `
#2380000
0(
#2390000
b10 I
1(
b10 `
#2400000
0(
#2410000
b11 I
1(
b11 `
#2420000
0(
#2430000
b11111111111111111111111111111111111000000000000000000000000000000000000000000000000000000000000000000000000000000000000000000000000000000000000000000000000000000000000000000000000000000000000000000000000000000000000000000000000000000000000000000000000000 L
b11110 K
b0 I
1(
b11101 _
b0 `
#2440000
0(
#2450000
b1 I
1(
b1 `
#2460000
0(
#2470000
b10 I
1(
b10 `
#2480000
0(
#2490000
b11 I
1(
b11 `
#2500000
0(
#2510000
b11111111111111111111111111111111111100000000000000000000000000000000000000000000000000000000000000000000000000000000000000000000000000000000000000000000000000000000000000000000000000000000000000000000000000000000000000000000000000000000000000000000000000 L
b11111 K
b0 I
1(
b11110 _
b0 `
#2520000
0(
#2530000
b1 I
1(
b1 `
#2540000
0(
#2550000
b10 I
1(
b10 `
#2560000
0(
#2570000
b11 I
1(
b11 `
#2580000
0(
#2590000
18
b0 3
b0 N
b11111111111111111111111111111111111100000000000000000000000000000000000000000000000000000000000000000000000000000000000000000000000000000000000000000000000000000000000000000000000000000000000000000000000000000000000000000000000000000000000000000011111111 5
b11111111111111111111111111111111111100000000000000000000000000000000000000000000000000000000000000000000000000000000000000000000000000000000000000000000000000000000000000000000000000000000000000000000000000000000000000000000000000000000000000000011111111 P
b100000 K
b0 I
1(
b11111 _
b0 `
#2600000
0(
#2610000
08
b1 I
1(
b1 `
#2620000
0(
#2630000
b10 I
1(
b10 `
#2640000
0(
#2650000
b11 I
1(
b11 `
#2660000
0(
#2670000
b1111111111111111111111111111111111111100000000000000000000000000000000000000000000000000000000000000000000000000000000000000000000000000000000000000000000000000000000000000000000000000000000000000000000000000000000000000000000000000000000000000000000000000 L
b100001 K
b0 I
1(
b1 ^
b0 _
b0 `
#2680000
0(
#2690000
b1 I
1(
b1 `
#2700000
0(
#2710000
b10 I
1(
b10 `
#2720000
0(
#2730000
b11 I
1(
b11 `
#2740000
0(
#2750000
b1111111001111111111111111111111111111100000000000000000000000000000000000000000000000000000000000000000000000000000000000000000000000000000000000000000000000000000000000000000000000000000000000000000000000000000000000000000000000000000000000000000000000000 L
b100010 K
b0 I
1(
b0 &
b0 ,
b1 _
b0 `
#2760000
0(
#2770000
b1111 H
b1 I
1(
b1 `
#2780000
0(
#2790000
b11 H
b10 I
1(
b10 `
#2800000
0(
#2810000
b0 H
b11 I
1(
b11 `
#2820000
0(
#2830000
b1100000011111111111111111111111111111100000000000000000000000000000000000000000000000000000000000000000000000000000000000000000000000000000000000000000000000000000000000000000000000000000000000000000000000000000000000000000000000000000000000000000000000000 L
b100011 K
b0 I
1(
b11 &
b11 ,
b10 _
b0 `
#2840000
0(
#2850000
b110000 H
b1 I
1(
b1 `
#2860000
0(
#2870000
b111100 H
b10 I
1(
b10 `
#2880000
0(
#2890000
b111111 H
b11 I
1(
b11 `
#2900000
0(
#2910000
b1101111111111111111111111111111111111100000000000000000000000000000000000000000000000000000000000000000000000000000000000000000000000000000000000000000000000000000000000000000000000000000000000000000000000000000000000000000000000000000000000000000000000000 L
b100100 K
b0 I
1(
b11 _
b0 `
#2920000
0(
#2930000
b1 I
1(
b1 `
#2940000
0(
#2950000
b10 I
1(
b10 `
#2960000
0(
#2970000
b11 I
1(
b11 `
#2980000
0(
#2990000
b100101 K
b0 I
1(
b100 _
b0 `
#3000000
0(
#3010000
b1 I
1(
b1 `
#3020000
0(
#3030000
b10 I
1(
b10 `
#3040000
0(
#3050000
b11 I
1(
b11 `
#3060000
0(
#3070000
b100110 K
b0 I
1(
b101 _
b0 `
#3080000
0(
#3090000
b1 I
1(
b1 `
#3100000
0(
#3110000
b10 I
1(
b10 `
#3120000
0(
#3130000
b11 I
1(
b11 `
#3140000
0(
#3150000
b100111 K
b0 I
1(
b110 _
b0 `
#3160000
0(
#3170000
b1 I
1(
b1 `
#3180000
0(
#3190000
b10 I
1(
b10 `
#3200000
0(
#3210000
b11 I
1(
b11 `
#3220000
0(
#3230000
b101000 K
b0 I
1(
b111 _
b0 `
#3240000
0(
#3250000
b1 I
1(
b1 `
#3260000
0(
#3270000
b10 I
1(
b10 `
#3280000
0(
#3290000
b11 I
1(
b11 `
#3300000
0(
#3310000
b101001 K
b0 I
1(
b1000 _
b0 `
#3320000
0(
#3330000
b1 I
1(
b1 `
#3340000
0(
#3350000
b10 I
1(
b10 `
#3360000
0(
#3370000
b11 I
1(
b11 `
#3380000
0(
#3390000
b101010 K
b0 I
1(
b1001 _
b0 `
#3400000
0(
#3410000
b1 I
1(
b1 `
#3420000
0(
#3430000
b10 I
1(
b10 `
#3440000
0(
#3450000
b11 I
1(
b11 `
#3460000
0(
#3470000
b101011 K
b0 I
1(
b1010 _
b0 `
#3480000
0(
#3490000
b1 I
1(
b1 `
#3500000
0(
#3510000
b10 I
1(
b10 `
#3520000
0(
#3530000
b11 I
1(
b11 `
#3540000
0(
#3550000
b101100 K
b0 I
1(
b1011 _
b0 `
#3560000
0(
#3570000
b1 I
1(
b1 `
#3580000
0(
#3590000
b10 I
1(
b10 `
#3600000
0(
#3610000
b11 I
1(
b11 `
#3620000
0(
#3630000
b101101 K
b0 I
1(
b1100 _
b0 `
#3640000
0(
#3650000
b1 I
1(
b1 `
#3660000
0(
#3670000
b10 I
1(
b10 `
#3680000
0(
#3690000
b11 I
1(
b11 `
#3700000
0(
#3710000
b101110 K
b0 I
1(
b1101 _
b0 `
#3720000
0(
#3730000
b1 I
1(
b1 `
#3740000
0(
#3750000
b10 I
1(
b10 `
#3760000
0(
#3770000
b11 I
1(
b11 `
#3780000
0(
#3790000
b101111 K
b0 I
1(
b1110 _
b0 `
#3800000
0(
#3810000
b1 I
1(
b1 `
#3820000
0(
#3830000
b10 I
1(
b10 `
#3840000
0(
#3850000
b11 I
1(
b11 `
#3860000
0(
#3870000
b110000 K
b0 I
1(
b1111 _
b0 `
#3880000
0(
#3890000
b1 I
1(
b1 `
#3900000
0(
#3910000
b10 I
1(
b10 `
#3920000
0(
#3930000
b11 I
1(
b11 `
#3940000
0(
#3950000
b110001 K
b0 I
1(
b10000 _
b0 `
#3960000
0(
#3970000
b1 I
1(
b1 `
#3980000
0(
#3990000
b10 I
1(
b10 `
#4000000
0(
#4010000
b11 I
1(
b11 `
#4020000
0(
#4030000
b110010 K
b0 I
1(
b10001 _
b0 `
#4040000
0(
#4050000
b1 I
1(
b1 `
#4060000
0(
#4070000
b10 I
1(
b10 `
#4080000
0(
#4090000
b11 I
1(
b11 `
#4100000
0(
#4110000
b110011 K
b0 I
1(
b10010 _
b0 `
#4120000
0(
#4130000
b1 I
1(
b1 `
#4140000
0(
#4150000
b10 I
1(
b10 `
#4160000
0(
#4170000
b11 I
1(
b11 `
#4180000
0(
#4190000
b110100 K
b0 I
1(
b10011 _
b0 `
#4200000
0(
#4210000
b1 I
1(
b1 `
#4220000
0(
#4230000
b10 I
1(
b10 `
#4240000
0(
#4250000
b11 I
1(
b11 `
#4260000
0(
#4270000
b110101 K
b0 I
1(
b10100 _
b0 `
#4280000
0(
#4290000
b1 I
1(
b1 `
#4300000
0(
#4310000
b10 I
1(
b10 `
#4320000
0(
#4330000
b11 I
1(
b11 `
#4340000
0(
#4350000
b110110 K
b0 I
1(
b10101 _
b0 `
#4360000
0(
#4370000
b1 I
1(
b1 `
#4380000
0(
#4390000
b10 I
1(
b10 `
#4400000
0(
#4410000
b11 I
1(
b11 `
#4420000
0(
#4430000
b110111 K
b0 I
1(
b10110 _
b0 `
#4440000
0(
#4450000
b1 I
1(
b1 `
#4460000
0(
#4470000
b10 I
1(
b10 `
#4480000
0(
#4490000
b11 I
1(
b11 `
#4500000
0(
#4510000
b111000 K
b0 I
1(
b10111 _
b0 `
#4520000
0(
#4530000
b1 I
1(
b1 `
#4540000
0(
#4550000
b10 I
1(
b10 `
#4560000
0(
#4570000
b11 I
1(
b11 `
#4580000
0(
#4590000
b111001 K
b0 I
1(
b11000 _
b0 `
#4600000
0(
#4610000
b1 I
1(
b1 `
#4620000
0(
#4630000
b10 I
1(
b10 `
#4640000
0(
#4650000
b11 I
1(
b11 `
#4660000
0(
#4670000
b111010 K
b0 I
1(
b11001 _
b0 `
#4680000
0(
#4690000
b1 I
1(
b1 `
#4700000
0(
#4710000
b10 I
1(
b10 `
#4720000
0(
#4730000
b11 I
1(
b11 `
#4740000
0(
#4750000
b111011 K
b0 I
1(
b11010 _
b0 `
#4760000
0(
#4770000
b1 I
1(
b1 `
#4780000
0(
#4790000
b10 I
1(
b10 `
#4800000
0(
#4810000
b11 I
1(
b11 `
#4820000
0(
#4830000
b111100 K
b0 I
1(
b11011 _
b0 `
#4840000
0(
#4850000
b1 I
1(
b1 `
#4860000
0(
#4870000
b10 I
1(
b10 `
#4880000
0(
#4890000
b11 I
1(
b11 `
#4900000
0(
#4910000
b111101 K
b0 I
1(
b11100 _
b0 `
#4920000
0(
#4930000
b1 I
1(
b1 `
#4940000
0(
#4950000
b10 I
1(
b10 `
#4960000
0(
#4970000
b11 I
1(
b11 `
#4980000
0(
#4990000
b111110 K
b0 I
1(
b11101 _
b0 `
#5000000
0(
#5010000
b1 I
1(
b1 `
#5020000
0(
#5030000
b10 I
1(
b10 `
#5040000
0(
#5050000
b11 I
1(
b11 `
#5060000
0(
#5070000
b111111 K
b0 I
1(
b11110 _
b0 `
#5080000
0(
#5090000
b1 I
1(
b1 `
#5100000
0(
#5110000
b10 I
1(
b10 `
#5120000
0(
#5130000
b11 I
1(
b11 `
#5140000
0(
#5150000
18
b1 3
b1 N
b1101111111111111111111111111111111111100000000000000000000000000000000000000000000000000000000000000000000000000000000000000000000000000000000000000000000000000000000000000000000000000000000000000000000000000000000000000000000000000000000000000000011111111 5
b1101111111111111111111111111111111111100000000000000000000000000000000000000000000000000000000000000000000000000000000000000000000000000000000000000000000000000000000000000000000000000000000000000000000000000000000000000000000000000000000000000000011111111 P
b1000000 K
b0 I
1(
b11111 _
b0 `
#5160000
0(
#5170000
08
b1 I
1(
b1 `
#5180000
0(
#5190000
b10 I
1(
b10 `
#5200000
0(
#5210000
b11 I
1(
b11 `
#5220000
0(
#5230000
b1111111111111111111111111111111111111100000000000000000000000000000000000000000000000000000000000000000000000000000000000000000000000000000000000000000000000000000000000000000000000000000000000000000000000000000000000000000000000000000000000000000000000000 L
b1000001 K
b0 I
1(
b10 ^
b0 _
b0 `
#5240000
0(
#5250000
b1 I
1(
b1 `
#5260000
0(
#5270000
b10 I
1(
b10 `
#5280000
0(
#5290000
b11 I
1(
b11 `
#5300000
0(
#5310000
b1000010 K
b0 I
1(
b1 _
b0 `
#5320000
0(
#5330000
b1 I
1(
b1 `
#5340000
0(
#5350000
b10 I
1(
b10 `
#5360000
0(
#5370000
b11 I
1(
b11 `
#5380000
0(
#5390000
b1111111100111111111111111111111111111100000000000000000000000000000000000000000000000000000000000000000000000000000000000000000000000000000000000000000000000000000000000000000000000000000000000000000000000000000000000000000000000000000000000000000000000000 L
b1000011 K
b0 I
1(
b0 &
b0 ,
b10 _
b0 `
#5400000
0(
#5410000
b1111 H
b1 I
1(
b1 `
#5420000
0(
#5430000
b11 H
b10 I
1(
b10 `
#5440000
0(
#5450000
b0 H
b11 I
1(
b11 `
#5460000
0(
#5470000
b1110000001111111111111111111111111111100000000000000000000000000000000000000000000000000000000000000000000000000000000000000000000000000000000000000000000000000000000000000000000000000000000000000000000000000000000000000000000000000000000000000000000000000 L
b1000100 K
b0 I
1(
b11 &
b11 ,
b11 _
b0 `
#5480000
0(
#5490000
b110000 H
b1 I
1(
b1 `
#5500000
0(
#5510000
b111100 H
b10 I
1(
b10 `
#5520000
0(
#5530000
b111111 H
b11 I
1(
b11 `
#5540000
0(
#5550000
b1110111111111111111111111111111111111100000000000000000000000000000000000000000000000000000000000000000000000000000000000000000000000000000000000000000000000000000000000000000000000000000000000000000000000000000000000000000000000000000000000000000000000000 L
b1000101 K
b0 I
1(
b100 _
b0 `
#5560000
0(
#5570000
b1 I
1(
b1 `
#5580000
0(
#5590000
b10 I
1(
b10 `
#5600000
0(
#5610000
b11 I
1(
b11 `
#5620000
0(
#5630000
b1000110 K
b0 I
1(
b101 _
b0 `
#5640000
0(
#5650000
b1 I
1(
b1 `
#5660000
0(
#5670000
b10 I
1(
b10 `
#5680000
0(
#5690000
b11 I
1(
b11 `
#5700000
0(
#5710000
b1000111 K
b0 I
1(
b110 _
b0 `
#5720000
0(
#5730000
b1 I
1(
b1 `
#5740000
0(
#5750000
b10 I
1(
b10 `
#5760000
0(
#5770000
b11 I
1(
b11 `
#5780000
0(
#5790000
b1001000 K
b0 I
1(
b111 _
b0 `
#5800000
0(
#5810000
b1 I
1(
b1 `
#5820000
0(
#5830000
b10 I
1(
b10 `
#5840000
0(
#5850000
b11 I
1(
b11 `
#5860000
0(
#5870000
b1001001 K
b0 I
1(
b1000 _
b0 `
#5880000
0(
#5890000
b1 I
1(
b1 `
#5900000
0(
#5910000
b10 I
1(
b10 `
#5920000
0(
#5930000
b11 I
1(
b11 `
#5940000
0(
#5950000
b1001010 K
b0 I
1(
b1001 _
b0 `
#5960000
0(
#5970000
b1 I
1(
b1 `
#5980000
0(
#5990000
b10 I
1(
b10 `
#6000000
0(
#6010000
b11 I
1(
b11 `
#6020000
0(
#6030000
b1001011 K
b0 I
1(
b1010 _
b0 `
#6040000
0(
#6050000
b1 I
1(
b1 `
#6060000
0(
#6070000
b10 I
1(
b10 `
#6080000
0(
