matrix_compiler.vcd
$date
	Tue Dec 13 23:19:56 2022
$end
$version
	Icarus Verilog
$end
$timescale
	1ps
$end
$scope module matrix_compiler_tb $end
$var wire 1 ! valid_data_out $end
$var wire 2 " dibit [1:0] $end
$var reg 1 # clk $end
$var reg 5 $ col_addr [4:0] $end
$var reg 8 % matrix_element [7:0] $end
$var reg 5 & row_addr [4:0] $end
$var reg 1 ' rst $end
$var reg 1 ( valid_data_in $end
$scope module uut $end
$var wire 5 ) col_addr [4:0] $end
$var wire 1 # eth_refclk $end
$var wire 1 # inter_refclk $end
$var wire 8 * matrix_element [7:0] $end
$var wire 5 + row_addr [4:0] $end
$var wire 1 ' rst $end
$var wire 1 ( valid_data_in $end
$var wire 8 , doutb [7:0] $end
$var reg 10 - addra [9:0] $end
$var reg 10 . addrb [9:0] $end
$var reg 1 / bram_rst $end
$var reg 1024 0 bram_tracker [1023:0] $end
$var reg 2 1 dibit [1:0] $end
$var reg 8 2 dina [7:0] $end
$var reg 1 3 downtime $end
$var reg 2 4 element_counter [1:0] $end
$var reg 1 5 enb $end
$var reg 1 6 loading $end
$var reg 1 7 old $end
$var reg 1 8 regceb $end
$var reg 1 9 transmit $end
$var reg 1 ! valid_data_out $end
$var reg 1 : wea $end
$scope module matrix_output $end
$var wire 10 ; addra [9:0] $end
$var wire 10 < addrb [9:0] $end
$var wire 1 # clka $end
$var wire 1 # clkb $end
$var wire 8 = dina [7:0] $end
$var wire 1 5 enb $end
$var wire 1 8 regceb $end
$var wire 1 / rstb $end
$var wire 1 : wea $end
$var wire 8 > doutb [7:0] $end
$var reg 8 ? ram_data [7:0] $end
$scope function clogb2 $end
$var integer 32 @ depth [31:0] $end
$upscope $end
$scope begin init_bram_to_zero $end
$var integer 32 A ram_index [31:0] $end
$upscope $end
$scope begin output_register $end
$var reg 8 B doutb_reg [7:0] $end
$upscope $end
$upscope $end
$upscope $end
$scope begin $ivl_for_loop0 $end
$var integer 32 C i [31:0] $end
$scope begin $ivl_for_loop1 $end
$var integer 32 D j [31:0] $end
$upscope $end
$upscope $end
$scope begin $ivl_for_loop2 $end
$var integer 32 E i [31:0] $end
$upscope $end
$upscope $end
$enddefinitions $end
#0
$dumpvars
b0 E
b0 D
b0 C
b0 B
b10000000000 A
bx @
b0 ?
b0 >
bx =
bx <
bx ;
x:
x9
x8
x7
x6
x5
bx 4
x3
bx 2
bx 1
bx 0
x/
bx .
bx -
b0 ,
bx +
bx *
bx )
x(
0'
bx &
bx %
bx $
0#
bx "
x!
$end
#10000
0/
07
b0 .
b0 <
08
05
1#
#20000
0#
#30000
b0 "
b0 1
b0 4
b0 0
0:
06
13
1/
1#
1'
#40000
0#
#50000
0/
1#
0'
#60000
0#
#70000
1#
#80000
0#
#90000
1#
#100000
0#
#110000
b1 0
b0 -
b0 ;
b10101010 2
b10101010 =
1:
16
03
1#
b0 $
b0 )
b0 &
b0 +
b10101010 %
b10101010 *
1(
#120000
0#
#130000
b11 0
b1 -
b1 ;
b11110000 2
b11110000 =
1#
b1 $
b1 )
b11110000 %
b11110000 *
b1 D
#140000
0#
#150000
b111 0
b10 -
b10 ;
1#
b10 $
b10 )
b10 D
#160000
0#
#170000
b1111 0
b11 -
b11 ;
1#
b11 $
b11 )
b11 D
#180000
0#
#190000
b11111 0
b100 -
b100 ;
1#
b100 $
b100 )
b100 D
#200000
0#
#210000
b111111 0
b101 -
b101 ;
1#
b101 $
b101 )
b101 D
#220000
0#
#230000
b1111111 0
b110 -
b110 ;
1#
b110 $
b110 )
b110 D
#240000
0#
#250000
b11111111 0
b111 -
b111 ;
1#
b111 $
b111 )
b111 D
#260000
0#
#270000
b111111111 0
b1000 -
b1000 ;
1#
b1000 $
b1000 )
b1000 D
#280000
0#
#290000
b1111111111 0
b1001 -
b1001 ;
1#
b1001 $
b1001 )
b1001 D
#300000
0#
#310000
b11111111111 0
b1010 -
b1010 ;
1#
b1010 $
b1010 )
b1010 D
#320000
0#
#330000
b111111111111 0
b1011 -
b1011 ;
1#
b1011 $
b1011 )
b1011 D
#340000
0#
#350000
b1111111111111 0
b1100 -
b1100 ;
1#
b1100 $
b1100 )
b1100 D
#360000
0#
#370000
b11111111111111 0
b1101 -
b1101 ;
1#
b1101 $
b1101 )
b1101 D
#380000
0#
#390000
b111111111111111 0
b1110 -
b1110 ;
1#
b1110 $
b1110 )
b1110 D
#400000
0#
#410000
b1111111111111111 0
b1111 -
b1111 ;
1#
b1111 $
b1111 )
b1111 D
#420000
0#
#430000
b11111111111111111 0
b10000 -
b10000 ;
1#
b10000 $
b10000 )
b10000 D
#440000
0#
#450000
b111111111111111111 0
b10001 -
b10001 ;
1#
b10001 $
b10001 )
b10001 D
#460000
0#
#470000
b1111111111111111111 0
b10010 -
b10010 ;
1#
b10010 $
b10010 )
b10010 D
#480000
0#
#490000
b11111111111111111111 0
b10011 -
b10011 ;
1#
b10011 $
b10011 )
b10011 D
#500000
0#
#510000
b111111111111111111111 0
b10100 -
b10100 ;
1#
b10100 $
b10100 )
b10100 D
#520000
0#
#530000
b1111111111111111111111 0
b10101 -
b10101 ;
1#
b10101 $
b10101 )
b10101 D
#540000
0#
#550000
b11111111111111111111111 0
b10110 -
b10110 ;
1#
b10110 $
b10110 )
b10110 D
#560000
0#
#570000
b111111111111111111111111 0
b10111 -
b10111 ;
1#
b10111 $
b10111 )
b10111 D
#580000
0#
#590000
b1111111111111111111111111 0
b11000 -
b11000 ;
1#
b11000 $
b11000 )
b11000 D
#600000
0#
#610000
b11111111111111111111111111 0
b11001 -
b11001 ;
1#
b11001 $
b11001 )
b11001 D
#620000
0#
#630000
b111111111111111111111111111 0
b11010 -
b11010 ;
1#
b11010 $
b11010 )
b11010 D
#640000
0#
#650000
b1111111111111111111111111111 0
b11011 -
b11011 ;
1#
b11011 $
b11011 )
b11011 D
#660000
0#
#670000
b11111111111111111111111111111 0
b11100 -
b11100 ;
1#
b11100 $
b11100 )
b11100 D
#680000
0#
#690000
b111111111111111111111111111111 0
b11101 -
b11101 ;
1#
b11101 $
b11101 )
b11101 D
#700000
0#
#710000
b1111111111111111111111111111111 0
b11110 -
b11110 ;
1#
b11110 $
b11110 )
b11110 D
#720000
0#
#730000
b11111111111111111111111111111111 0
b11111 -
b11111 ;
1#
b11111 $
b11111 )
b11111 D
#740000
0#
#750000
b111111111111111111111111111111111 0
b100000 -
b100000 ;
1#
b0 $
b0 )
b1 &
b1 +
b1 C
b0 D
#760000
0#
#770000
b1111111111111111111111111111111111 0
b100001 -
b100001 ;
b10101010 2
b10101010 =
1#
b1 $
b1 )
b10101010 %
b10101010 *
b1 D
#780000
0#
#790000
b11111111111111111111111111111111111 0
b100010 -
b100010 ;
b11110000 2
b11110000 =
1#
b10 $
b10 )
b11110000 %
b11110000 *
b10 D
#800000
0#
#810000
b111111111111111111111111111111111111 0
b100011 -
b100011 ;
1#
b11 $
b11 )
b11 D
#820000
0#
#830000
b1111111111111111111111111111111111111 0
b100100 -
b100100 ;
1#
b100 $
b100 )
b100 D
#840000
0#
#850000
b11111111111111111111111111111111111111 0
b100101 -
b100101 ;
1#
b101 $
b101 )
b101 D
#860000
0#
#870000
b111111111111111111111111111111111111111 0
b100110 -
b100110 ;
1#
b110 $
b110 )
b110 D
#880000
0#
#890000
b1111111111111111111111111111111111111111 0
b100111 -
b100111 ;
1#
b111 $
b111 )
b111 D
#900000
0#
#910000
b11111111111111111111111111111111111111111 0
b101000 -
b101000 ;
1#
b1000 $
b1000 )
b1000 D
#920000
0#
#930000
b111111111111111111111111111111111111111111 0
b101001 -
b101001 ;
1#
b1001 $
b1001 )
b1001 D
#940000
0#
#950000
b1111111111111111111111111111111111111111111 0
b101010 -
b101010 ;
1#
b1010 $
b1010 )
b1010 D
#960000
0#
#970000
b11111111111111111111111111111111111111111111 0
b101011 -
b101011 ;
1#
b1011 $
b1011 )
b1011 D
#980000
0#
#990000
b111111111111111111111111111111111111111111111 0
b101100 -
b101100 ;
1#
b1100 $
b1100 )
b1100 D
#1000000
0#
#1010000
b1111111111111111111111111111111111111111111111 0
b101101 -
b101101 ;
1#
b1101 $
b1101 )
b1101 D
#1020000
0#
#1030000
b11111111111111111111111111111111111111111111111 0
b101110 -
b101110 ;
1#
b1110 $
b1110 )
b1110 D
#1040000
0#
#1050000
b111111111111111111111111111111111111111111111111 0
b101111 -
b101111 ;
1#
b1111 $
b1111 )
b1111 D
#1060000
0#
#1070000
b1111111111111111111111111111111111111111111111111 0
b110000 -
b110000 ;
1#
b10000 $
b10000 )
b10000 D
#1080000
0#
#1090000
b11111111111111111111111111111111111111111111111111 0
b110001 -
b110001 ;
1#
b10001 $
b10001 )
b10001 D
#1100000
0#
#1110000
b111111111111111111111111111111111111111111111111111 0
b110010 -
b110010 ;
1#
b10010 $
b10010 )
b10010 D
#1120000
0#
#1130000
b1111111111111111111111111111111111111111111111111111 0
b110011 -
b110011 ;
1#
b10011 $
b10011 )
b10011 D
#1140000
0#
#1150000
b11111111111111111111111111111111111111111111111111111 0
b110100 -
b110100 ;
1#
b10100 $
b10100 )
b10100 D
#1160000
0#
#1170000
b111111111111111111111111111111111111111111111111111111 0
b110101 -
b110101 ;
1#
b10101 $
b10101 )
b10101 D
#1180000
0#
#1190000
b1111111111111111111111111111111111111111111111111111111 0
b110110 -
b110110 ;
1#
b10110 $
b10110 )
b10110 D
#1200000
0#
#1210000
b11111111111111111111111111111111111111111111111111111111 0
b110111 -
b110111 ;
1#
b10111 $
b10111 )
b10111 D
#1220000
0#
#1230000
b111111111111111111111111111111111111111111111111111111111 0
b111000 -
b111000 ;
1#
b11000 $
b11000 )
b11000 D
#1240000
0#
#1250000
b1111111111111111111111111111111111111111111111111111111111 0
b111001 -
b111001 ;
1#
b11001 $
b11001 )
b11001 D
#1260000
0#
#1270000
b11111111111111111111111111111111111111111111111111111111111 0
b111010 -
b111010 ;
1#
b11010 $
b11010 )
b11010 D
#1280000
0#
#1290000
b111111111111111111111111111111111111111111111111111111111111 0
b111011 -
b111011 ;
1#
b11011 $
b11011 )
b11011 D
#1300000
0#
#1310000
b1111111111111111111111111111111111111111111111111111111111111 0
b111100 -
b111100 ;
1#
b11100 $
b11100 )
b11100 D
#1320000
0#
#1330000
b11111111111111111111111111111111111111111111111111111111111111 0
b111101 -
b111101 ;
1#
b11101 $
b11101 )
b11101 D
#1340000
0#
#1350000
b111111111111111111111111111111111111111111111111111111111111111 0
b111110 -
b111110 ;
1#
b11110 $
b11110 )
b11110 D
#1360000
0#
#1370000
b1111111111111111111111111111111111111111111111111111111111111111 0
b111111 -
b111111 ;
1#
b11111 $
b11111 )
b11111 D
#1380000
0#
#1390000
b11111111111111111111111111111111111111111111111111111111111111111 0
b1000000 -
b1000000 ;
1#
b0 $
b0 )
b10 &
b10 +
b10 C
b0 D
#1400000
0#
#1410000
b111111111111111111111111111111111111111111111111111111111111111111 0
b1000001 -
b1000001 ;
1#
b1 $
b1 )
b1 D
#1420000
0#
#1430000
b1111111111111111111111111111111111111111111111111111111111111111111 0
b1000010 -
b1000010 ;
b10101010 2
b10101010 =
1#
b10 $
b10 )
b10101010 %
b10101010 *
b10 D
#1440000
0#
#1450000
b11111111111111111111111111111111111111111111111111111111111111111111 0
b1000011 -
b1000011 ;
b11110000 2
b11110000 =
1#
b11 $
b11 )
b11110000 %
b11110000 *
b11 D
#1460000
0#
#1470000
b111111111111111111111111111111111111111111111111111111111111111111111 0
b1000100 -
b1000100 ;
1#
b100 $
b100 )
b100 D
#1480000
0#
#1490000
b1111111111111111111111111111111111111111111111111111111111111111111111 0
b1000101 -
b1000101 ;
1#
b101 $
b101 )
b101 D
#1500000
0#
#1510000
b11111111111111111111111111111111111111111111111111111111111111111111111 0
b1000110 -
b1000110 ;
1#
b110 $
b110 )
b110 D
#1520000
0#
#1530000
b111111111111111111111111111111111111111111111111111111111111111111111111 0
b1000111 -
b1000111 ;
1#
b111 $
b111 )
b111 D
#1540000
0#
#1550000
b1111111111111111111111111111111111111111111111111111111111111111111111111 0
b1001000 -
b1001000 ;
1#
b1000 $
b1000 )
b1000 D
#1560000
0#
#1570000
b11111111111111111111111111111111111111111111111111111111111111111111111111 0
b1001001 -
b1001001 ;
1#
b1001 $
b1001 )
b1001 D
#1580000
0#
#1590000
b111111111111111111111111111111111111111111111111111111111111111111111111111 0
b1001010 -
b1001010 ;
1#
b1010 $
b1010 )
b1010 D
#1600000
0#
#1610000
b1111111111111111111111111111111111111111111111111111111111111111111111111111 0
b1001011 -
b1001011 ;
1#
b1011 $
b1011 )
b1011 D
#1620000
0#
#1630000
b11111111111111111111111111111111111111111111111111111111111111111111111111111 0
b1001100 -
b1001100 ;
1#
b1100 $
b1100 )
b1100 D
#1640000
0#
#1650000
b111111111111111111111111111111111111111111111111111111111111111111111111111111 0
b1001101 -
b1001101 ;
1#
b1101 $
b1101 )
b1101 D
#1660000
0#
#1670000
b1111111111111111111111111111111111111111111111111111111111111111111111111111111 0
b1001110 -
b1001110 ;
1#
b1110 $
b1110 )
b1110 D
#1680000
0#
#1690000
b11111111111111111111111111111111111111111111111111111111111111111111111111111111 0
b1001111 -
b1001111 ;
1#
b1111 $
b1111 )
b1111 D
#1700000
0#
#1710000
b111111111111111111111111111111111111111111111111111111111111111111111111111111111 0
b1010000 -
b1010000 ;
1#
b10000 $
b10000 )
b10000 D
#1720000
0#
#1730000
b1111111111111111111111111111111111111111111111111111111111111111111111111111111111 0
b1010001 -
b1010001 ;
1#
b10001 $
b10001 )
b10001 D
#1740000
0#
#1750000
b11111111111111111111111111111111111111111111111111111111111111111111111111111111111 0
b1010010 -
b1010010 ;
1#
b10010 $
b10010 )
b10010 D
#1760000
0#
#1770000
b111111111111111111111111111111111111111111111111111111111111111111111111111111111111 0
b1010011 -
b1010011 ;
1#
b10011 $
b10011 )
b10011 D
#1780000
0#
#1790000
b1111111111111111111111111111111111111111111111111111111111111111111111111111111111111 0
b1010100 -
b1010100 ;
1#
b10100 $
b10100 )
b10100 D
#1800000
0#
#1810000
b11111111111111111111111111111111111111111111111111111111111111111111111111111111111111 0
b1010101 -
b1010101 ;
1#
b10101 $
b10101 )
b10101 D
#1820000
0#
#1830000
b111111111111111111111111111111111111111111111111111111111111111111111111111111111111111 0
b1010110 -
b1010110 ;
1#
b10110 $
b10110 )
b10110 D
#1840000
0#
#1850000
b1111111111111111111111111111111111111111111111111111111111111111111111111111111111111111 0
b1010111 -
b1010111 ;
1#
b10111 $
b10111 )
b10111 D
#1860000
0#
#1870000
b11111111111111111111111111111111111111111111111111111111111111111111111111111111111111111 0
b1011000 -
b1011000 ;
1#
b11000 $
b11000 )
b11000 D
#1880000
0#
#1890000
b111111111111111111111111111111111111111111111111111111111111111111111111111111111111111111 0
b1011001 -
b1011001 ;
1#
b11001 $
b11001 )
b11001 D
#1900000
0#
#1910000
b1111111111111111111111111111111111111111111111111111111111111111111111111111111111111111111 0
b1011010 -
b1011010 ;
1#
b11010 $
b11010 )
b11010 D
#1920000
0#
#1930000
b11111111111111111111111111111111111111111111111111111111111111111111111111111111111111111111 0
b1011011 -
b1011011 ;
1#
b11011 $
b11011 )
b11011 D
#1940000
0#
#1950000
b111111111111111111111111111111111111111111111111111111111111111111111111111111111111111111111 0
b1011100 -
b1011100 ;
1#
b11100 $
b11100 )
b11100 D
#1960000
0#
#1970000
b1111111111111111111111111111111111111111111111111111111111111111111111111111111111111111111111 0
b1011101 -
b1011101 ;
1#
b11101 $
b11101 )
b11101 D
#1980000
0#
#1990000
b11111111111111111111111111111111111111111111111111111111111111111111111111111111111111111111111 0
b1011110 -
b1011110 ;
1#
b11110 $
b11110 )
b11110 D
#2000000
0#
#2010000
b111111111111111111111111111111111111111111111111111111111111111111111111111111111111111111111111 0
b1011111 -
b1011111 ;
1#
b11111 $
b11111 )
b11111 D
#2020000
0#
#2030000
b1111111111111111111111111111111111111111111111111111111111111111111111111111111111111111111111111 0
b1100000 -
b1100000 ;
1#
b0 $
b0 )
b11 &
b11 +
b11 C
b0 D
#2040000
0#
#2050000
b11111111111111111111111111111111111111111111111111111111111111111111111111111111111111111111111111 0
b1100001 -
b1100001 ;
1#
b1 $
b1 )
b1 D
#2060000
0#
#2070000
b111111111111111111111111111111111111111111111111111111111111111111111111111111111111111111111111111 0
b1100010 -
b1100010 ;
1#
b10 $
b10 )
b10 D
#2080000
0#
#2090000
b1111111111111111111111111111111111111111111111111111111111111111111111111111111111111111111111111111 0
b1100011 -
b1100011 ;
b10101010 2
b10101010 =
1#
b11 $
b11 )
b10101010 %
b10101010 *
b11 D
#2100000
0#
#2110000
b11111111111111111111111111111111111111111111111111111111111111111111111111111111111111111111111111111 0
b1100100 -
b1100100 ;
b11110000 2
b11110000 =
1#
b100 $
b100 )
b11110000 %
b11110000 *
b100 D
#2120000
0#
#2130000
b111111111111111111111111111111111111111111111111111111111111111111111111111111111111111111111111111111 0
b1100101 -
b1100101 ;
1#
b101 $
b101 )
b101 D
#2140000
0#
#2150000
b1111111111111111111111111111111111111111111111111111111111111111111111111111111111111111111111111111111 0
b1100110 -
b1100110 ;
1#
b110 $
b110 )
b110 D
#2160000
0#
#2170000
b11111111111111111111111111111111111111111111111111111111111111111111111111111111111111111111111111111111 0
b1100111 -
b1100111 ;
1#
b111 $
b111 )
b111 D
#2180000
0#
#2190000
b111111111111111111111111111111111111111111111111111111111111111111111111111111111111111111111111111111111 0
b1101000 -
b1101000 ;
1#
b1000 $
b1000 )
b1000 D
#2200000
0#
#2210000
b1111111111111111111111111111111111111111111111111111111111111111111111111111111111111111111111111111111111 0
b1101001 -
b1101001 ;
1#
b1001 $
b1001 )
b1001 D
#2220000
0#
#2230000
b11111111111111111111111111111111111111111111111111111111111111111111111111111111111111111111111111111111111 0
b1101010 -
b1101010 ;
1#
b1010 $
b1010 )
b1010 D
#2240000
0#
#2250000
b111111111111111111111111111111111111111111111111111111111111111111111111111111111111111111111111111111111111 0
b1101011 -
b1101011 ;
1#
b1011 $
b1011 )
b1011 D
#2260000
0#
#2270000
b1111111111111111111111111111111111111111111111111111111111111111111111111111111111111111111111111111111111111 0
b1101100 -
b1101100 ;
1#
b1100 $
b1100 )
b1100 D
#2280000
0#
#2290000
b11111111111111111111111111111111111111111111111111111111111111111111111111111111111111111111111111111111111111 0
b1101101 -
b1101101 ;
1#
b1101 $
b1101 )
b1101 D
#2300000
0#
#2310000
b111111111111111111111111111111111111111111111111111111111111111111111111111111111111111111111111111111111111111 0
b1101110 -
b1101110 ;
1#
b1110 $
b1110 )
b1110 D
#2320000
0#
#2330000
b1111111111111111111111111111111111111111111111111111111111111111111111111111111111111111111111111111111111111111 0
b1101111 -
b1101111 ;
1#
b1111 $
b1111 )
b1111 D
#2340000
0#
#2350000
b11111111111111111111111111111111111111111111111111111111111111111111111111111111111111111111111111111111111111111 0
b1110000 -
b1110000 ;
1#
b10000 $
b10000 )
b10000 D
#2360000
0#
#2370000
b111111111111111111111111111111111111111111111111111111111111111111111111111111111111111111111111111111111111111111 0
b1110001 -
b1110001 ;
1#
b10001 $
b10001 )
b10001 D
#2380000
0#
#2390000
b1111111111111111111111111111111111111111111111111111111111111111111111111111111111111111111111111111111111111111111 0
b1110010 -
b1110010 ;
1#
b10010 $
b10010 )
b10010 D
#2400000
0#
#2410000
b11111111111111111111111111111111111111111111111111111111111111111111111111111111111111111111111111111111111111111111 0
b1110011 -
b1110011 ;
1#
b10011 $
b10011 )
b10011 D
#2420000
0#
#2430000
b111111111111111111111111111111111111111111111111111111111111111111111111111111111111111111111111111111111111111111111 0
b1110100 -
b1110100 ;
1#
b10100 $
b10100 )
b10100 D
#2440000
0#
#2450000
b1111111111111111111111111111111111111111111111111111111111111111111111111111111111111111111111111111111111111111111111 0
b1110101 -
b1110101 ;
1#
b10101 $
b10101 )
b10101 D
#2460000
0#
#2470000
b11111111111111111111111111111111111111111111111111111111111111111111111111111111111111111111111111111111111111111111111 0
b1110110 -
b1110110 ;
1#
b10110 $
b10110 )
b10110 D
#2480000
0#
#2490000
b111111111111111111111111111111111111111111111111111111111111111111111111111111111111111111111111111111111111111111111111 0
b1110111 -
b1110111 ;
1#
b10111 $
b10111 )
b10111 D
#2500000
0#
#2510000
b1111111111111111111111111111111111111111111111111111111111111111111111111111111111111111111111111111111111111111111111111 0
b1111000 -
b1111000 ;
1#
b11000 $
b11000 )
b11000 D
#2520000
0#
#2530000
b11111111111111111111111111111111111111111111111111111111111111111111111111111111111111111111111111111111111111111111111111 0
b1111001 -
b1111001 ;
1#
b11001 $
b11001 )
b11001 D
#2540000
0#
#2550000
b111111111111111111111111111111111111111111111111111111111111111111111111111111111111111111111111111111111111111111111111111 0
b1111010 -
b1111010 ;
1#
b11010 $
b11010 )
b11010 D
#2560000
0#
#2570000
b1111111111111111111111111111111111111111111111111111111111111111111111111111111111111111111111111111111111111111111111111111 0
b1111011 -
b1111011 ;
1#
b11011 $
b11011 )
b11011 D
#2580000
0#
#2590000
b11111111111111111111111111111111111111111111111111111111111111111111111111111111111111111111111111111111111111111111111111111 0
b1111100 -
b1111100 ;
1#
b11100 $
b11100 )
b11100 D
#2600000
0#
#2610000
b111111111111111111111111111111111111111111111111111111111111111111111111111111111111111111111111111111111111111111111111111111 0
b1111101 -
b1111101 ;
1#
b11101 $
b11101 )
b11101 D
#2620000
0#
#2630000
b1111111111111111111111111111111111111111111111111111111111111111111111111111111111111111111111111111111111111111111111111111111 0
b1111110 -
b1111110 ;
1#
b11110 $
b11110 )
b11110 D
#2640000
0#
#2650000
b11111111111111111111111111111111111111111111111111111111111111111111111111111111111111111111111111111111111111111111111111111111 0
b1111111 -
b1111111 ;
1#
b11111 $
b11111 )
b11111 D
#2660000
0#
#2670000
b111111111111111111111111111111111111111111111111111111111111111111111111111111111111111111111111111111111111111111111111111111111 0
b10000000 -
b10000000 ;
1#
b0 $
b0 )
b100 &
b100 +
b100 C
b0 D
#2680000
0#
#2690000
b1111111111111111111111111111111111111111111111111111111111111111111111111111111111111111111111111111111111111111111111111111111111 0
b10000001 -
b10000001 ;
1#
b1 $
b1 )
b1 D
#2700000
0#
#2710000
b11111111111111111111111111111111111111111111111111111111111111111111111111111111111111111111111111111111111111111111111111111111111 0
b10000010 -
b10000010 ;
1#
b10 $
b10 )
b10 D
#2720000
0#
#2730000
b111111111111111111111111111111111111111111111111111111111111111111111111111111111111111111111111111111111111111111111111111111111111 0
b10000011 -
b10000011 ;
1#
b11 $
b11 )
b11 D
#2740000
0#
#2750000
b1111111111111111111111111111111111111111111111111111111111111111111111111111111111111111111111111111111111111111111111111111111111111 0
b10000100 -
b10000100 ;
b10101010 2
b10101010 =
1#
b100 $
b100 )
b10101010 %
b10101010 *
b100 D
#2760000
0#
#2770000
b11111111111111111111111111111111111111111111111111111111111111111111111111111111111111111111111111111111111111111111111111111111111111 0
b10000101 -
b10000101 ;
b11110000 2
b11110000 =
1#
b101 $
b101 )
b11110000 %
b11110000 *
b101 D
#2780000
0#
#2790000
b111111111111111111111111111111111111111111111111111111111111111111111111111111111111111111111111111111111111111111111111111111111111111 0
b10000110 -
b10000110 ;
1#
b110 $
b110 )
b110 D
#2800000
0#
#2810000
b1111111111111111111111111111111111111111111111111111111111111111111111111111111111111111111111111111111111111111111111111111111111111111 0
b10000111 -
b10000111 ;
1#
b111 $
b111 )
b111 D
#2820000
0#
#2830000
b11111111111111111111111111111111111111111111111111111111111111111111111111111111111111111111111111111111111111111111111111111111111111111 0
b10001000 -
b10001000 ;
1#
b1000 $
b1000 )
b1000 D
#2840000
0#
#2850000
b111111111111111111111111111111111111111111111111111111111111111111111111111111111111111111111111111111111111111111111111111111111111111111 0
b10001001 -
b10001001 ;
1#
b1001 $
b1001 )
b1001 D
#2860000
0#
#2870000
b1111111111111111111111111111111111111111111111111111111111111111111111111111111111111111111111111111111111111111111111111111111111111111111 0
b10001010 -
b10001010 ;
1#
b1010 $
b1010 )
b1010 D
#2880000
0#
#2890000
b11111111111111111111111111111111111111111111111111111111111111111111111111111111111111111111111111111111111111111111111111111111111111111111 0
b10001011 -
b10001011 ;
1#
b1011 $
b1011 )
b1011 D
#2900000
0#
#2910000
b111111111111111111111111111111111111111111111111111111111111111111111111111111111111111111111111111111111111111111111111111111111111111111111 0
b10001100 -
b10001100 ;
1#
b1100 $
b1100 )
b1100 D
#2920000
0#
#2930000
b1111111111111111111111111111111111111111111111111111111111111111111111111111111111111111111111111111111111111111111111111111111111111111111111 0
b10001101 -
b10001101 ;
1#
b1101 $
b1101 )
b1101 D
#2940000
0#
#2950000
b11111111111111111111111111111111111111111111111111111111111111111111111111111111111111111111111111111111111111111111111111111111111111111111111 0
b10001110 -
b10001110 ;
1#
b1110 $
b1110 )
b1110 D
#2960000
0#
#2970000
b111111111111111111111111111111111111111111111111111111111111111111111111111111111111111111111111111111111111111111111111111111111111111111111111 0
b10001111 -
b10001111 ;
1#
b1111 $
b1111 )
b1111 D
#2980000
0#
#2990000
b1111111111111111111111111111111111111111111111111111111111111111111111111111111111111111111111111111111111111111111111111111111111111111111111111 0
b10010000 -
b10010000 ;
1#
b10000 $
b10000 )
b10000 D
#3000000
0#
#3010000
b11111111111111111111111111111111111111111111111111111111111111111111111111111111111111111111111111111111111111111111111111111111111111111111111111 0
b10010001 -
b10010001 ;
1#
b10001 $
b10001 )
b10001 D
#3020000
0#
#3030000
b111111111111111111111111111111111111111111111111111111111111111111111111111111111111111111111111111111111111111111111111111111111111111111111111111 0
b10010010 -
b10010010 ;
1#
b10010 $
b10010 )
b10010 D
#3040000
0#
#3050000
b1111111111111111111111111111111111111111111111111111111111111111111111111111111111111111111111111111111111111111111111111111111111111111111111111111 0
b10010011 -
b10010011 ;
1#
b10011 $
b10011 )
b10011 D
#3060000
0#
#3070000
b11111111111111111111111111111111111111111111111111111111111111111111111111111111111111111111111111111111111111111111111111111111111111111111111111111 0
b10010100 -
b10010100 ;
1#
b10100 $
b10100 )
b10100 D
#3080000
0#
#3090000
b111111111111111111111111111111111111111111111111111111111111111111111111111111111111111111111111111111111111111111111111111111111111111111111111111111 0
b10010101 -
b10010101 ;
1#
b10101 $
b10101 )
b10101 D
#3100000
0#
#3110000
b1111111111111111111111111111111111111111111111111111111111111111111111111111111111111111111111111111111111111111111111111111111111111111111111111111111 0
b10010110 -
b10010110 ;
1#
b10110 $
b10110 )
b10110 D
#3120000
0#
#3130000
b11111111111111111111111111111111111111111111111111111111111111111111111111111111111111111111111111111111111111111111111111111111111111111111111111111111 0
b10010111 -
b10010111 ;
1#
b10111 $
b10111 )
b10111 D
#3140000
0#
#3150000
b111111111111111111111111111111111111111111111111111111111111111111111111111111111111111111111111111111111111111111111111111111111111111111111111111111111 0
b10011000 -
b10011000 ;
1#
b11000 $
b11000 )
b11000 D
#3160000
0#
#3170000
b1111111111111111111111111111111111111111111111111111111111111111111111111111111111111111111111111111111111111111111111111111111111111111111111111111111111 0
b10011001 -
b10011001 ;
1#
b11001 $
b11001 )
b11001 D
#3180000
0#
#3190000
b11111111111111111111111111111111111111111111111111111111111111111111111111111111111111111111111111111111111111111111111111111111111111111111111111111111111 0
b10011010 -
b10011010 ;
1#
b11010 $
b11010 )
b11010 D
#3200000
0#
#3210000
b111111111111111111111111111111111111111111111111111111111111111111111111111111111111111111111111111111111111111111111111111111111111111111111111111111111111 0
b10011011 -
b10011011 ;
1#
b11011 $
b11011 )
b11011 D
#3220000
0#
#3230000
b1111111111111111111111111111111111111111111111111111111111111111111111111111111111111111111111111111111111111111111111111111111111111111111111111111111111111 0
b10011100 -
b10011100 ;
1#
b11100 $
b11100 )
b11100 D
#3240000
0#
#3250000
b11111111111111111111111111111111111111111111111111111111111111111111111111111111111111111111111111111111111111111111111111111111111111111111111111111111111111 0
b10011101 -
b10011101 ;
1#
b11101 $
b11101 )
b11101 D
#3260000
0#
#3270000
b111111111111111111111111111111111111111111111111111111111111111111111111111111111111111111111111111111111111111111111111111111111111111111111111111111111111111 0
b10011110 -
b10011110 ;
1#
b11110 $
b11110 )
b11110 D
#3280000
0#
#3290000
b1111111111111111111111111111111111111111111111111111111111111111111111111111111111111111111111111111111111111111111111111111111111111111111111111111111111111111 0
b10011111 -
b10011111 ;
1#
b11111 $
b11111 )
b11111 D
#3300000
0#
#3310000
b11111111111111111111111111111111111111111111111111111111111111111111111111111111111111111111111111111111111111111111111111111111111111111111111111111111111111111 0
b10100000 -
b10100000 ;
1#
b0 $
b0 )
b101 &
b101 +
b101 C
b0 D
#3320000
0#
#3330000
b111111111111111111111111111111111111111111111111111111111111111111111111111111111111111111111111111111111111111111111111111111111111111111111111111111111111111111 0
b10100001 -
b10100001 ;
1#
b1 $
b1 )
b1 D
#3340000
0#
#3350000
b1111111111111111111111111111111111111111111111111111111111111111111111111111111111111111111111111111111111111111111111111111111111111111111111111111111111111111111 0
b10100010 -
b10100010 ;
1#
b10 $
b10 )
b10 D
#3360000
0#
#3370000
b11111111111111111111111111111111111111111111111111111111111111111111111111111111111111111111111111111111111111111111111111111111111111111111111111111111111111111111 0
b10100011 -
b10100011 ;
1#
b11 $
b11 )
b11 D
#3380000
0#
#3390000
b111111111111111111111111111111111111111111111111111111111111111111111111111111111111111111111111111111111111111111111111111111111111111111111111111111111111111111111 0
b10100100 -
b10100100 ;
1#
b100 $
b100 )
b100 D
#3400000
0#
#3410000
b1111111111111111111111111111111111111111111111111111111111111111111111111111111111111111111111111111111111111111111111111111111111111111111111111111111111111111111111 0
b10100101 -
b10100101 ;
b10101010 2
b10101010 =
1#
b101 $
b101 )
b10101010 %
b10101010 *
b101 D
#3420000
0#
